(footprint "PQFN50P200X200X85-10N" (version 20221018) (generator pcbnew)
  (layer "F.Cu")
  (attr through_hole)
  (fp_text reference "REF**" (at 1.175 -2.135) (layer "F.SilkS")
      (effects (font (size 1 1) (thickness 0.15)))
    (tstamp 2707d70f-5f60-40ed-b92a-3df3c570f1df)
  )
  (fp_text value "PQFN50P200X200X85-10N" (at 11.335 2.135) (layer "F.Fab")
      (effects (font (size 1 1) (thickness 0.15)))
    (tstamp a1d7de08-96fb-4b67-b16e-8a7bf99e768d)
  )
  (fp_line (start -1 -1) (end -1 -0.745)
    (stroke (width 0.127) (type solid)) (layer "F.SilkS") (tstamp 1246efc1-be16-495e-ad0d-660a83c6cf35))
  (fp_line (start -1 1) (end -1 0.745)
    (stroke (width 0.127) (type solid)) (layer "F.SilkS") (tstamp e22bcd05-4f6a-4c51-a682-3287655ed26e))
  (fp_line (start 1 -1) (end 1 -0.745)
    (stroke (width 0.127) (type solid)) (layer "F.SilkS") (tstamp 81353148-1cf2-42b4-94a5-5c92c3f94aff))
  (fp_line (start 1 1) (end 1 0.745)
    (stroke (width 0.127) (type solid)) (layer "F.SilkS") (tstamp c4d2a1ab-614f-48a8-88b3-83d96186f798))
  (fp_line (start -1.25 -1.25) (end 1.25 -1.25)
    (stroke (width 0.05) (type solid)) (layer "F.CrtYd") (tstamp ccd587a8-cd30-420d-9956-3ff6af0c0ead))
  (fp_line (start -1.25 1.25) (end -1.25 -1.25)
    (stroke (width 0.05) (type solid)) (layer "F.CrtYd") (tstamp 7554ff7f-7d8f-4489-8fb9-99bb3b8870d4))
  (fp_line (start -1.25 1.25) (end 1.25 1.25)
    (stroke (width 0.05) (type solid)) (layer "F.CrtYd") (tstamp c31d1cf6-0e27-4bc3-b0af-6878129ce9a9))
  (fp_line (start 1.25 1.25) (end 1.25 -1.25)
    (stroke (width 0.05) (type solid)) (layer "F.CrtYd") (tstamp 7905dcaa-899f-4d6c-9903-48e43d5d40c2))
  (fp_line (start -1 1) (end -1 -1)
    (stroke (width 0.127) (type solid)) (layer "F.Fab") (tstamp 99a0a7d4-9184-477e-808f-c60884925527))
  (fp_line (start 1 -1) (end -1 -1)
    (stroke (width 0.127) (type solid)) (layer "F.Fab") (tstamp 9927849e-fcf2-457d-ab93-44f92d273bcc))
  (fp_line (start 1 1) (end -1 1)
    (stroke (width 0.127) (type solid)) (layer "F.Fab") (tstamp d6eca733-29d3-45b3-b03a-85bb2a945354))
  (fp_line (start 1 1) (end 1 -1)
    (stroke (width 0.127) (type solid)) (layer "F.Fab") (tstamp eb179754-8ed4-412b-84ce-25c734ca2188))
  (fp_circle (center -1.595 -0.25) (end -1.495 -0.25)
    (stroke (width 0.2) (type solid)) (fill none) (layer "F.Fab") (tstamp 6fe47366-e13b-4ad6-80ba-27d67dcf896c))
  (pad "1" smd roundrect (at -0.78 -0.25) (size 0.35 0.3) (layers "F.Cu" "F.Paste" "F.Mask") (roundrect_rratio 0.04) (tstamp 9caa324f-7eb4-4e62-9465-4c997e1b643b))
  (pad "2" smd roundrect (at -0.78 0.25) (size 0.35 0.3) (layers "F.Cu" "F.Paste" "F.Mask") (roundrect_rratio 0.04) (tstamp ac7965c3-6c3d-48b5-8098-beef116bdc46))
  (pad "3" smd roundrect (at -0.5 0.78) (size 0.3 0.35) (layers "F.Cu" "F.Paste" "F.Mask") (roundrect_rratio 0.05) (tstamp 59c021d0-9114-4b62-9f33-0f0fe572c217))
  (pad "4" smd roundrect (at 0 0.78) (size 0.3 0.35) (layers "F.Cu" "F.Paste" "F.Mask") (roundrect_rratio 0.05) (tstamp cd5fb38d-7d3d-498c-94ec-e689481bd4d5))
  (pad "5" smd roundrect (at 0.5 0.78) (size 0.3 0.35) (layers "F.Cu" "F.Paste" "F.Mask") (roundrect_rratio 0.05) (tstamp 86aa89ff-2aca-406f-a8be-1e97830b7bd1))
  (pad "6" smd roundrect (at 0.78 0.25) (size 0.35 0.3) (layers "F.Cu" "F.Paste" "F.Mask") (roundrect_rratio 0.04) (tstamp 2dc917a8-c0ec-4a12-8578-842ffabbb12f))
  (pad "7" smd roundrect (at 0.78 -0.25) (size 0.35 0.3) (layers "F.Cu" "F.Paste" "F.Mask") (roundrect_rratio 0.04) (tstamp bd61232d-f680-41ab-9450-b885528ee553))
  (pad "8" smd roundrect (at 0.5 -0.78) (size 0.3 0.35) (layers "F.Cu" "F.Paste" "F.Mask") (roundrect_rratio 0.05) (tstamp 117d4bfe-e012-4a79-af32-a252dd6b9880))
  (pad "9" smd roundrect (at 0 -0.78) (size 0.3 0.35) (layers "F.Cu" "F.Paste" "F.Mask") (roundrect_rratio 0.05) (tstamp 2c97cdef-1884-48e5-a0d1-d71dbe68ea62))
  (pad "10" smd roundrect (at -0.5 -0.78) (size 0.3 0.35) (layers "F.Cu" "F.Paste" "F.Mask") (roundrect_rratio 0.05) (tstamp b4f8c600-7fd0-4a46-8ff3-a6c8d99b09f6))
  (model "${KIPRJMOD}/standard-libs/3d/ICP-10100.step"
    (offset (xyz 0 0 0))
    (scale (xyz 1 1 1))
    (rotate (xyz -90 0 0))
  )
)
