
(module LED_EAST1616RGBA3 (layer F.Cu) (tedit 620BFA9A)
  (descr "")
  (fp_text reference REF** (at 0.024 -1.5548 0) (layer F.SilkS)
    (effects (font (size 0.48 0.48) (thickness 0.15)))
  )
  (fp_text value LED_EAST1616RGBA3 (at 3.6816 1.5548 0) (layer F.Fab)
    (effects (font (size 0.48 0.48) (thickness 0.15)))
  )
  (pad 1 smd rect (at 0.7 -0.45) (size 0.6 0.65) (layers F.Cu F.Mask F.Paste))
  (pad 2 smd rect (at -0.7 -0.45) (size 0.6 0.65) (layers F.Cu F.Mask F.Paste))
  (pad 3 smd rect (at 0.7 0.45) (size 0.6 0.65) (layers F.Cu F.Mask F.Paste))
  (pad 4 smd rect (at -0.7 0.45) (size 0.6 0.65) (layers F.Cu F.Mask F.Paste))
  (fp_line (start -0.08 -0.8) (end 0.08 -0.8) (layer F.SilkS) (width 0.127))
  (fp_line (start 0.08 0.8) (end -0.08 0.8) (layer F.SilkS) (width 0.127))
  (fp_line (start -0.8 -0.8) (end 0.8 -0.8) (layer F.Fab) (width 0.127))
  (fp_line (start 0.8 -0.8) (end 0.8 0.8) (layer F.Fab) (width 0.127))
  (fp_line (start 0.8 0.8) (end -0.8 0.8) (layer F.Fab) (width 0.127))
  (fp_line (start -0.8 0.8) (end -0.8 -0.8) (layer F.Fab) (width 0.127))
  (fp_line (start -1.25 -1.05) (end 1.25 -1.05) (layer F.CrtYd) (width 0.05))
  (fp_line (start 1.25 -1.05) (end 1.25 1.05) (layer F.CrtYd) (width 0.05))
  (fp_line (start 1.25 1.05) (end -1.25 1.05) (layer F.CrtYd) (width 0.05))
  (fp_line (start -1.25 1.05) (end -1.25 -1.05) (layer F.CrtYd) (width 0.05))
  (fp_circle (center 1.6 -0.45) (end 1.7 -0.45) (layer F.SilkS) (width 0.2))
  (fp_circle (center 1.6 -0.45) (end 1.7 -0.45) (layer F.Fab) (width 0.2))
)