
(module HIROSE_DF40C-40DS-0.4V_51_ (layer F.Cu) (tedit 62BD4B77)
  (descr "")
  (fp_text reference REF** (at -2.235 -3.605 0) (layer F.SilkS)
    (effects (font (size 1.0 1.0) (thickness 0.15)))
  )
  (fp_text value HIROSE_DF40C-40DS-0.4V_51_ (at 11.1 3.105 0) (layer F.Fab)
    (effects (font (size 1.0 1.0) (thickness 0.15)))
  )
  (pad 1 smd rect (at -3.8 -1.54) (size 0.2 0.7) (layers F.Cu F.Mask))
  (pad 2 smd rect (at -3.8 1.54 180.0) (size 0.2 0.7) (layers F.Cu F.Mask))
  (pad 3 smd rect (at -3.4 -1.54) (size 0.2 0.7) (layers F.Cu F.Mask))
  (pad 4 smd rect (at -3.4 1.54 180.0) (size 0.2 0.7) (layers F.Cu F.Mask))
  (pad 5 smd rect (at -3.0 -1.54) (size 0.2 0.7) (layers F.Cu F.Mask))
  (pad 6 smd rect (at -3.0 1.54 180.0) (size 0.2 0.7) (layers F.Cu F.Mask))
  (pad 7 smd rect (at -2.6 -1.54) (size 0.2 0.7) (layers F.Cu F.Mask))
  (pad 8 smd rect (at -2.6 1.54 180.0) (size 0.2 0.7) (layers F.Cu F.Mask))
  (pad 9 smd rect (at -2.2 -1.54) (size 0.2 0.7) (layers F.Cu F.Mask))
  (pad 10 smd rect (at -2.2 1.54 180.0) (size 0.2 0.7) (layers F.Cu F.Mask))
  (pad 11 smd rect (at -1.8 -1.54) (size 0.2 0.7) (layers F.Cu F.Mask))
  (pad 12 smd rect (at -1.8 1.54 180.0) (size 0.2 0.7) (layers F.Cu F.Mask))
  (pad 13 smd rect (at -1.4 -1.54) (size 0.2 0.7) (layers F.Cu F.Mask))
  (pad 14 smd rect (at -1.4 1.54 180.0) (size 0.2 0.7) (layers F.Cu F.Mask))
  (pad 15 smd rect (at -1.0 -1.54) (size 0.2 0.7) (layers F.Cu F.Mask))
  (pad 16 smd rect (at -1.0 1.54 180.0) (size 0.2 0.7) (layers F.Cu F.Mask))
  (pad 17 smd rect (at -0.6 -1.54) (size 0.2 0.7) (layers F.Cu F.Mask))
  (pad 18 smd rect (at -0.6 1.54 180.0) (size 0.2 0.7) (layers F.Cu F.Mask))
  (pad 19 smd rect (at -0.2 -1.54) (size 0.2 0.7) (layers F.Cu F.Mask))
  (pad 20 smd rect (at -0.2 1.54 180.0) (size 0.2 0.7) (layers F.Cu F.Mask))
  (pad 21 smd rect (at 0.2 -1.54) (size 0.2 0.7) (layers F.Cu F.Mask))
  (pad 22 smd rect (at 0.2 1.54 180.0) (size 0.2 0.7) (layers F.Cu F.Mask))
  (pad 23 smd rect (at 0.6 -1.54) (size 0.2 0.7) (layers F.Cu F.Mask))
  (pad 24 smd rect (at 0.6 1.54 180.0) (size 0.2 0.7) (layers F.Cu F.Mask))
  (pad 25 smd rect (at 1.0 -1.54) (size 0.2 0.7) (layers F.Cu F.Mask))
  (pad 26 smd rect (at 1.0 1.54 180.0) (size 0.2 0.7) (layers F.Cu F.Mask))
  (pad 27 smd rect (at 1.4 -1.54) (size 0.2 0.7) (layers F.Cu F.Mask))
  (pad 28 smd rect (at 1.4 1.54 180.0) (size 0.2 0.7) (layers F.Cu F.Mask))
  (pad 29 smd rect (at 1.8 -1.54) (size 0.2 0.7) (layers F.Cu F.Mask))
  (pad 30 smd rect (at 1.8 1.54 180.0) (size 0.2 0.7) (layers F.Cu F.Mask))
  (pad 31 smd rect (at 2.2 -1.54) (size 0.2 0.7) (layers F.Cu F.Mask))
  (pad 32 smd rect (at 2.2 1.54 180.0) (size 0.2 0.7) (layers F.Cu F.Mask))
  (pad 33 smd rect (at 2.6 -1.54) (size 0.2 0.7) (layers F.Cu F.Mask))
  (pad 34 smd rect (at 2.6 1.54 180.0) (size 0.2 0.7) (layers F.Cu F.Mask))
  (pad 35 smd rect (at 3.0 -1.54) (size 0.2 0.7) (layers F.Cu F.Mask))
  (pad 36 smd rect (at 3.0 1.54 180.0) (size 0.2 0.7) (layers F.Cu F.Mask))
  (pad 37 smd rect (at 3.4 -1.54) (size 0.2 0.7) (layers F.Cu F.Mask))
  (pad 38 smd rect (at 3.4 1.54 180.0) (size 0.2 0.7) (layers F.Cu F.Mask))
  (pad 39 smd rect (at 3.8 -1.54) (size 0.2 0.7) (layers F.Cu F.Mask))
  (pad 40 smd rect (at 3.8 1.54 180.0) (size 0.2 0.7) (layers F.Cu F.Mask))
  (fp_circle (center -3.83 -2.5) (end -3.73 -2.5) (layer F.SilkS) (width 0.2))
  (fp_circle (center -3.83 -2.5) (end -3.73 -2.5) (layer F.Fab) (width 0.2))
  (fp_line (start -5.3 -1.44) (end -5.3 1.44) (layer F.Fab) (width 0.127))
  (fp_line (start -5.3 1.44) (end 5.3 1.44) (layer F.Fab) (width 0.127))
  (fp_line (start 5.3 1.44) (end 5.3 -1.44) (layer F.Fab) (width 0.127))
  (fp_line (start 5.3 -1.44) (end -5.3 -1.44) (layer F.Fab) (width 0.127))
  (fp_line (start -5.3 -1.44) (end -5.3 1.44) (layer F.SilkS) (width 0.127))
  (fp_line (start -5.3 -1.44) (end -4.22 -1.44) (layer F.SilkS) (width 0.127))
  (fp_line (start -5.3 1.44) (end -4.22 1.44) (layer F.SilkS) (width 0.127))
  (fp_line (start 5.3 1.44) (end 5.3 -1.44) (layer F.SilkS) (width 0.127))
  (fp_line (start 5.3 1.44) (end 4.22 1.44) (layer F.SilkS) (width 0.127))
  (fp_line (start 5.3 -1.44) (end 4.22 -1.44) (layer F.SilkS) (width 0.127))
  (fp_line (start -5.55 -2.14) (end 5.55 -2.14) (layer F.CrtYd) (width 0.05))
  (fp_line (start 5.55 -2.14) (end 5.55 2.14) (layer F.CrtYd) (width 0.05))
  (fp_line (start 5.55 2.14) (end -5.55 2.14) (layer F.CrtYd) (width 0.05))
  (fp_line (start -5.55 2.14) (end -5.55 -2.14) (layer F.CrtYd) (width 0.05))
  (zone (net 0) (net_name "") (layers *.Cu) (hatch full 0.508)
    (connect_pads (clearance 0))
    (min_thickness 0.01)
    (keepout (tracks allowed) (vias not_allowed) (pads allowed ) (copperpour allowed) (footprints allowed))
    (fill (thermal_gap 0.508) (thermal_bridge_width 0.508))
    (polygon
      (pts
        (xy -0.3 0.75)
        (xy -0.1 0.75)
        (xy -0.1 1.19)
        (xy -0.3 1.19)
      )
    )
  )
  (zone (net 0) (net_name "") (layers *.Cu) (hatch full 0.508)
    (connect_pads (clearance 0))
    (min_thickness 0.01)
    (keepout (tracks allowed) (vias not_allowed) (pads allowed ) (copperpour allowed) (footprints allowed))
    (fill (thermal_gap 0.508) (thermal_bridge_width 0.508))
    (polygon
      (pts
        (xy 0.1 0.75)
        (xy 0.3 0.75)
        (xy 0.3 1.19)
        (xy 0.1 1.19)
      )
    )
  )
  (zone (net 0) (net_name "") (layers *.Cu) (hatch full 0.508)
    (connect_pads (clearance 0))
    (min_thickness 0.01)
    (keepout (tracks allowed) (vias not_allowed) (pads allowed ) (copperpour allowed) (footprints allowed))
    (fill (thermal_gap 0.508) (thermal_bridge_width 0.508))
    (polygon
      (pts
        (xy -0.7 0.75)
        (xy -0.5 0.75)
        (xy -0.5 1.19)
        (xy -0.7 1.19)
      )
    )
  )
  (zone (net 0) (net_name "") (layers *.Cu) (hatch full 0.508)
    (connect_pads (clearance 0))
    (min_thickness 0.01)
    (keepout (tracks allowed) (vias not_allowed) (pads allowed ) (copperpour allowed) (footprints allowed))
    (fill (thermal_gap 0.508) (thermal_bridge_width 0.508))
    (polygon
      (pts
        (xy -1.1 0.75)
        (xy -0.9 0.75)
        (xy -0.9 1.19)
        (xy -1.1 1.19)
      )
    )
  )
  (zone (net 0) (net_name "") (layers *.Cu) (hatch full 0.508)
    (connect_pads (clearance 0))
    (min_thickness 0.01)
    (keepout (tracks allowed) (vias not_allowed) (pads allowed ) (copperpour allowed) (footprints allowed))
    (fill (thermal_gap 0.508) (thermal_bridge_width 0.508))
    (polygon
      (pts
        (xy -1.5 0.75)
        (xy -1.3 0.75)
        (xy -1.3 1.19)
        (xy -1.5 1.19)
      )
    )
  )
  (zone (net 0) (net_name "") (layers *.Cu) (hatch full 0.508)
    (connect_pads (clearance 0))
    (min_thickness 0.01)
    (keepout (tracks allowed) (vias not_allowed) (pads allowed ) (copperpour allowed) (footprints allowed))
    (fill (thermal_gap 0.508) (thermal_bridge_width 0.508))
    (polygon
      (pts
        (xy -1.9 0.75)
        (xy -1.7 0.75)
        (xy -1.7 1.19)
        (xy -1.9 1.19)
      )
    )
  )
  (zone (net 0) (net_name "") (layers *.Cu) (hatch full 0.508)
    (connect_pads (clearance 0))
    (min_thickness 0.01)
    (keepout (tracks allowed) (vias not_allowed) (pads allowed ) (copperpour allowed) (footprints allowed))
    (fill (thermal_gap 0.508) (thermal_bridge_width 0.508))
    (polygon
      (pts
        (xy -2.3 0.75)
        (xy -2.1 0.75)
        (xy -2.1 1.19)
        (xy -2.3 1.19)
      )
    )
  )
  (zone (net 0) (net_name "") (layers *.Cu) (hatch full 0.508)
    (connect_pads (clearance 0))
    (min_thickness 0.01)
    (keepout (tracks allowed) (vias not_allowed) (pads allowed ) (copperpour allowed) (footprints allowed))
    (fill (thermal_gap 0.508) (thermal_bridge_width 0.508))
    (polygon
      (pts
        (xy -2.7 0.75)
        (xy -2.5 0.75)
        (xy -2.5 1.19)
        (xy -2.7 1.19)
      )
    )
  )
  (zone (net 0) (net_name "") (layers *.Cu) (hatch full 0.508)
    (connect_pads (clearance 0))
    (min_thickness 0.01)
    (keepout (tracks allowed) (vias not_allowed) (pads allowed ) (copperpour allowed) (footprints allowed))
    (fill (thermal_gap 0.508) (thermal_bridge_width 0.508))
    (polygon
      (pts
        (xy -3.1 0.75)
        (xy -2.9 0.75)
        (xy -2.9 1.19)
        (xy -3.1 1.19)
      )
    )
  )
  (zone (net 0) (net_name "") (layers *.Cu) (hatch full 0.508)
    (connect_pads (clearance 0))
    (min_thickness 0.01)
    (keepout (tracks allowed) (vias not_allowed) (pads allowed ) (copperpour allowed) (footprints allowed))
    (fill (thermal_gap 0.508) (thermal_bridge_width 0.508))
    (polygon
      (pts
        (xy -3.5 0.75)
        (xy -3.3 0.75)
        (xy -3.3 1.19)
        (xy -3.5 1.19)
      )
    )
  )
  (zone (net 0) (net_name "") (layers *.Cu) (hatch full 0.508)
    (connect_pads (clearance 0))
    (min_thickness 0.01)
    (keepout (tracks allowed) (vias not_allowed) (pads allowed ) (copperpour allowed) (footprints allowed))
    (fill (thermal_gap 0.508) (thermal_bridge_width 0.508))
    (polygon
      (pts
        (xy -3.9 0.75)
        (xy -3.7 0.75)
        (xy -3.7 1.19)
        (xy -3.9 1.19)
      )
    )
  )
  (zone (net 0) (net_name "") (layers *.Cu) (hatch full 0.508)
    (connect_pads (clearance 0))
    (min_thickness 0.01)
    (keepout (tracks allowed) (vias not_allowed) (pads allowed ) (copperpour allowed) (footprints allowed))
    (fill (thermal_gap 0.508) (thermal_bridge_width 0.508))
    (polygon
      (pts
        (xy 3.7 0.75)
        (xy 3.9 0.75)
        (xy 3.9 1.19)
        (xy 3.7 1.19)
      )
    )
  )
  (zone (net 0) (net_name "") (layers *.Cu) (hatch full 0.508)
    (connect_pads (clearance 0))
    (min_thickness 0.01)
    (keepout (tracks allowed) (vias not_allowed) (pads allowed ) (copperpour allowed) (footprints allowed))
    (fill (thermal_gap 0.508) (thermal_bridge_width 0.508))
    (polygon
      (pts
        (xy 3.3 0.75)
        (xy 3.5 0.75)
        (xy 3.5 1.19)
        (xy 3.3 1.19)
      )
    )
  )
  (zone (net 0) (net_name "") (layers *.Cu) (hatch full 0.508)
    (connect_pads (clearance 0))
    (min_thickness 0.01)
    (keepout (tracks allowed) (vias not_allowed) (pads allowed ) (copperpour allowed) (footprints allowed))
    (fill (thermal_gap 0.508) (thermal_bridge_width 0.508))
    (polygon
      (pts
        (xy 2.9 0.75)
        (xy 3.1 0.75)
        (xy 3.1 1.19)
        (xy 2.9 1.19)
      )
    )
  )
  (zone (net 0) (net_name "") (layers *.Cu) (hatch full 0.508)
    (connect_pads (clearance 0))
    (min_thickness 0.01)
    (keepout (tracks allowed) (vias not_allowed) (pads allowed ) (copperpour allowed) (footprints allowed))
    (fill (thermal_gap 0.508) (thermal_bridge_width 0.508))
    (polygon
      (pts
        (xy 2.5 0.75)
        (xy 2.7 0.75)
        (xy 2.7 1.19)
        (xy 2.5 1.19)
      )
    )
  )
  (zone (net 0) (net_name "") (layers *.Cu) (hatch full 0.508)
    (connect_pads (clearance 0))
    (min_thickness 0.01)
    (keepout (tracks allowed) (vias not_allowed) (pads allowed ) (copperpour allowed) (footprints allowed))
    (fill (thermal_gap 0.508) (thermal_bridge_width 0.508))
    (polygon
      (pts
        (xy 2.1 0.75)
        (xy 2.3 0.75)
        (xy 2.3 1.19)
        (xy 2.1 1.19)
      )
    )
  )
  (zone (net 0) (net_name "") (layers *.Cu) (hatch full 0.508)
    (connect_pads (clearance 0))
    (min_thickness 0.01)
    (keepout (tracks allowed) (vias not_allowed) (pads allowed ) (copperpour allowed) (footprints allowed))
    (fill (thermal_gap 0.508) (thermal_bridge_width 0.508))
    (polygon
      (pts
        (xy 1.7 0.75)
        (xy 1.9 0.75)
        (xy 1.9 1.19)
        (xy 1.7 1.19)
      )
    )
  )
  (zone (net 0) (net_name "") (layers *.Cu) (hatch full 0.508)
    (connect_pads (clearance 0))
    (min_thickness 0.01)
    (keepout (tracks allowed) (vias not_allowed) (pads allowed ) (copperpour allowed) (footprints allowed))
    (fill (thermal_gap 0.508) (thermal_bridge_width 0.508))
    (polygon
      (pts
        (xy 1.3 0.75)
        (xy 1.5 0.75)
        (xy 1.5 1.19)
        (xy 1.3 1.19)
      )
    )
  )
  (zone (net 0) (net_name "") (layers *.Cu) (hatch full 0.508)
    (connect_pads (clearance 0))
    (min_thickness 0.01)
    (keepout (tracks allowed) (vias not_allowed) (pads allowed ) (copperpour allowed) (footprints allowed))
    (fill (thermal_gap 0.508) (thermal_bridge_width 0.508))
    (polygon
      (pts
        (xy 0.9 0.75)
        (xy 1.1 0.75)
        (xy 1.1 1.19)
        (xy 0.9 1.19)
      )
    )
  )
  (zone (net 0) (net_name "") (layers *.Cu) (hatch full 0.508)
    (connect_pads (clearance 0))
    (min_thickness 0.01)
    (keepout (tracks allowed) (vias not_allowed) (pads allowed ) (copperpour allowed) (footprints allowed))
    (fill (thermal_gap 0.508) (thermal_bridge_width 0.508))
    (polygon
      (pts
        (xy 0.5 0.75)
        (xy 0.7 0.75)
        (xy 0.7 1.19)
        (xy 0.5 1.19)
      )
    )
  )
  (zone (net 0) (net_name "") (layers *.Cu) (hatch full 0.508)
    (connect_pads (clearance 0))
    (min_thickness 0.01)
    (keepout (tracks allowed) (vias not_allowed) (pads allowed ) (copperpour allowed) (footprints allowed))
    (fill (thermal_gap 0.508) (thermal_bridge_width 0.508))
    (polygon
      (pts
        (xy 0.1 0.75)
        (xy 0.3 0.75)
        (xy 0.3 1.19)
        (xy 0.1 1.19)
      )
    )
  )
  (zone (net 0) (net_name "") (layer F.Cu) (hatch full 0.508)
    (connect_pads (clearance 0))
    (min_thickness 0.01)
    (keepout (tracks not_allowed) (vias not_allowed) (pads not_allowed ) (copperpour not_allowed) (footprints allowed))
    (fill (thermal_gap 0.508) (thermal_bridge_width 0.508))
    (polygon
      (pts
        (xy -0.3 -1.19)
        (xy -0.1 -1.19)
        (xy -0.1 -0.75)
        (xy -0.3 -0.75)
      )
    )
  )
  (zone (net 0) (net_name "") (layer F.Cu) (hatch full 0.508)
    (connect_pads (clearance 0))
    (min_thickness 0.01)
    (keepout (tracks not_allowed) (vias not_allowed) (pads not_allowed ) (copperpour not_allowed) (footprints allowed))
    (fill (thermal_gap 0.508) (thermal_bridge_width 0.508))
    (polygon
      (pts
        (xy 0.1 -1.19)
        (xy 0.3 -1.19)
        (xy 0.3 -0.75)
        (xy 0.1 -0.75)
      )
    )
  )
  (zone (net 0) (net_name "") (layer F.Cu) (hatch full 0.508)
    (connect_pads (clearance 0))
    (min_thickness 0.01)
    (keepout (tracks not_allowed) (vias not_allowed) (pads not_allowed ) (copperpour not_allowed) (footprints allowed))
    (fill (thermal_gap 0.508) (thermal_bridge_width 0.508))
    (polygon
      (pts
        (xy -0.7 -1.19)
        (xy -0.5 -1.19)
        (xy -0.5 -0.75)
        (xy -0.7 -0.75)
      )
    )
  )
  (zone (net 0) (net_name "") (layer F.Cu) (hatch full 0.508)
    (connect_pads (clearance 0))
    (min_thickness 0.01)
    (keepout (tracks not_allowed) (vias not_allowed) (pads not_allowed ) (copperpour not_allowed) (footprints allowed))
    (fill (thermal_gap 0.508) (thermal_bridge_width 0.508))
    (polygon
      (pts
        (xy -1.1 -1.19)
        (xy -0.9 -1.19)
        (xy -0.9 -0.75)
        (xy -1.1 -0.75)
      )
    )
  )
  (zone (net 0) (net_name "") (layer F.Cu) (hatch full 0.508)
    (connect_pads (clearance 0))
    (min_thickness 0.01)
    (keepout (tracks not_allowed) (vias not_allowed) (pads not_allowed ) (copperpour not_allowed) (footprints allowed))
    (fill (thermal_gap 0.508) (thermal_bridge_width 0.508))
    (polygon
      (pts
        (xy -1.5 -1.19)
        (xy -1.3 -1.19)
        (xy -1.3 -0.75)
        (xy -1.5 -0.75)
      )
    )
  )
  (zone (net 0) (net_name "") (layer F.Cu) (hatch full 0.508)
    (connect_pads (clearance 0))
    (min_thickness 0.01)
    (keepout (tracks not_allowed) (vias not_allowed) (pads not_allowed ) (copperpour not_allowed) (footprints allowed))
    (fill (thermal_gap 0.508) (thermal_bridge_width 0.508))
    (polygon
      (pts
        (xy -1.9 -1.19)
        (xy -1.7 -1.19)
        (xy -1.7 -0.75)
        (xy -1.9 -0.75)
      )
    )
  )
  (zone (net 0) (net_name "") (layer F.Cu) (hatch full 0.508)
    (connect_pads (clearance 0))
    (min_thickness 0.01)
    (keepout (tracks not_allowed) (vias not_allowed) (pads not_allowed ) (copperpour not_allowed) (footprints allowed))
    (fill (thermal_gap 0.508) (thermal_bridge_width 0.508))
    (polygon
      (pts
        (xy -2.3 -1.19)
        (xy -2.1 -1.19)
        (xy -2.1 -0.75)
        (xy -2.3 -0.75)
      )
    )
  )
  (zone (net 0) (net_name "") (layer F.Cu) (hatch full 0.508)
    (connect_pads (clearance 0))
    (min_thickness 0.01)
    (keepout (tracks not_allowed) (vias not_allowed) (pads not_allowed ) (copperpour not_allowed) (footprints allowed))
    (fill (thermal_gap 0.508) (thermal_bridge_width 0.508))
    (polygon
      (pts
        (xy -2.7 -1.19)
        (xy -2.5 -1.19)
        (xy -2.5 -0.75)
        (xy -2.7 -0.75)
      )
    )
  )
  (zone (net 0) (net_name "") (layer F.Cu) (hatch full 0.508)
    (connect_pads (clearance 0))
    (min_thickness 0.01)
    (keepout (tracks not_allowed) (vias not_allowed) (pads not_allowed ) (copperpour not_allowed) (footprints allowed))
    (fill (thermal_gap 0.508) (thermal_bridge_width 0.508))
    (polygon
      (pts
        (xy -3.1 -1.19)
        (xy -2.9 -1.19)
        (xy -2.9 -0.75)
        (xy -3.1 -0.75)
      )
    )
  )
  (zone (net 0) (net_name "") (layer F.Cu) (hatch full 0.508)
    (connect_pads (clearance 0))
    (min_thickness 0.01)
    (keepout (tracks not_allowed) (vias not_allowed) (pads not_allowed ) (copperpour not_allowed) (footprints allowed))
    (fill (thermal_gap 0.508) (thermal_bridge_width 0.508))
    (polygon
      (pts
        (xy -3.5 -1.19)
        (xy -3.3 -1.19)
        (xy -3.3 -0.75)
        (xy -3.5 -0.75)
      )
    )
  )
  (zone (net 0) (net_name "") (layer F.Cu) (hatch full 0.508)
    (connect_pads (clearance 0))
    (min_thickness 0.01)
    (keepout (tracks not_allowed) (vias not_allowed) (pads not_allowed ) (copperpour not_allowed) (footprints allowed))
    (fill (thermal_gap 0.508) (thermal_bridge_width 0.508))
    (polygon
      (pts
        (xy -3.9 -1.19)
        (xy -3.7 -1.19)
        (xy -3.7 -0.75)
        (xy -3.9 -0.75)
      )
    )
  )
  (zone (net 0) (net_name "") (layer F.Cu) (hatch full 0.508)
    (connect_pads (clearance 0))
    (min_thickness 0.01)
    (keepout (tracks not_allowed) (vias not_allowed) (pads not_allowed ) (copperpour not_allowed) (footprints allowed))
    (fill (thermal_gap 0.508) (thermal_bridge_width 0.508))
    (polygon
      (pts
        (xy 3.7 -1.19)
        (xy 3.9 -1.19)
        (xy 3.9 -0.75)
        (xy 3.7 -0.75)
      )
    )
  )
  (zone (net 0) (net_name "") (layer F.Cu) (hatch full 0.508)
    (connect_pads (clearance 0))
    (min_thickness 0.01)
    (keepout (tracks not_allowed) (vias not_allowed) (pads not_allowed ) (copperpour not_allowed) (footprints allowed))
    (fill (thermal_gap 0.508) (thermal_bridge_width 0.508))
    (polygon
      (pts
        (xy 3.3 -1.19)
        (xy 3.5 -1.19)
        (xy 3.5 -0.75)
        (xy 3.3 -0.75)
      )
    )
  )
  (zone (net 0) (net_name "") (layer F.Cu) (hatch full 0.508)
    (connect_pads (clearance 0))
    (min_thickness 0.01)
    (keepout (tracks not_allowed) (vias not_allowed) (pads not_allowed ) (copperpour not_allowed) (footprints allowed))
    (fill (thermal_gap 0.508) (thermal_bridge_width 0.508))
    (polygon
      (pts
        (xy 2.9 -1.19)
        (xy 3.1 -1.19)
        (xy 3.1 -0.75)
        (xy 2.9 -0.75)
      )
    )
  )
  (zone (net 0) (net_name "") (layer F.Cu) (hatch full 0.508)
    (connect_pads (clearance 0))
    (min_thickness 0.01)
    (keepout (tracks not_allowed) (vias not_allowed) (pads not_allowed ) (copperpour not_allowed) (footprints allowed))
    (fill (thermal_gap 0.508) (thermal_bridge_width 0.508))
    (polygon
      (pts
        (xy 2.5 -1.19)
        (xy 2.7 -1.19)
        (xy 2.7 -0.75)
        (xy 2.5 -0.75)
      )
    )
  )
  (zone (net 0) (net_name "") (layer F.Cu) (hatch full 0.508)
    (connect_pads (clearance 0))
    (min_thickness 0.01)
    (keepout (tracks not_allowed) (vias not_allowed) (pads not_allowed ) (copperpour not_allowed) (footprints allowed))
    (fill (thermal_gap 0.508) (thermal_bridge_width 0.508))
    (polygon
      (pts
        (xy 2.1 -1.19)
        (xy 2.3 -1.19)
        (xy 2.3 -0.75)
        (xy 2.1 -0.75)
      )
    )
  )
  (zone (net 0) (net_name "") (layer F.Cu) (hatch full 0.508)
    (connect_pads (clearance 0))
    (min_thickness 0.01)
    (keepout (tracks not_allowed) (vias not_allowed) (pads not_allowed ) (copperpour not_allowed) (footprints allowed))
    (fill (thermal_gap 0.508) (thermal_bridge_width 0.508))
    (polygon
      (pts
        (xy 1.7 -1.19)
        (xy 1.9 -1.19)
        (xy 1.9 -0.75)
        (xy 1.7 -0.75)
      )
    )
  )
  (zone (net 0) (net_name "") (layer F.Cu) (hatch full 0.508)
    (connect_pads (clearance 0))
    (min_thickness 0.01)
    (keepout (tracks not_allowed) (vias not_allowed) (pads not_allowed ) (copperpour not_allowed) (footprints allowed))
    (fill (thermal_gap 0.508) (thermal_bridge_width 0.508))
    (polygon
      (pts
        (xy 1.3 -1.19)
        (xy 1.5 -1.19)
        (xy 1.5 -0.75)
        (xy 1.3 -0.75)
      )
    )
  )
  (zone (net 0) (net_name "") (layer F.Cu) (hatch full 0.508)
    (connect_pads (clearance 0))
    (min_thickness 0.01)
    (keepout (tracks not_allowed) (vias not_allowed) (pads not_allowed ) (copperpour not_allowed) (footprints allowed))
    (fill (thermal_gap 0.508) (thermal_bridge_width 0.508))
    (polygon
      (pts
        (xy 0.9 -1.19)
        (xy 1.1 -1.19)
        (xy 1.1 -0.75)
        (xy 0.9 -0.75)
      )
    )
  )
  (zone (net 0) (net_name "") (layer F.Cu) (hatch full 0.508)
    (connect_pads (clearance 0))
    (min_thickness 0.01)
    (keepout (tracks not_allowed) (vias not_allowed) (pads not_allowed ) (copperpour not_allowed) (footprints allowed))
    (fill (thermal_gap 0.508) (thermal_bridge_width 0.508))
    (polygon
      (pts
        (xy 0.5 -1.19)
        (xy 0.7 -1.19)
        (xy 0.7 -0.75)
        (xy 0.5 -0.75)
      )
    )
  )
  (zone (net 0) (net_name "") (layer F.Cu) (hatch full 0.508)
    (connect_pads (clearance 0))
    (min_thickness 0.01)
    (keepout (tracks not_allowed) (vias not_allowed) (pads not_allowed ) (copperpour not_allowed) (footprints allowed))
    (fill (thermal_gap 0.508) (thermal_bridge_width 0.508))
    (polygon
      (pts
        (xy 0.1 -1.19)
        (xy 0.3 -1.19)
        (xy 0.3 -0.75)
        (xy 0.1 -0.75)
      )
    )
  )
  (zone (net 0) (net_name "") (layer F.Cu) (hatch full 0.508)
    (connect_pads (clearance 0))
    (min_thickness 0.01)
    (keepout (tracks not_allowed) (vias not_allowed) (pads not_allowed ) (copperpour not_allowed) (footprints allowed))
    (fill (thermal_gap 0.508) (thermal_bridge_width 0.508))
    (polygon
      (pts
        (xy -0.3 0.75)
        (xy -0.1 0.75)
        (xy -0.1 1.19)
        (xy -0.3 1.19)
      )
    )
  )
  (zone (net 0) (net_name "") (layer F.Cu) (hatch full 0.508)
    (connect_pads (clearance 0))
    (min_thickness 0.01)
    (keepout (tracks not_allowed) (vias not_allowed) (pads not_allowed ) (copperpour not_allowed) (footprints allowed))
    (fill (thermal_gap 0.508) (thermal_bridge_width 0.508))
    (polygon
      (pts
        (xy 0.1 0.75)
        (xy 0.3 0.75)
        (xy 0.3 1.19)
        (xy 0.1 1.19)
      )
    )
  )
  (zone (net 0) (net_name "") (layer F.Cu) (hatch full 0.508)
    (connect_pads (clearance 0))
    (min_thickness 0.01)
    (keepout (tracks not_allowed) (vias not_allowed) (pads not_allowed ) (copperpour not_allowed) (footprints allowed))
    (fill (thermal_gap 0.508) (thermal_bridge_width 0.508))
    (polygon
      (pts
        (xy -0.7 0.75)
        (xy -0.5 0.75)
        (xy -0.5 1.19)
        (xy -0.7 1.19)
      )
    )
  )
  (zone (net 0) (net_name "") (layer F.Cu) (hatch full 0.508)
    (connect_pads (clearance 0))
    (min_thickness 0.01)
    (keepout (tracks not_allowed) (vias not_allowed) (pads not_allowed ) (copperpour not_allowed) (footprints allowed))
    (fill (thermal_gap 0.508) (thermal_bridge_width 0.508))
    (polygon
      (pts
        (xy -1.1 0.75)
        (xy -0.9 0.75)
        (xy -0.9 1.19)
        (xy -1.1 1.19)
      )
    )
  )
  (zone (net 0) (net_name "") (layer F.Cu) (hatch full 0.508)
    (connect_pads (clearance 0))
    (min_thickness 0.01)
    (keepout (tracks not_allowed) (vias not_allowed) (pads not_allowed ) (copperpour not_allowed) (footprints allowed))
    (fill (thermal_gap 0.508) (thermal_bridge_width 0.508))
    (polygon
      (pts
        (xy -1.5 0.75)
        (xy -1.3 0.75)
        (xy -1.3 1.19)
        (xy -1.5 1.19)
      )
    )
  )
  (zone (net 0) (net_name "") (layer F.Cu) (hatch full 0.508)
    (connect_pads (clearance 0))
    (min_thickness 0.01)
    (keepout (tracks not_allowed) (vias not_allowed) (pads not_allowed ) (copperpour not_allowed) (footprints allowed))
    (fill (thermal_gap 0.508) (thermal_bridge_width 0.508))
    (polygon
      (pts
        (xy -1.9 0.75)
        (xy -1.7 0.75)
        (xy -1.7 1.19)
        (xy -1.9 1.19)
      )
    )
  )
  (zone (net 0) (net_name "") (layer F.Cu) (hatch full 0.508)
    (connect_pads (clearance 0))
    (min_thickness 0.01)
    (keepout (tracks not_allowed) (vias not_allowed) (pads not_allowed ) (copperpour not_allowed) (footprints allowed))
    (fill (thermal_gap 0.508) (thermal_bridge_width 0.508))
    (polygon
      (pts
        (xy -2.3 0.75)
        (xy -2.1 0.75)
        (xy -2.1 1.19)
        (xy -2.3 1.19)
      )
    )
  )
  (zone (net 0) (net_name "") (layer F.Cu) (hatch full 0.508)
    (connect_pads (clearance 0))
    (min_thickness 0.01)
    (keepout (tracks not_allowed) (vias not_allowed) (pads not_allowed ) (copperpour not_allowed) (footprints allowed))
    (fill (thermal_gap 0.508) (thermal_bridge_width 0.508))
    (polygon
      (pts
        (xy -2.7 0.75)
        (xy -2.5 0.75)
        (xy -2.5 1.19)
        (xy -2.7 1.19)
      )
    )
  )
  (zone (net 0) (net_name "") (layer F.Cu) (hatch full 0.508)
    (connect_pads (clearance 0))
    (min_thickness 0.01)
    (keepout (tracks not_allowed) (vias not_allowed) (pads not_allowed ) (copperpour not_allowed) (footprints allowed))
    (fill (thermal_gap 0.508) (thermal_bridge_width 0.508))
    (polygon
      (pts
        (xy -3.1 0.75)
        (xy -2.9 0.75)
        (xy -2.9 1.19)
        (xy -3.1 1.19)
      )
    )
  )
  (zone (net 0) (net_name "") (layer F.Cu) (hatch full 0.508)
    (connect_pads (clearance 0))
    (min_thickness 0.01)
    (keepout (tracks not_allowed) (vias not_allowed) (pads not_allowed ) (copperpour not_allowed) (footprints allowed))
    (fill (thermal_gap 0.508) (thermal_bridge_width 0.508))
    (polygon
      (pts
        (xy -3.5 0.75)
        (xy -3.3 0.75)
        (xy -3.3 1.19)
        (xy -3.5 1.19)
      )
    )
  )
  (zone (net 0) (net_name "") (layer F.Cu) (hatch full 0.508)
    (connect_pads (clearance 0))
    (min_thickness 0.01)
    (keepout (tracks not_allowed) (vias not_allowed) (pads not_allowed ) (copperpour not_allowed) (footprints allowed))
    (fill (thermal_gap 0.508) (thermal_bridge_width 0.508))
    (polygon
      (pts
        (xy -3.9 0.75)
        (xy -3.7 0.75)
        (xy -3.7 1.19)
        (xy -3.9 1.19)
      )
    )
  )
  (zone (net 0) (net_name "") (layer F.Cu) (hatch full 0.508)
    (connect_pads (clearance 0))
    (min_thickness 0.01)
    (keepout (tracks not_allowed) (vias not_allowed) (pads not_allowed ) (copperpour not_allowed) (footprints allowed))
    (fill (thermal_gap 0.508) (thermal_bridge_width 0.508))
    (polygon
      (pts
        (xy 3.7 0.75)
        (xy 3.9 0.75)
        (xy 3.9 1.19)
        (xy 3.7 1.19)
      )
    )
  )
  (zone (net 0) (net_name "") (layer F.Cu) (hatch full 0.508)
    (connect_pads (clearance 0))
    (min_thickness 0.01)
    (keepout (tracks not_allowed) (vias not_allowed) (pads not_allowed ) (copperpour not_allowed) (footprints allowed))
    (fill (thermal_gap 0.508) (thermal_bridge_width 0.508))
    (polygon
      (pts
        (xy 3.3 0.75)
        (xy 3.5 0.75)
        (xy 3.5 1.19)
        (xy 3.3 1.19)
      )
    )
  )
  (zone (net 0) (net_name "") (layer F.Cu) (hatch full 0.508)
    (connect_pads (clearance 0))
    (min_thickness 0.01)
    (keepout (tracks not_allowed) (vias not_allowed) (pads not_allowed ) (copperpour not_allowed) (footprints allowed))
    (fill (thermal_gap 0.508) (thermal_bridge_width 0.508))
    (polygon
      (pts
        (xy 2.9 0.75)
        (xy 3.1 0.75)
        (xy 3.1 1.19)
        (xy 2.9 1.19)
      )
    )
  )
  (zone (net 0) (net_name "") (layer F.Cu) (hatch full 0.508)
    (connect_pads (clearance 0))
    (min_thickness 0.01)
    (keepout (tracks not_allowed) (vias not_allowed) (pads not_allowed ) (copperpour not_allowed) (footprints allowed))
    (fill (thermal_gap 0.508) (thermal_bridge_width 0.508))
    (polygon
      (pts
        (xy 2.5 0.75)
        (xy 2.7 0.75)
        (xy 2.7 1.19)
        (xy 2.5 1.19)
      )
    )
  )
  (zone (net 0) (net_name "") (layer F.Cu) (hatch full 0.508)
    (connect_pads (clearance 0))
    (min_thickness 0.01)
    (keepout (tracks not_allowed) (vias not_allowed) (pads not_allowed ) (copperpour not_allowed) (footprints allowed))
    (fill (thermal_gap 0.508) (thermal_bridge_width 0.508))
    (polygon
      (pts
        (xy 2.1 0.75)
        (xy 2.3 0.75)
        (xy 2.3 1.19)
        (xy 2.1 1.19)
      )
    )
  )
  (zone (net 0) (net_name "") (layer F.Cu) (hatch full 0.508)
    (connect_pads (clearance 0))
    (min_thickness 0.01)
    (keepout (tracks not_allowed) (vias not_allowed) (pads not_allowed ) (copperpour not_allowed) (footprints allowed))
    (fill (thermal_gap 0.508) (thermal_bridge_width 0.508))
    (polygon
      (pts
        (xy 1.7 0.75)
        (xy 1.9 0.75)
        (xy 1.9 1.19)
        (xy 1.7 1.19)
      )
    )
  )
  (zone (net 0) (net_name "") (layer F.Cu) (hatch full 0.508)
    (connect_pads (clearance 0))
    (min_thickness 0.01)
    (keepout (tracks not_allowed) (vias not_allowed) (pads not_allowed ) (copperpour not_allowed) (footprints allowed))
    (fill (thermal_gap 0.508) (thermal_bridge_width 0.508))
    (polygon
      (pts
        (xy 1.3 0.75)
        (xy 1.5 0.75)
        (xy 1.5 1.19)
        (xy 1.3 1.19)
      )
    )
  )
  (zone (net 0) (net_name "") (layer F.Cu) (hatch full 0.508)
    (connect_pads (clearance 0))
    (min_thickness 0.01)
    (keepout (tracks not_allowed) (vias not_allowed) (pads not_allowed ) (copperpour not_allowed) (footprints allowed))
    (fill (thermal_gap 0.508) (thermal_bridge_width 0.508))
    (polygon
      (pts
        (xy 0.9 0.75)
        (xy 1.1 0.75)
        (xy 1.1 1.19)
        (xy 0.9 1.19)
      )
    )
  )
  (zone (net 0) (net_name "") (layer F.Cu) (hatch full 0.508)
    (connect_pads (clearance 0))
    (min_thickness 0.01)
    (keepout (tracks not_allowed) (vias not_allowed) (pads not_allowed ) (copperpour not_allowed) (footprints allowed))
    (fill (thermal_gap 0.508) (thermal_bridge_width 0.508))
    (polygon
      (pts
        (xy 0.5 0.75)
        (xy 0.7 0.75)
        (xy 0.7 1.19)
        (xy 0.5 1.19)
      )
    )
  )
  (zone (net 0) (net_name "") (layer F.Cu) (hatch full 0.508)
    (connect_pads (clearance 0))
    (min_thickness 0.01)
    (keepout (tracks not_allowed) (vias not_allowed) (pads not_allowed ) (copperpour not_allowed) (footprints allowed))
    (fill (thermal_gap 0.508) (thermal_bridge_width 0.508))
    (polygon
      (pts
        (xy 0.1 0.75)
        (xy 0.3 0.75)
        (xy 0.3 1.19)
        (xy 0.1 1.19)
      )
    )
  )
  (zone (net 0) (net_name "") (layers *.Cu) (hatch full 0.508)
    (connect_pads (clearance 0))
    (min_thickness 0.01)
    (keepout (tracks allowed) (vias not_allowed) (pads allowed ) (copperpour allowed) (footprints allowed))
    (fill (thermal_gap 0.508) (thermal_bridge_width 0.508))
    (polygon
      (pts
        (xy -0.3 -1.19)
        (xy -0.1 -1.19)
        (xy -0.1 -0.75)
        (xy -0.3 -0.75)
      )
    )
  )
  (zone (net 0) (net_name "") (layers *.Cu) (hatch full 0.508)
    (connect_pads (clearance 0))
    (min_thickness 0.01)
    (keepout (tracks allowed) (vias not_allowed) (pads allowed ) (copperpour allowed) (footprints allowed))
    (fill (thermal_gap 0.508) (thermal_bridge_width 0.508))
    (polygon
      (pts
        (xy 0.1 -1.19)
        (xy 0.3 -1.19)
        (xy 0.3 -0.75)
        (xy 0.1 -0.75)
      )
    )
  )
  (zone (net 0) (net_name "") (layers *.Cu) (hatch full 0.508)
    (connect_pads (clearance 0))
    (min_thickness 0.01)
    (keepout (tracks allowed) (vias not_allowed) (pads allowed ) (copperpour allowed) (footprints allowed))
    (fill (thermal_gap 0.508) (thermal_bridge_width 0.508))
    (polygon
      (pts
        (xy -0.7 -1.19)
        (xy -0.5 -1.19)
        (xy -0.5 -0.75)
        (xy -0.7 -0.75)
      )
    )
  )
  (zone (net 0) (net_name "") (layers *.Cu) (hatch full 0.508)
    (connect_pads (clearance 0))
    (min_thickness 0.01)
    (keepout (tracks allowed) (vias not_allowed) (pads allowed ) (copperpour allowed) (footprints allowed))
    (fill (thermal_gap 0.508) (thermal_bridge_width 0.508))
    (polygon
      (pts
        (xy -1.1 -1.19)
        (xy -0.9 -1.19)
        (xy -0.9 -0.75)
        (xy -1.1 -0.75)
      )
    )
  )
  (zone (net 0) (net_name "") (layers *.Cu) (hatch full 0.508)
    (connect_pads (clearance 0))
    (min_thickness 0.01)
    (keepout (tracks allowed) (vias not_allowed) (pads allowed ) (copperpour allowed) (footprints allowed))
    (fill (thermal_gap 0.508) (thermal_bridge_width 0.508))
    (polygon
      (pts
        (xy -1.5 -1.19)
        (xy -1.3 -1.19)
        (xy -1.3 -0.75)
        (xy -1.5 -0.75)
      )
    )
  )
  (zone (net 0) (net_name "") (layers *.Cu) (hatch full 0.508)
    (connect_pads (clearance 0))
    (min_thickness 0.01)
    (keepout (tracks allowed) (vias not_allowed) (pads allowed ) (copperpour allowed) (footprints allowed))
    (fill (thermal_gap 0.508) (thermal_bridge_width 0.508))
    (polygon
      (pts
        (xy -1.9 -1.19)
        (xy -1.7 -1.19)
        (xy -1.7 -0.75)
        (xy -1.9 -0.75)
      )
    )
  )
  (zone (net 0) (net_name "") (layers *.Cu) (hatch full 0.508)
    (connect_pads (clearance 0))
    (min_thickness 0.01)
    (keepout (tracks allowed) (vias not_allowed) (pads allowed ) (copperpour allowed) (footprints allowed))
    (fill (thermal_gap 0.508) (thermal_bridge_width 0.508))
    (polygon
      (pts
        (xy -2.3 -1.19)
        (xy -2.1 -1.19)
        (xy -2.1 -0.75)
        (xy -2.3 -0.75)
      )
    )
  )
  (zone (net 0) (net_name "") (layers *.Cu) (hatch full 0.508)
    (connect_pads (clearance 0))
    (min_thickness 0.01)
    (keepout (tracks allowed) (vias not_allowed) (pads allowed ) (copperpour allowed) (footprints allowed))
    (fill (thermal_gap 0.508) (thermal_bridge_width 0.508))
    (polygon
      (pts
        (xy -2.7 -1.19)
        (xy -2.5 -1.19)
        (xy -2.5 -0.75)
        (xy -2.7 -0.75)
      )
    )
  )
  (zone (net 0) (net_name "") (layers *.Cu) (hatch full 0.508)
    (connect_pads (clearance 0))
    (min_thickness 0.01)
    (keepout (tracks allowed) (vias not_allowed) (pads allowed ) (copperpour allowed) (footprints allowed))
    (fill (thermal_gap 0.508) (thermal_bridge_width 0.508))
    (polygon
      (pts
        (xy -3.1 -1.19)
        (xy -2.9 -1.19)
        (xy -2.9 -0.75)
        (xy -3.1 -0.75)
      )
    )
  )
  (zone (net 0) (net_name "") (layers *.Cu) (hatch full 0.508)
    (connect_pads (clearance 0))
    (min_thickness 0.01)
    (keepout (tracks allowed) (vias not_allowed) (pads allowed ) (copperpour allowed) (footprints allowed))
    (fill (thermal_gap 0.508) (thermal_bridge_width 0.508))
    (polygon
      (pts
        (xy -3.5 -1.19)
        (xy -3.3 -1.19)
        (xy -3.3 -0.75)
        (xy -3.5 -0.75)
      )
    )
  )
  (zone (net 0) (net_name "") (layers *.Cu) (hatch full 0.508)
    (connect_pads (clearance 0))
    (min_thickness 0.01)
    (keepout (tracks allowed) (vias not_allowed) (pads allowed ) (copperpour allowed) (footprints allowed))
    (fill (thermal_gap 0.508) (thermal_bridge_width 0.508))
    (polygon
      (pts
        (xy -3.9 -1.19)
        (xy -3.7 -1.19)
        (xy -3.7 -0.75)
        (xy -3.9 -0.75)
      )
    )
  )
  (zone (net 0) (net_name "") (layers *.Cu) (hatch full 0.508)
    (connect_pads (clearance 0))
    (min_thickness 0.01)
    (keepout (tracks allowed) (vias not_allowed) (pads allowed ) (copperpour allowed) (footprints allowed))
    (fill (thermal_gap 0.508) (thermal_bridge_width 0.508))
    (polygon
      (pts
        (xy 3.7 -1.19)
        (xy 3.9 -1.19)
        (xy 3.9 -0.75)
        (xy 3.7 -0.75)
      )
    )
  )
  (zone (net 0) (net_name "") (layers *.Cu) (hatch full 0.508)
    (connect_pads (clearance 0))
    (min_thickness 0.01)
    (keepout (tracks allowed) (vias not_allowed) (pads allowed ) (copperpour allowed) (footprints allowed))
    (fill (thermal_gap 0.508) (thermal_bridge_width 0.508))
    (polygon
      (pts
        (xy 3.3 -1.19)
        (xy 3.5 -1.19)
        (xy 3.5 -0.75)
        (xy 3.3 -0.75)
      )
    )
  )
  (zone (net 0) (net_name "") (layers *.Cu) (hatch full 0.508)
    (connect_pads (clearance 0))
    (min_thickness 0.01)
    (keepout (tracks allowed) (vias not_allowed) (pads allowed ) (copperpour allowed) (footprints allowed))
    (fill (thermal_gap 0.508) (thermal_bridge_width 0.508))
    (polygon
      (pts
        (xy 2.9 -1.19)
        (xy 3.1 -1.19)
        (xy 3.1 -0.75)
        (xy 2.9 -0.75)
      )
    )
  )
  (zone (net 0) (net_name "") (layers *.Cu) (hatch full 0.508)
    (connect_pads (clearance 0))
    (min_thickness 0.01)
    (keepout (tracks allowed) (vias not_allowed) (pads allowed ) (copperpour allowed) (footprints allowed))
    (fill (thermal_gap 0.508) (thermal_bridge_width 0.508))
    (polygon
      (pts
        (xy 2.5 -1.19)
        (xy 2.7 -1.19)
        (xy 2.7 -0.75)
        (xy 2.5 -0.75)
      )
    )
  )
  (zone (net 0) (net_name "") (layers *.Cu) (hatch full 0.508)
    (connect_pads (clearance 0))
    (min_thickness 0.01)
    (keepout (tracks allowed) (vias not_allowed) (pads allowed ) (copperpour allowed) (footprints allowed))
    (fill (thermal_gap 0.508) (thermal_bridge_width 0.508))
    (polygon
      (pts
        (xy 2.1 -1.19)
        (xy 2.3 -1.19)
        (xy 2.3 -0.75)
        (xy 2.1 -0.75)
      )
    )
  )
  (zone (net 0) (net_name "") (layers *.Cu) (hatch full 0.508)
    (connect_pads (clearance 0))
    (min_thickness 0.01)
    (keepout (tracks allowed) (vias not_allowed) (pads allowed ) (copperpour allowed) (footprints allowed))
    (fill (thermal_gap 0.508) (thermal_bridge_width 0.508))
    (polygon
      (pts
        (xy 1.7 -1.19)
        (xy 1.9 -1.19)
        (xy 1.9 -0.75)
        (xy 1.7 -0.75)
      )
    )
  )
  (zone (net 0) (net_name "") (layers *.Cu) (hatch full 0.508)
    (connect_pads (clearance 0))
    (min_thickness 0.01)
    (keepout (tracks allowed) (vias not_allowed) (pads allowed ) (copperpour allowed) (footprints allowed))
    (fill (thermal_gap 0.508) (thermal_bridge_width 0.508))
    (polygon
      (pts
        (xy 1.3 -1.19)
        (xy 1.5 -1.19)
        (xy 1.5 -0.75)
        (xy 1.3 -0.75)
      )
    )
  )
  (zone (net 0) (net_name "") (layers *.Cu) (hatch full 0.508)
    (connect_pads (clearance 0))
    (min_thickness 0.01)
    (keepout (tracks allowed) (vias not_allowed) (pads allowed ) (copperpour allowed) (footprints allowed))
    (fill (thermal_gap 0.508) (thermal_bridge_width 0.508))
    (polygon
      (pts
        (xy 0.9 -1.19)
        (xy 1.1 -1.19)
        (xy 1.1 -0.75)
        (xy 0.9 -0.75)
      )
    )
  )
  (zone (net 0) (net_name "") (layers *.Cu) (hatch full 0.508)
    (connect_pads (clearance 0))
    (min_thickness 0.01)
    (keepout (tracks allowed) (vias not_allowed) (pads allowed ) (copperpour allowed) (footprints allowed))
    (fill (thermal_gap 0.508) (thermal_bridge_width 0.508))
    (polygon
      (pts
        (xy 0.5 -1.19)
        (xy 0.7 -1.19)
        (xy 0.7 -0.75)
        (xy 0.5 -0.75)
      )
    )
  )
  (zone (net 0) (net_name "") (layers *.Cu) (hatch full 0.508)
    (connect_pads (clearance 0))
    (min_thickness 0.01)
    (keepout (tracks allowed) (vias not_allowed) (pads allowed ) (copperpour allowed) (footprints allowed))
    (fill (thermal_gap 0.508) (thermal_bridge_width 0.508))
    (polygon
      (pts
        (xy 0.1 -1.19)
        (xy 0.3 -1.19)
        (xy 0.3 -0.75)
        (xy 0.1 -0.75)
      )
    )
  )
  (fp_poly
    (pts
      (xy -0.28 1.26)
      (xy -0.12 1.26)
      (xy -0.12 1.82)
      (xy -0.28 1.82)
    ) (layer F.Paste) (width 0.01)
  )
  (fp_poly
    (pts
      (xy -0.68 1.26)
      (xy -0.52 1.26)
      (xy -0.52 1.82)
      (xy -0.68 1.82)
    ) (layer F.Paste) (width 0.01)
  )
  (fp_poly
    (pts
      (xy -1.08 1.26)
      (xy -0.92 1.26)
      (xy -0.92 1.82)
      (xy -1.08 1.82)
    ) (layer F.Paste) (width 0.01)
  )
  (fp_poly
    (pts
      (xy -1.48 1.26)
      (xy -1.32 1.26)
      (xy -1.32 1.82)
      (xy -1.48 1.82)
    ) (layer F.Paste) (width 0.01)
  )
  (fp_poly
    (pts
      (xy -1.88 1.26)
      (xy -1.72 1.26)
      (xy -1.72 1.82)
      (xy -1.88 1.82)
    ) (layer F.Paste) (width 0.01)
  )
  (fp_poly
    (pts
      (xy -2.28 1.26)
      (xy -2.12 1.26)
      (xy -2.12 1.82)
      (xy -2.28 1.82)
    ) (layer F.Paste) (width 0.01)
  )
  (fp_poly
    (pts
      (xy -2.68 1.26)
      (xy -2.52 1.26)
      (xy -2.52 1.82)
      (xy -2.68 1.82)
    ) (layer F.Paste) (width 0.01)
  )
  (fp_poly
    (pts
      (xy -3.08 1.26)
      (xy -2.92 1.26)
      (xy -2.92 1.82)
      (xy -3.08 1.82)
    ) (layer F.Paste) (width 0.01)
  )
  (fp_poly
    (pts
      (xy -3.48 1.26)
      (xy -3.32 1.26)
      (xy -3.32 1.82)
      (xy -3.48 1.82)
    ) (layer F.Paste) (width 0.01)
  )
  (fp_poly
    (pts
      (xy -3.88 1.26)
      (xy -3.72 1.26)
      (xy -3.72 1.82)
      (xy -3.88 1.82)
    ) (layer F.Paste) (width 0.01)
  )
  (fp_poly
    (pts
      (xy 3.72 1.26)
      (xy 3.88 1.26)
      (xy 3.88 1.82)
      (xy 3.72 1.82)
    ) (layer F.Paste) (width 0.01)
  )
  (fp_poly
    (pts
      (xy 3.32 1.26)
      (xy 3.48 1.26)
      (xy 3.48 1.82)
      (xy 3.32 1.82)
    ) (layer F.Paste) (width 0.01)
  )
  (fp_poly
    (pts
      (xy 2.92 1.26)
      (xy 3.08 1.26)
      (xy 3.08 1.82)
      (xy 2.92 1.82)
    ) (layer F.Paste) (width 0.01)
  )
  (fp_poly
    (pts
      (xy 2.52 1.26)
      (xy 2.68 1.26)
      (xy 2.68 1.82)
      (xy 2.52 1.82)
    ) (layer F.Paste) (width 0.01)
  )
  (fp_poly
    (pts
      (xy 2.12 1.26)
      (xy 2.28 1.26)
      (xy 2.28 1.82)
      (xy 2.12 1.82)
    ) (layer F.Paste) (width 0.01)
  )
  (fp_poly
    (pts
      (xy 1.72 1.26)
      (xy 1.88 1.26)
      (xy 1.88 1.82)
      (xy 1.72 1.82)
    ) (layer F.Paste) (width 0.01)
  )
  (fp_poly
    (pts
      (xy 1.32 1.26)
      (xy 1.48 1.26)
      (xy 1.48 1.82)
      (xy 1.32 1.82)
    ) (layer F.Paste) (width 0.01)
  )
  (fp_poly
    (pts
      (xy 0.92 1.26)
      (xy 1.08 1.26)
      (xy 1.08 1.82)
      (xy 0.92 1.82)
    ) (layer F.Paste) (width 0.01)
  )
  (fp_poly
    (pts
      (xy 0.52 1.26)
      (xy 0.68 1.26)
      (xy 0.68 1.82)
      (xy 0.52 1.82)
    ) (layer F.Paste) (width 0.01)
  )
  (fp_poly
    (pts
      (xy 0.12 1.26)
      (xy 0.28 1.26)
      (xy 0.28 1.82)
      (xy 0.12 1.82)
    ) (layer F.Paste) (width 0.01)
  )
  (fp_poly
    (pts
      (xy -0.28 -1.82)
      (xy -0.12 -1.82)
      (xy -0.12 -1.26)
      (xy -0.28 -1.26)
    ) (layer F.Paste) (width 0.01)
  )
  (fp_poly
    (pts
      (xy -0.68 -1.82)
      (xy -0.52 -1.82)
      (xy -0.52 -1.26)
      (xy -0.68 -1.26)
    ) (layer F.Paste) (width 0.01)
  )
  (fp_poly
    (pts
      (xy -1.08 -1.82)
      (xy -0.92 -1.82)
      (xy -0.92 -1.26)
      (xy -1.08 -1.26)
    ) (layer F.Paste) (width 0.01)
  )
  (fp_poly
    (pts
      (xy -1.48 -1.82)
      (xy -1.32 -1.82)
      (xy -1.32 -1.26)
      (xy -1.48 -1.26)
    ) (layer F.Paste) (width 0.01)
  )
  (fp_poly
    (pts
      (xy -1.88 -1.82)
      (xy -1.72 -1.82)
      (xy -1.72 -1.26)
      (xy -1.88 -1.26)
    ) (layer F.Paste) (width 0.01)
  )
  (fp_poly
    (pts
      (xy -2.28 -1.82)
      (xy -2.12 -1.82)
      (xy -2.12 -1.26)
      (xy -2.28 -1.26)
    ) (layer F.Paste) (width 0.01)
  )
  (fp_poly
    (pts
      (xy -2.68 -1.82)
      (xy -2.52 -1.82)
      (xy -2.52 -1.26)
      (xy -2.68 -1.26)
    ) (layer F.Paste) (width 0.01)
  )
  (fp_poly
    (pts
      (xy -3.08 -1.82)
      (xy -2.92 -1.82)
      (xy -2.92 -1.26)
      (xy -3.08 -1.26)
    ) (layer F.Paste) (width 0.01)
  )
  (fp_poly
    (pts
      (xy -3.48 -1.82)
      (xy -3.32 -1.82)
      (xy -3.32 -1.26)
      (xy -3.48 -1.26)
    ) (layer F.Paste) (width 0.01)
  )
  (fp_poly
    (pts
      (xy -3.88 -1.82)
      (xy -3.72 -1.82)
      (xy -3.72 -1.26)
      (xy -3.88 -1.26)
    ) (layer F.Paste) (width 0.01)
  )
  (fp_poly
    (pts
      (xy 3.72 -1.82)
      (xy 3.88 -1.82)
      (xy 3.88 -1.26)
      (xy 3.72 -1.26)
    ) (layer F.Paste) (width 0.01)
  )
  (fp_poly
    (pts
      (xy 3.32 -1.82)
      (xy 3.48 -1.82)
      (xy 3.48 -1.26)
      (xy 3.32 -1.26)
    ) (layer F.Paste) (width 0.01)
  )
  (fp_poly
    (pts
      (xy 2.92 -1.82)
      (xy 3.08 -1.82)
      (xy 3.08 -1.26)
      (xy 2.92 -1.26)
    ) (layer F.Paste) (width 0.01)
  )
  (fp_poly
    (pts
      (xy 2.52 -1.82)
      (xy 2.68 -1.82)
      (xy 2.68 -1.26)
      (xy 2.52 -1.26)
    ) (layer F.Paste) (width 0.01)
  )
  (fp_poly
    (pts
      (xy 2.12 -1.82)
      (xy 2.28 -1.82)
      (xy 2.28 -1.26)
      (xy 2.12 -1.26)
    ) (layer F.Paste) (width 0.01)
  )
  (fp_poly
    (pts
      (xy 1.72 -1.82)
      (xy 1.88 -1.82)
      (xy 1.88 -1.26)
      (xy 1.72 -1.26)
    ) (layer F.Paste) (width 0.01)
  )
  (fp_poly
    (pts
      (xy 1.32 -1.82)
      (xy 1.48 -1.82)
      (xy 1.48 -1.26)
      (xy 1.32 -1.26)
    ) (layer F.Paste) (width 0.01)
  )
  (fp_poly
    (pts
      (xy 0.92 -1.82)
      (xy 1.08 -1.82)
      (xy 1.08 -1.26)
      (xy 0.92 -1.26)
    ) (layer F.Paste) (width 0.01)
  )
  (fp_poly
    (pts
      (xy 0.52 -1.82)
      (xy 0.68 -1.82)
      (xy 0.68 -1.26)
      (xy 0.52 -1.26)
    ) (layer F.Paste) (width 0.01)
  )
  (fp_poly
    (pts
      (xy 0.12 -1.82)
      (xy 0.28 -1.82)
      (xy 0.28 -1.26)
      (xy 0.12 -1.26)
    ) (layer F.Paste) (width 0.01)
  )
  (fp_text user "No Pattern area other than same circuit" (at 6.66 1.14) (layer F.Fab)
    (effects (font (size 0.32 0.32) (thickness 0.15)))
  )
  (fp_line (start 4.0 -0.9) (end 6.0 0.7) (layer F.Fab) (width 0.0762))
  (fp_line (start 4.0 -0.9) (end 4.0 -0.6) (layer F.Fab) (width 0.0762))
  (fp_line (start 4.0 -0.9) (end 4.3 -0.9) (layer F.Fab) (width 0.0762))
  (fp_line (start 6.0 0.7) (end 6.4 0.7) (layer F.Fab) (width 0.0762))
)