(footprint "PicoFusion H Series" (version 20211014) (generator pcbnew)
  (layer "F.Cu")
  (tedit 0)
  (attr smd)
  (fp_text reference "REF**" (at 0 -0.5 unlocked) (layer "F.SilkS")
    (effects (font (size 1 1) (thickness 0.15)))
    (tstamp ce77dc5e-203e-461d-a737-2e1bab5c4bd2)
  )
  (fp_text value "PicoFusion H Series" (at 0 1 unlocked) (layer "F.Fab")
    (effects (font (size 1 1) (thickness 0.15)))
    (tstamp 3d557bcd-f5f2-45d2-a9ab-9414bb3c033d)
  )
  (fp_line (start -12.5 -13) (end 12.5 -13) (layer "F.SilkS") (width 0.12) (tstamp 0f3fd2d7-1c56-4fcd-8d22-e619e14ce202))
  (fp_line (start -13 12.5) (end -13 -12.5) (layer "F.SilkS") (width 0.12) (tstamp 557ef620-f40a-48c8-a9b5-0da0d008238c))
  (fp_line (start 12.5 13) (end -12.5 13) (layer "F.SilkS") (width 0.12) (tstamp 6170048c-fca7-480b-96af-ea297927bfac))
  (fp_line (start 13 -12.5) (end 13 12.5) (layer "F.SilkS") (width 0.12) (tstamp b82d01e9-387b-4b64-afe7-12464f5e2ee6))
  (fp_arc (start 12.5 -13) (mid 12.853553 -12.853553) (end 13 -12.5) (layer "F.SilkS") (width 0.12) (tstamp 74ff689e-0740-4f5e-b1c4-086076be0a88))
  (fp_arc (start 13 12.5) (mid 12.853553 12.853553) (end 12.5 13) (layer "F.SilkS") (width 0.12) (tstamp 814c9d5e-ae4e-405f-8f03-978bc7bfcd9a))
  (fp_arc (start -13 -12.5) (mid -12.853553 -12.853553) (end -12.5 -13) (layer "F.SilkS") (width 0.12) (tstamp ccbb6e23-d216-42ea-bd19-03ff6b845fd0))
  (fp_arc (start -12.5 13) (mid -12.853553 12.853553) (end -13 12.5) (layer "F.SilkS") (width 0.12) (tstamp d6107b77-bc61-4a4c-9a15-46e98a174f28))
  (fp_rect (start -12.75 -12.75) (end 12.75 12.75) (layer "F.CrtYd") (width 0.12) (fill none) (tstamp cc966c59-e9bd-43a7-adf4-310651843d32))
  (pad "1" smd roundrect (at -13.5 -9) (size 3.2 1.6) (layers "F.Cu" "F.Paste" "F.Mask") (roundrect_rratio 0.25) (tstamp a56177fa-8206-42bf-bd4d-b9ff890dcbe1))
  (pad "2" smd roundrect (at -13.5 -7) (size 3.2 1.6) (layers "F.Cu" "F.Paste" "F.Mask") (roundrect_rratio 0.25) (tstamp 864b847a-07ee-4aca-9bcd-b259ed430d0c))
  (pad "3" smd roundrect (at -13.5 -5) (size 3.2 1.6) (layers "F.Cu" "F.Paste" "F.Mask") (roundrect_rratio 0.25) (tstamp 5197817d-ae09-42ba-bf19-6bbaff6d51d2))
  (pad "4" smd roundrect (at -13.5 -3) (size 3.2 1.6) (layers "F.Cu" "F.Paste" "F.Mask") (roundrect_rratio 0.25) (tstamp 976dcc0f-185b-478a-837d-92445605b4f4))
  (pad "5" smd roundrect (at -13.5 -1) (size 3.2 1.6) (layers "F.Cu" "F.Paste" "F.Mask") (roundrect_rratio 0.25) (tstamp aff82874-5aad-4169-be27-d72ff1e8aa36))
  (pad "6" smd roundrect (at -13.5 1) (size 3.2 1.6) (layers "F.Cu" "F.Paste" "F.Mask") (roundrect_rratio 0.25) (tstamp 7a17abde-ff3a-42c7-9a31-78dbcb09cccf))
  (pad "7" smd roundrect (at -13.5 3) (size 3.2 1.6) (layers "F.Cu" "F.Paste" "F.Mask") (roundrect_rratio 0.25) (tstamp 340abfff-9c22-441f-ad60-6f18ad8bccc1))
  (pad "8" smd roundrect (at -13.5 5) (size 3.2 1.6) (layers "F.Cu" "F.Paste" "F.Mask") (roundrect_rratio 0.25) (tstamp 37ffc7f2-2b8e-4362-82d7-2cdc6b614101))
  (pad "9" smd roundrect (at -13.5 7) (size 3.2 1.6) (layers "F.Cu" "F.Paste" "F.Mask") (roundrect_rratio 0.25) (tstamp fe16d9f2-2150-4c27-b3c1-8bfcf45d9cf8))
  (pad "10" smd roundrect (at -13.5 9) (size 3.2 1.6) (layers "F.Cu" "F.Paste" "F.Mask") (roundrect_rratio 0.25) (tstamp 3ebc4c4c-b73c-4d39-81e6-caa4e7240640))
  (pad "11" smd roundrect (at -9 13.5 90) (size 3.2 1.6) (layers "F.Cu" "F.Paste" "F.Mask") (roundrect_rratio 0.25) (tstamp 50e87e7c-582d-4050-8f7d-e1190d5544a6))
  (pad "12" smd roundrect (at -7 13.5 90) (size 3.2 1.6) (layers "F.Cu" "F.Paste" "F.Mask") (roundrect_rratio 0.25) (tstamp 3b199d4e-c81b-437a-a5bb-419a57a53805))
  (pad "13" smd roundrect (at -5 13.5 90) (size 3.2 1.6) (layers "F.Cu" "F.Paste" "F.Mask") (roundrect_rratio 0.25) (tstamp e961a79f-38c2-4ee1-9dec-cd8898ef4f8e))
  (pad "14" smd roundrect (at -3 13.5 90) (size 3.2 1.6) (layers "F.Cu" "F.Paste" "F.Mask") (roundrect_rratio 0.25) (tstamp 49d87ef0-7923-45f7-b894-9e22d600a640))
  (pad "15" smd roundrect (at -1 13.5 90) (size 3.2 1.6) (layers "F.Cu" "F.Paste" "F.Mask") (roundrect_rratio 0.25) (tstamp 5ef8e26c-7b8f-4bc4-af73-c052e439eb40))
  (pad "16" smd roundrect (at 1 13.5 90) (size 3.2 1.6) (layers "F.Cu" "F.Paste" "F.Mask") (roundrect_rratio 0.25) (tstamp ee3ea438-43f3-4e03-9489-9f3a4874993f))
  (pad "17" smd roundrect (at 3 13.5 90) (size 3.2 1.6) (layers "F.Cu" "F.Paste" "F.Mask") (roundrect_rratio 0.25) (tstamp 1dfccf3f-e02d-4a4b-9d6b-49c93cd87e0d))
  (pad "18" smd roundrect (at 5 13.5 90) (size 3.2 1.6) (layers "F.Cu" "F.Paste" "F.Mask") (roundrect_rratio 0.25) (tstamp 675e0ad0-ef12-4c12-8b9d-21c47e1bb8d1))
  (pad "19" smd roundrect (at 7 13.5 90) (size 3.2 1.6) (layers "F.Cu" "F.Paste" "F.Mask") (roundrect_rratio 0.25) (tstamp 8f60b770-c4a0-41cf-9335-aa2a31e627d0))
  (pad "20" smd roundrect (at 9 13.5 90) (size 3.2 1.6) (layers "F.Cu" "F.Paste" "F.Mask") (roundrect_rratio 0.25) (tstamp ba6ab6aa-7e62-43e9-9301-59a7f49aa957))
  (pad "21" smd roundrect (at 13.5 9 180) (size 3.2 1.6) (layers "F.Cu" "F.Paste" "F.Mask") (roundrect_rratio 0.25) (tstamp 3e1369bb-7c87-4c01-a888-7fab10553fea))
  (pad "22" smd roundrect (at 13.5 7 180) (size 3.2 1.6) (layers "F.Cu" "F.Paste" "F.Mask") (roundrect_rratio 0.25) (tstamp 5c76f54f-8a01-4a61-8ca5-aa6aec8d73a9))
  (pad "23" smd roundrect (at 13.5 5 180) (size 3.2 1.6) (layers "F.Cu" "F.Paste" "F.Mask") (roundrect_rratio 0.25) (tstamp 0c6c15e0-a2a9-41a6-b9ba-d271e6ac3cf4))
  (pad "24" smd roundrect (at 13.5 3 180) (size 3.2 1.6) (layers "F.Cu" "F.Paste" "F.Mask") (roundrect_rratio 0.25) (tstamp 6afa23e0-5559-4d0b-a7f2-a609034b6d1d))
  (pad "25" smd roundrect (at 13.5 1 180) (size 3.2 1.6) (layers "F.Cu" "F.Paste" "F.Mask") (roundrect_rratio 0.25) (tstamp 1a7b07bb-5854-4c25-905b-f3c4f761d790))
  (pad "26" smd roundrect (at 13.5 -1 180) (size 3.2 1.6) (layers "F.Cu" "F.Paste" "F.Mask") (roundrect_rratio 0.25) (tstamp 74540486-c6c2-4073-9fd1-3dcaaf6cde01))
  (pad "27" smd roundrect (at 13.5 -3 180) (size 3.2 1.6) (layers "F.Cu" "F.Paste" "F.Mask") (roundrect_rratio 0.25) (tstamp f10c8547-07da-4266-ae82-a6536aaaa7d0))
  (pad "28" smd roundrect (at 13.5 -5 180) (size 3.2 1.6) (layers "F.Cu" "F.Paste" "F.Mask") (roundrect_rratio 0.25) (tstamp fdfcb96f-03a7-4a00-8029-cec4ddbd63d9))
  (pad "29" smd roundrect (at 13.5 -7 180) (size 3.2 1.6) (layers "F.Cu" "F.Paste" "F.Mask") (roundrect_rratio 0.25) (tstamp 0494aca5-c520-4845-84ee-a0d5a5f86892))
  (pad "30" smd roundrect (at 13.5 -9 180) (size 3.2 1.6) (layers "F.Cu" "F.Paste" "F.Mask") (roundrect_rratio 0.25) (tstamp efca2f1f-ba38-4d4b-8fee-7781968360e3))
  (pad "31" smd roundrect (at 9 -13.5 270) (size 3.2 1.6) (layers "F.Cu" "F.Paste" "F.Mask") (roundrect_rratio 0.25) (tstamp 4628b854-f9aa-4d4d-b614-6d46cd0caa9a))
  (pad "32" smd roundrect (at 7 -13.5 270) (size 3.2 1.6) (layers "F.Cu" "F.Paste" "F.Mask") (roundrect_rratio 0.25) (tstamp fb3219b8-d124-4c25-a85a-c3d74de7252c))
  (pad "33" smd roundrect (at 5 -13.5 270) (size 3.2 1.6) (layers "F.Cu" "F.Paste" "F.Mask") (roundrect_rratio 0.25) (tstamp f123f3ff-4040-4bca-9020-e7432b001c33))
  (pad "34" smd roundrect (at 3 -13.5 270) (size 3.2 1.6) (layers "F.Cu" "F.Paste" "F.Mask") (roundrect_rratio 0.25) (tstamp c6d3afa7-6675-47f1-93ee-0d2e72bd52f1))
  (pad "35" smd roundrect (at 1 -13.5 270) (size 3.2 1.6) (layers "F.Cu" "F.Paste" "F.Mask") (roundrect_rratio 0.25) (tstamp 1b458524-4131-4ff2-87f1-5beaef5f0020))
  (pad "36" smd roundrect (at -1 -13.5 270) (size 3.2 1.6) (layers "F.Cu" "F.Paste" "F.Mask") (roundrect_rratio 0.25) (tstamp 9803357e-3a4d-492e-9d0d-817c5c9ba769))
  (pad "37" smd roundrect (at -3 -13.5 270) (size 3.2 1.6) (layers "F.Cu" "F.Paste" "F.Mask") (roundrect_rratio 0.25) (tstamp 10540cd2-811e-44c3-a044-70cd086f3fcc))
  (pad "38" smd roundrect (at -5 -13.5 270) (size 3.2 1.6) (layers "F.Cu" "F.Paste" "F.Mask") (roundrect_rratio 0.25) (tstamp d0cdf092-569a-4ad5-9e66-e487f97e60cd))
  (pad "39" smd roundrect (at -7 -13.5 270) (size 3.2 1.6) (layers "F.Cu" "F.Paste" "F.Mask") (roundrect_rratio 0.25) (tstamp 3ac909de-0e91-4254-a98b-93aa6a241189))
  (pad "40" smd roundrect (at -9 -13.5 270) (size 3.2 1.6) (layers "F.Cu" "F.Paste" "F.Mask") (roundrect_rratio 0.25) (tstamp 3f186c5f-5240-4199-a81c-1ec0884781cf))
)
