(footprint "XKB_U254-051T-4BH83-F1S" (version 20210228) (generator pcbnew) (layer "F.Cu")
  (tedit 60B8116B)
  (attr through_hole)
  (fp_text reference "REF**" (at -0.825 -6.385) (layer "F.SilkS")
    (effects (font (size 1 1) (thickness 0.015)))
    (tstamp 8581b276-a22a-45ce-b8ba-03282f478031)
  )
  (fp_text value "XKB_U254-051T-4BH83-F1S" (at 10.605 -4.885) (layer "F.Fab")
    (effects (font (size 1 1) (thickness 0.015)))
    (tstamp 9e70ba6a-043f-4753-b187-d95056601edd)
  )
  (fp_text user "PCB~EDGE" (at 4.6 1.35) (layer "F.Fab")
    (effects (font (size 0.590551 0.590551) (thickness 0.015)))
    (tstamp 10e3ddbd-d4a9-4180-903b-8343af7e220c)
  )
  (fp_line (start 3.98 -1.35) (end 3.98 1.45) (layer "F.SilkS") (width 0.127) (tstamp 2fbb6485-d947-4190-b66f-03de9cde27a4))
  (fp_line (start -3.98 -1.35) (end -3.98 1.45) (layer "F.SilkS") (width 0.127) (tstamp b678303d-744a-4d48-be06-b78e73106fa9))
  (fp_line (start -3.9 1.45) (end 3.9 1.45) (layer "F.SilkS") (width 0.127) (tstamp f23fe621-7118-4608-85a0-6a8a78055c30))
  (fp_line (start -4.4 2.4) (end -4.4 -3.6) (layer "F.CrtYd") (width 0.05) (tstamp 576fa868-89dd-4635-aa60-9fb5e8cecdd3))
  (fp_line (start -4.4 2.4) (end 4.4 2.4) (layer "F.CrtYd") (width 0.05) (tstamp 8779d104-6004-4ca4-9c79-7ac9d313570f))
  (fp_line (start 4.4 2.4) (end 4.4 -3.6) (layer "F.CrtYd") (width 0.05) (tstamp 9d4997ba-e87c-4c46-9451-900de6485fc0))
  (fp_line (start -4.4 -3.6) (end 4.4 -3.6) (layer "F.CrtYd") (width 0.05) (tstamp c49b7dc3-2f56-48dd-84d3-9d307aa22b66))
  (fp_line (start -3.98 2.15) (end 3.98 2.15) (layer "F.Fab") (width 0.127) (tstamp 3e9b7322-7e49-4a11-b4e2-d4ff2e243808))
  (fp_line (start -4.9 1.45) (end 6.2 1.45) (layer "F.Fab") (width 0.127) (tstamp 658ae20a-6014-45ab-a775-b502ce1f8834))
  (fp_line (start 3.98 2.15) (end 3.98 -2.85) (layer "F.Fab") (width 0.127) (tstamp b7480a88-fa54-4e60-863f-f0e8f17ee4dd))
  (fp_line (start -3.98 -2.85) (end 3.98 -2.85) (layer "F.Fab") (width 0.127) (tstamp b7a4077e-0cb4-4831-b7f7-4fdd052d33eb))
  (fp_line (start -3.98 2.15) (end -3.98 -2.85) (layer "F.Fab") (width 0.127) (tstamp bd886d33-1585-4cfd-94fb-c6a12e05b43d))
  (fp_circle (center -1.3 -3.95) (end -1.2 -3.95) (layer "F.Fab") (width 0.2) (fill none) (tstamp dc3b6670-30d9-4361-846f-c69951d167bb))
  (pad "1" smd rect (at -1.3 -2.675) (locked) (size 0.4 1.35) (layers "F.Cu" "F.Paste" "F.Mask") (tstamp 5b2483e7-41ee-4a76-8230-11e511f648ee))
  (pad "2" smd rect (at -0.65 -2.675) (locked) (size 0.4 1.35) (layers "F.Cu" "F.Paste" "F.Mask") (tstamp 8b7dfb26-c48f-4247-b7c1-8fe4161aca75))
  (pad "3" smd rect (at 0 -2.675) (locked) (size 0.4 1.35) (layers "F.Cu" "F.Paste" "F.Mask") (tstamp 692136c6-16f3-4e6b-8439-d332c4fa7991))
  (pad "4" smd rect (at 0.65 -2.675) (locked) (size 0.4 1.35) (layers "F.Cu" "F.Paste" "F.Mask") (tstamp 7b73a5d2-e2d9-46a6-916a-2edf08c154ce))
  (pad "5" smd rect (at 1.3 -2.675) (locked) (size 0.4 1.35) (layers "F.Cu" "F.Paste" "F.Mask") (tstamp 6da6e49c-ab19-4e24-a6e3-af3ef6ef65f2))
  (pad "6" smd rect (at -1.2 0) (locked) (size 1.9 1.9) (layers "F.Cu" "F.Paste" "F.Mask") (tstamp 4b4912e1-d522-40b6-b469-45a83435dd9f))
  (pad "6" smd rect (at 1.2 0) (locked) (size 1.9 1.9) (layers "F.Cu" "F.Paste" "F.Mask") (tstamp 7d6ac144-a4d8-4fbe-b963-7da6b3528167))
  (pad "6" smd rect (at -3.1 -2.55) (locked) (size 2.1 1.6) (layers "F.Cu" "F.Paste" "F.Mask") (tstamp 908eff96-881e-4b3b-87f1-124faeae4c04))
  (pad "6" smd rect (at 3.1 -2.55) (locked) (size 2.1 1.6) (layers "F.Cu" "F.Paste" "F.Mask") (tstamp a670a774-22ea-4638-9e87-28adb323da7f))
  (pad "None" np_thru_hole circle (at 2 -2.35) (locked) (size 0.6 0.6) (drill 0.6) (layers *.Cu *.Mask) (tstamp 01df28f4-fe4a-40f7-ab45-1f6000f33c91))
  (pad "None" np_thru_hole circle (at -2 -2.35) (locked) (size 0.6 0.6) (drill 0.6) (layers *.Cu *.Mask) (tstamp 33c9f1cd-c33a-40ec-a00b-45c64928e30f))
  (pad "S5" thru_hole oval (at -2.825 0) (locked) (size 0.85 1.7) (drill oval 0.5 1.2) (layers *.Cu *.Mask) (tstamp 6f02652a-1b9c-43b0-b6fe-39c5760a539c))
  (pad "S6" thru_hole oval (at 2.825 0) (locked) (size 0.85 1.7) (drill oval 0.5 1.2) (layers *.Cu *.Mask) (tstamp f928d3c4-2cae-477c-a316-9fbe16876a80))
)
