(footprint "LOGO" (version 20210606) (generator bitmap2component) (layer "F.Cu")
  (at 0 0)
(attr board_only exclude_from_pos_files exclude_from_bom)
 (fp_text reference "G***" (at 0 0) (layer F.SilkS)
  (effects (font (thickness 0.3)))
  )
  (fp_text value "LOGO" (at 0.75 0) (layer F.SilkS) hide
  (effects (font (thickness 0.3)))
  )
  (fp_poly (pts (xy 3.603958 -0.748495) (xy 3.811534 -0.748447) (xy 4.005008 -0.748369) (xy 4.184872 -0.748262) (xy 4.351617 -0.748123) (xy 4.505737 -0.747951) (xy 4.647722 -0.747744) (xy 4.778066 -0.747502)
     (xy 4.897261 -0.747223) (xy 5.005798 -0.746906) (xy 5.104169 -0.746548) (xy 5.192868 -0.746150) (xy 5.272385 -0.745709) (xy 5.343213 -0.745225) (xy 5.405845 -0.744695) (xy 5.460771 -0.744119)
     (xy 5.508485 -0.743495) (xy 5.549479 -0.742822) (xy 5.584244 -0.742099) (xy 5.613274 -0.741323) (xy 5.637059 -0.740494) (xy 5.656092 -0.739611) (xy 5.670865 -0.738671) (xy 5.681871 -0.737674)
     (xy 5.689601 -0.736619) (xy 5.694547 -0.735503) (xy 5.697202 -0.734327) (xy 5.698059 -0.733087) (xy 5.697988 -0.732510) (xy 5.693996 -0.720430) (xy 5.684171 -0.690873) (xy 5.669012 -0.645332)
     (xy 5.649018 -0.585301) (xy 5.624685 -0.512275) (xy 5.596513 -0.427749) (xy 5.564999 -0.333218) (xy 5.530641 -0.230174) (xy 5.493937 -0.120113) (xy 5.455386 -0.004530) (xy 5.448872 0.015000)
     (xy 5.205365 0.745000) (xy -0.249117 0.747509) (xy -0.644300 0.747688) (xy -1.019966 0.747854) (xy -1.376609 0.748005) (xy -1.714721 0.748139) (xy -2.034793 0.748254) (xy -2.337318 0.748351)
     (xy -2.622788 0.748426) (xy -2.891695 0.748480) (xy -3.144531 0.748510) (xy -3.381788 0.748515) (xy -3.603959 0.748494) (xy -3.811535 0.748446) (xy -4.005009 0.748368) (xy -4.184872 0.748261)
     (xy -4.351618 0.748122) (xy -4.505738 0.747950) (xy -4.647723 0.747743) (xy -4.778067 0.747501) (xy -4.897262 0.747222) (xy -5.005798 0.746905) (xy -5.104170 0.746547) (xy -5.192868 0.746149)
     (xy -5.272386 0.745708) (xy -5.343214 0.745224) (xy -5.405845 0.744694) (xy -5.460772 0.744118) (xy -5.508486 0.743494) (xy -5.549480 0.742821) (xy -5.584245 0.742098) (xy -5.613274 0.741322)
     (xy -5.637059 0.740493) (xy -5.656092 0.739610) (xy -5.670866 0.738670) (xy -5.681871 0.737673) (xy -5.689601 0.736618) (xy -5.694548 0.735502) (xy -5.697203 0.734326) (xy -5.698059 0.733086)
     (xy -5.697989 0.732509) (xy -5.693996 0.720429) (xy -5.684172 0.690872) (xy -5.669013 0.645331) (xy -5.649018 0.585300) (xy -5.624686 0.512274) (xy -5.596514 0.427748) (xy -5.565000 0.333217)
     (xy -5.530642 0.230173) (xy -5.493938 0.120112) (xy -5.455387 0.004529) (xy -5.448872 -0.015000) (xy -5.296732 -0.471096) (xy -4.981962 -0.471096) (xy -4.981962 0.510000) (xy -4.781883 0.510000)
     (xy -4.031588 0.510000) (xy -3.841513 0.510000) (xy -3.841513 0.145000) (xy -3.716464 0.145000) (xy -3.715997 0.195507) (xy -3.713982 0.231647) (xy -3.709494 0.259041) (xy -3.701608 0.283313)
     (xy -3.689399 0.310085) (xy -3.689277 0.310333) (xy -3.642948 0.383505) (xy -3.584081 0.442138) (xy -3.514696 0.485415) (xy -3.436809 0.512522) (xy -3.352437 0.522642) (xy -3.263599 0.514959)
     (xy -3.213308 0.502774) (xy -3.180002 0.489856) (xy -3.142744 0.470887) (xy -3.106544 0.449006) (xy -3.076408 0.427354) (xy -3.057345 0.409070) (xy -3.053692 0.402708) (xy -3.058193 0.390032)
     (xy -3.073762 0.367725) (xy -3.097237 0.340214) (xy -3.101953 0.335162) (xy -3.154232 0.279906) (xy -3.187754 0.305465) (xy -3.246300 0.339863) (xy -3.305779 0.356630) (xy -3.363540 0.356951)
     (xy -3.416934 0.342009) (xy -3.463310 0.312989) (xy -3.500018 0.271075) (xy -3.524408 0.217451) (xy -3.533829 0.153301) (xy -3.533856 0.150813) (xy -3.533167 0.145000) (xy -2.986176 0.145000)
     (xy -2.984040 0.212432) (xy -2.976288 0.265692) (xy -2.960906 0.310282) (xy -2.935879 0.351702) (xy -2.899194 0.395455) (xy -2.891421 0.403765) (xy -2.825803 0.458646) (xy -2.747046 0.498458)
     (xy -2.655136 0.523210) (xy -2.616030 0.528748) (xy -2.601553 0.527808) (xy -2.573666 0.524269) (xy -2.541899 0.519448) (xy -2.507223 0.510000) (xy -2.080820 0.510000) (xy -1.880741 0.510000)
     (xy -1.880741 0.110000) (xy -1.510595 0.110000) (xy -1.510595 0.028184) (xy -1.260497 0.028184) (xy -1.260148 0.117222) (xy -1.258827 0.188985) (xy -1.256116 0.246190) (xy -1.251603 0.291553)
     (xy -1.244870 0.327792) (xy -1.235505 0.357625) (xy -1.223090 0.383767) (xy -1.207212 0.408936) (xy -1.200993 0.417694) (xy -1.154223 0.465939) (xy -1.095882 0.500237) (xy -1.029377 0.519905)
     (xy -0.958112 0.524258) (xy -0.885493 0.512614) (xy -0.830327 0.492095) (xy -0.799939 0.477622) (xy -0.776989 0.466621) (xy -0.767803 0.462146) (xy -0.762293 0.467690) (xy -0.760300 0.484166)
     (xy -0.760300 0.510000) (xy -0.570225 0.510000) (xy -0.570225 0.428455) (xy -0.481386 0.428455) (xy -0.438271 0.453313) (xy -0.356165 0.490720) (xy -0.265879 0.514593) (xy -0.172487 0.524432)
     (xy -0.081062 0.519734) (xy -0.039441 0.510000) (xy 0.280110 0.510000) (xy 0.470185 0.510000) (xy 0.470185 0.145153) (xy 0.595234 0.145153) (xy 0.595745 0.192862) (xy 0.598129 0.227117)
     (xy 0.603666 0.254459) (xy 0.613634 0.281426) (xy 0.627746 0.311379) (xy 0.674044 0.383744) (xy 0.734493 0.443017) (xy 0.806828 0.486977) (xy 0.807135 0.487118) (xy 0.875185 0.512070)
     (xy 0.943408 0.523367) (xy 1.017107 0.521403) (xy 1.084116 0.510000) (xy 1.490586 0.510000) (xy 1.680661 0.510000) (xy 1.680661 0.003741) (xy 1.708172 -0.022493) (xy 1.752879 -0.053270)
     (xy 1.803141 -0.068642) (xy 1.854604 -0.068969) (xy 1.902912 -0.054609) (xy 1.943709 -0.025924) (xy 1.963115 -0.001436) (xy 1.970301 0.011012) (xy 1.975839 0.024160) (xy 1.979989 0.040762)
     (xy 1.983014 0.063573) (xy 1.985173 0.095349) (xy 1.986727 0.138843) (xy 1.987939 0.196811) (xy 1.989069 0.272007) (xy 1.989076 0.272500) (xy 1.992370 0.510000) (xy 2.182576 0.510000)
     (xy 2.621032 0.510000) (xy 2.821110 0.510000) (xy 2.821110 0.110000) (xy 3.281291 0.110000) (xy 3.281291 0.510000) (xy 3.481370 0.510000) (xy 3.481370 -0.201267) (xy 3.611421 -0.201267)
     (xy 3.703958 -0.239999) (xy 3.796494 -0.278731) (xy 3.799110 0.115634) (xy 3.801726 0.510000) (xy 3.991571 0.510000) (xy 3.991571 0.027665) (xy 4.124810 0.027665) (xy 4.128845 0.105541)
     (xy 4.139075 0.176700) (xy 4.149301 0.217103) (xy 4.186276 0.305130) (xy 4.236779 0.380144) (xy 4.299006 0.441018) (xy 4.371158 0.486625) (xy 4.451431 0.515836) (xy 4.538026 0.527524)
     (xy 4.629140 0.520562) (xy 4.632959 0.519860) (xy 4.717074 0.494256) (xy 4.792256 0.451598) (xy 4.857042 0.393386) (xy 4.909968 0.321120) (xy 4.949570 0.236300) (xy 4.966899 0.177602)
     (xy 4.973713 0.137924) (xy 4.978863 0.087390) (xy 4.981495 0.035124) (xy 4.981665 0.020000) (xy 4.973797 -0.092258) (xy 4.950234 -0.192427) (xy 4.911040 -0.280330) (xy 4.856278 -0.355793)
     (xy 4.840987 -0.371871) (xy 4.774991 -0.424282) (xy 4.699603 -0.461010) (xy 4.618082 -0.481867) (xy 4.533686 -0.486662) (xy 4.449675 -0.475208) (xy 4.369307 -0.447315) (xy 4.296651 -0.403413)
     (xy 4.249764 -0.358251) (xy 4.205952 -0.298445) (xy 4.168763 -0.229348) (xy 4.149795 -0.181905) (xy 4.135293 -0.122494) (xy 4.126962 -0.050492) (xy 4.124810 0.027665) (xy 3.991571 0.027665)
     (xy 3.991571 -0.470000) (xy 3.929047 -0.470038) (xy 3.899136 -0.468781) (xy 3.869437 -0.464136) (xy 3.835276 -0.454847) (xy 3.791980 -0.439657) (xy 3.738972 -0.418954) (xy 3.611421 -0.367833)
     (xy 3.611421 -0.201267) (xy 3.481370 -0.201267) (xy 3.481370 -0.470000) (xy 3.281291 -0.470000) (xy 3.281291 -0.069625) (xy 3.053702 -0.072313) (xy 2.826112 -0.075000) (xy 2.823400 -0.272500)
     (xy 2.820687 -0.470000) (xy 2.621032 -0.470000) (xy 2.621032 0.510000) (xy 2.182576 0.510000) (xy 2.179130 0.247500) (xy 2.177999 0.167660) (xy 2.176799 0.105104) (xy 2.175302 0.057118)
     (xy 2.173277 0.020985) (xy 2.170495 -0.006009) (xy 2.166728 -0.026580) (xy 2.161747 -0.043442) (xy 2.155321 -0.059312) (xy 2.152749 -0.065000) (xy 2.114291 -0.129779) (xy 2.065579 -0.177694)
     (xy 2.005529 -0.209476) (xy 1.933053 -0.225854) (xy 1.910752 -0.227758) (xy 1.838809 -0.227325) (xy 1.779491 -0.215879) (xy 1.728081 -0.192388) (xy 1.717047 -0.185286) (xy 1.680661 -0.160603)
     (xy 1.680661 -0.220000) (xy 1.490586 -0.220000) (xy 1.490586 0.510000) (xy 1.084116 0.510000) (xy 1.093483 0.508406) (xy 1.137106 0.492954) (xy 1.186157 0.466768) (xy 1.233378 0.434484)
     (xy 1.271512 0.400735) (xy 1.282929 0.387429) (xy 1.328782 0.312353) (xy 1.356515 0.233462) (xy 1.366687 0.153240) (xy 1.359858 0.074167) (xy 1.336585 -0.001275) (xy 1.297429 -0.070603)
     (xy 1.242947 -0.131337) (xy 1.173699 -0.180993) (xy 1.152381 -0.192259) (xy 1.121629 -0.206785) (xy 1.096291 -0.216234) (xy 1.070501 -0.221690) (xy 1.038395 -0.224241) (xy 0.994108 -0.224973)
     (xy 0.975594 -0.225000) (xy 0.925439 -0.224580) (xy 0.889562 -0.222658) (xy 0.862237 -0.218247) (xy 0.837741 -0.210357) (xy 0.810350 -0.197999) (xy 0.805444 -0.195604) (xy 0.739680 -0.154129)
     (xy 0.681225 -0.099645) (xy 0.635393 -0.037466) (xy 0.622126 -0.012358) (xy 0.609297 0.017485) (xy 0.601294 0.044708) (xy 0.597026 0.075708) (xy 0.595399 0.116882) (xy 0.595234 0.145153)
     (xy 0.470185 0.145153) (xy 0.470185 -0.220000) (xy 0.280110 -0.220000) (xy 0.280110 0.510000) (xy -0.039441 0.510000) (xy 0.003321 0.499999) (xy 0.009958 0.497630) (xy 0.069203 0.467271)
     (xy 0.117223 0.425522) (xy 0.152077 0.375528) (xy 0.171822 0.320435) (xy 0.174514 0.263390) (xy 0.169854 0.238701) (xy 0.153216 0.193139) (xy 0.128620 0.156490) (xy 0.093695 0.127272)
     (xy 0.046072 0.104003) (xy -0.016620 0.085202) (xy -0.096751 0.069385) (xy -0.102419 0.068458) (xy -0.165146 0.057663) (xy -0.210971 0.047888) (xy -0.242879 0.037964) (xy -0.263855 0.026723)
     (xy -0.276884 0.012997) (xy -0.284399 -0.002777) (xy -0.288794 -0.023883) (xy -0.281854 -0.041202) (xy -0.267775 -0.056877) (xy -0.234657 -0.076989) (xy -0.188868 -0.086862) (xy -0.134761 -0.086763)
     (xy -0.076688 -0.076962) (xy -0.019002 -0.057728) (xy 0.018078 -0.039226) (xy 0.040166 -0.026869) (xy 0.053479 -0.020317) (xy 0.054655 -0.020000) (xy 0.062117 -0.027496) (xy 0.076930 -0.046552)
     (xy 0.095440 -0.072027) (xy 0.113996 -0.098775) (xy 0.128946 -0.121655) (xy 0.136588 -0.135393) (xy 0.131390 -0.147732) (xy 0.110533 -0.163455) (xy 0.077661 -0.180692) (xy 0.036419 -0.197575)
     (xy -0.009548 -0.212233) (xy -0.017165 -0.214264) (xy -0.090194 -0.226585) (xy -0.169593 -0.228999) (xy -0.246051 -0.221546) (xy -0.283931 -0.213128) (xy -0.330960 -0.195574) (xy -0.370621 -0.169223)
     (xy -0.391198 -0.150628) (xy -0.431450 -0.102509) (xy -0.452972 -0.052569) (xy -0.456952 0.002882) (xy -0.451945 0.037804) (xy -0.437749 0.085868) (xy -0.415513 0.124571) (xy -0.382965 0.155430)
     (xy -0.337832 0.179959) (xy -0.277841 0.199673) (xy -0.200720 0.216089) (xy -0.179030 0.219768) (xy -0.109646 0.232702) (xy -0.058734 0.246332) (xy -0.024758 0.261618) (xy -0.006183 0.279519)
     (xy -0.001475 0.300992) (xy -0.008712 0.326157) (xy -0.031296 0.352868) (xy -0.068296 0.370608) (xy -0.116181 0.379249) (xy -0.171421 0.378665) (xy -0.230487 0.368729) (xy -0.289847 0.349314)
     (xy -0.316187 0.337213) (xy -0.387277 0.301196) (xy -0.410501 0.333098) (xy -0.433368 0.364225) (xy -0.456723 0.395618) (xy -0.457556 0.396727) (xy -0.481386 0.428455) (xy -0.570225 0.428455)
     (xy -0.570225 -0.220000) (xy -0.760300 -0.220000) (xy -0.760300 0.286258) (xy -0.787811 0.312492) (xy -0.832508 0.343153) (xy -0.883235 0.358700) (xy -0.935515 0.359462) (xy -0.984875 0.345765)
     (xy -1.026838 0.317940) (xy -1.047369 0.293448) (xy -1.053126 0.282734) (xy -1.057615 0.268553) (xy -1.061038 0.248315) (xy -1.063598 0.219430) (xy -1.065498 0.179311) (xy -1.066942 0.125367)
     (xy -1.068131 0.055009) (xy -1.068565 0.022970) (xy -1.071710 -0.220001) (xy -1.166103 -0.220000) (xy -1.260497 -0.220000) (xy -1.260497 0.028184) (xy -1.510595 0.028184) (xy -1.510595 -0.060000)
     (xy -1.880741 -0.060000) (xy -1.880741 -0.300000) (xy -1.320520 -0.300000) (xy -1.320520 -0.419367) (xy 0.264137 -0.419367) (xy 0.271178 -0.380170) (xy 0.292789 -0.345870) (xy 0.313168 -0.329560)
     (xy 0.353508 -0.312557) (xy 0.392207 -0.313904) (xy 0.420493 -0.325170) (xy 0.450891 -0.350422) (xy 0.472535 -0.386309) (xy 0.480151 -0.422004) (xy 0.471141 -0.462116) (xy 0.447180 -0.494417)
     (xy 0.412659 -0.516204) (xy 0.371970 -0.524776) (xy 0.329506 -0.517432) (xy 0.326788 -0.516338) (xy 0.292306 -0.492453) (xy 0.271301 -0.458463) (xy 0.264137 -0.419367) (xy -1.320520 -0.419367)
     (xy -1.320520 -0.470000) (xy -2.080820 -0.470000) (xy -2.080820 0.510000) (xy -2.507223 0.510000) (xy -2.456157 0.496086) (xy -2.380465 0.455434) (xy -2.320198 0.403308) (xy -2.266725 0.333613)
     (xy -2.232301 0.257976) (xy -2.217097 0.176996) (xy -2.221284 0.091272) (xy -2.225093 0.070538) (xy -2.252126 -0.012985) (xy -2.295692 -0.085517) (xy -2.354985 -0.146043) (xy -2.429198 -0.193552)
     (xy -2.439209 -0.198396) (xy -2.467048 -0.210459) (xy -2.492456 -0.218236) (xy -2.521168 -0.222642) (xy -2.558918 -0.224591) (xy -2.606026 -0.225000) (xy -2.657002 -0.224494) (xy -2.693717 -0.222363)
     (xy -2.721904 -0.217695) (xy -2.747296 -0.209574) (xy -2.772843 -0.198396) (xy -2.846980 -0.152802) (xy -2.909302 -0.091661) (xy -2.952258 -0.027521) (xy -2.967212 0.001034) (xy -2.976969 0.024385)
     (xy -2.982636 0.048164) (xy -2.985320 0.078002) (xy -2.986129 0.119530) (xy -2.986176 0.145000) (xy -3.533167 0.145000) (xy -3.526032 0.084801) (xy -3.503344 0.028351) (xy -3.468242 -0.016803)
     (xy -3.423173 -0.048929) (xy -3.370586 -0.066294) (xy -3.312930 -0.067164) (xy -3.252653 -0.049807) (xy -3.251280 -0.049191) (xy -3.218045 -0.031357) (xy -3.188212 -0.010838) (xy -3.180109 -0.003839)
     (xy -3.153955 0.021143) (xy -3.097460 -0.041261) (xy -3.040966 -0.103665) (xy -3.067144 -0.130978) (xy -3.089478 -0.149334) (xy -3.122822 -0.171160) (xy -3.159796 -0.191646) (xy -3.190401 -0.206423)
     (xy -3.215457 -0.216040) (xy -3.240806 -0.221601) (xy -3.272288 -0.224209) (xy -3.315745 -0.224967) (xy -3.336314 -0.225000) (xy -3.387028 -0.224519) (xy -3.423616 -0.222430) (xy -3.451949 -0.217765)
     (xy -3.477900 -0.209554) (xy -3.507339 -0.196829) (xy -3.507485 -0.196761) (xy -3.574285 -0.155823) (xy -3.633779 -0.099766) (xy -3.681129 -0.033317) (xy -3.688306 -0.020000) (xy -3.700913 0.006282)
     (xy -3.709084 0.029682) (xy -3.713767 0.055754) (xy -3.715910 0.090052) (xy -3.716460 0.138131) (xy -3.716464 0.145000) (xy -3.841513 0.145000) (xy -3.841513 -0.220000) (xy -4.031588 -0.220000)
     (xy -4.031588 0.510000) (xy -4.781883 0.510000) (xy -4.781883 0.141840) (xy -4.589307 0.138388) (xy -4.522049 0.137055) (xy -4.471327 0.135528) (xy -4.433670 0.133389) (xy -4.405609 0.130222)
     (xy -4.383671 0.125609) (xy -4.364388 0.119134) (xy -4.344287 0.110379) (xy -4.340155 0.108454) (xy -4.275881 0.068656) (xy -4.225914 0.017969) (xy -4.190310 -0.040821) (xy -4.169122 -0.104929)
     (xy -4.162405 -0.171567) (xy -4.170214 -0.237950) (xy -4.192604 -0.301292) (xy -4.229629 -0.358807) (xy -4.281344 -0.407709) (xy -4.329002 -0.436612) (xy -4.049041 -0.436612) (xy -4.047689 -0.397918)
     (xy -4.036464 -0.369757) (xy -4.008414 -0.334871) (xy -3.970991 -0.315675) (xy -3.928572 -0.313327) (xy -3.885529 -0.328983) (xy -3.884574 -0.329560) (xy -3.853941 -0.358447) (xy -3.838100 -0.395268)
     (xy -3.836685 -0.435022) (xy -3.849333 -0.472707) (xy -3.875678 -0.503323) (xy -3.898194 -0.516338) (xy -3.942913 -0.525690) (xy -3.985001 -0.517515) (xy -4.019775 -0.493193) (xy -4.032029 -0.476956)
     (xy -4.049041 -0.436612) (xy -4.329002 -0.436612) (xy -4.329462 -0.436891) (xy -4.386727 -0.465000) (xy -4.684345 -0.468048) (xy -4.981962 -0.471096) (xy -5.296732 -0.471096) (xy -5.205366 -0.745000)
     (xy 0.249116 -0.747510) (xy 0.644299 -0.747689) (xy 1.019966 -0.747855) (xy 1.376609 -0.748006) (xy 1.714720 -0.748140) (xy 2.034792 -0.748255) (xy 2.337317 -0.748352) (xy 2.622787 -0.748427)
     (xy 2.891694 -0.748481) (xy 3.144530 -0.748511) (xy 3.381787 -0.748516) )(layer F.SilkS) (width  0.000000)
  )
  (fp_poly (pts (xy -2.565005 -0.064789) (xy -2.518271 -0.046721) (xy -2.476527 -0.017816) (xy -2.441973 0.020276) (xy -2.416807 0.065908) (xy -2.403227 0.117431) (xy -2.403432 0.173196) (xy -2.419621 0.231555)
     (xy -2.428800 0.251014) (xy -2.464825 0.300098) (xy -2.512162 0.335153) (xy -2.566944 0.354823) (xy -2.625305 0.357751) (xy -2.683379 0.342580) (xy -2.686144 0.341350) (xy -2.738483 0.307566)
     (xy -2.777018 0.262114) (xy -2.801009 0.208477) (xy -2.809714 0.150136) (xy -2.802393 0.090574) (xy -2.778304 0.033271) (xy -2.757879 0.004271) (xy -2.713167 -0.037491) (xy -2.664652 -0.061823)
     (xy -2.614532 -0.070373) )(layer F.SilkS) (width  0.000000)
  )
  (fp_poly (pts (xy 1.024711 -0.062001) (xy 1.074855 -0.041056) (xy 1.118240 -0.006861) (xy 1.152097 0.039013) (xy 1.173652 0.094998) (xy 1.180245 0.150927) (xy 1.171653 0.214442) (xy 1.146832 0.269242)
     (xy 1.108004 0.312882) (xy 1.057388 0.342915) (xy 0.997208 0.356894) (xy 0.992942 0.357193) (xy 0.942754 0.356011) (xy 0.901122 0.344514) (xy 0.894644 0.341626) (xy 0.844031 0.307933)
     (xy 0.806939 0.262821) (xy 0.783691 0.209905) (xy 0.774609 0.152798) (xy 0.780019 0.095115) (xy 0.800242 0.040469) (xy 0.835601 -0.007525) (xy 0.861436 -0.029646) (xy 0.915230 -0.057865)
     (xy 0.970579 -0.068127) )(layer F.SilkS) (width  0.000000)
  )
  (fp_poly (pts (xy 4.593421 -0.317305) (xy 4.650853 -0.298878) (xy 4.702057 -0.264113) (xy 4.718418 -0.247390) (xy 4.751964 -0.201013) (xy 4.775224 -0.148293) (xy 4.789283 -0.085470) (xy 4.795225 -0.008786)
     (xy 4.795590 0.020000) (xy 4.792705 0.097329) (xy 4.783182 0.159936) (xy 4.765722 0.212372) (xy 4.739025 0.259192) (xy 4.720268 0.283791) (xy 4.674414 0.324477) (xy 4.618780 0.350382)
     (xy 4.558001 0.360594) (xy 4.496709 0.354203) (xy 4.450825 0.336738) (xy 4.396940 0.297232) (xy 4.355524 0.242396) (xy 4.326796 0.172713) (xy 4.310973 0.088666) (xy 4.307692 0.020000)
     (xy 4.312840 -0.068219) (xy 4.328462 -0.141576) (xy 4.355243 -0.202652) (xy 4.374308 -0.231074) (xy 4.420205 -0.276277) (xy 4.474452 -0.305831) (xy 4.533406 -0.319565) )(layer F.SilkS) (width  0.000000)
  )
  (fp_poly (pts (xy -4.629323 -0.299985) (xy -4.559178 -0.299162) (xy -4.505751 -0.296160) (xy -4.465797 -0.290155) (xy -4.436073 -0.280321) (xy -4.413334 -0.265836) (xy -4.394337 -0.245874) (xy -4.389057 -0.238934)
     (xy -4.373771 -0.203569) (xy -4.369616 -0.159848) (xy -4.376697 -0.116102) (xy -4.387230 -0.091843) (xy -4.402253 -0.070357) (xy -4.420373 -0.054407) (xy -4.444631 -0.043204) (xy -4.478066 -0.035960)
     (xy -4.523720 -0.031888) (xy -4.584631 -0.030199) (xy -4.625833 -0.030000) (xy -4.781883 -0.030000) (xy -4.781883 -0.300000) )(layer F.SilkS) (width  0.000000)
  )
)
