(footprint "LOGO" (version 20210606) (generator bitmap2component) (layer "F.Cu")
  (at 0 0)
(attr board_only exclude_from_pos_files exclude_from_bom)
 (fp_text reference "G***" (at 0 0) (layer F.SilkS)
  (effects (font (thickness 0.3)))
  )
  (fp_text value "LOGO" (at 0.75 0) (layer F.SilkS) hide
  (effects (font (thickness 0.3)))
  )
  (fp_poly (pts (xy 5.404873 -1.122963) (xy 5.716176 -1.122891) (xy 6.006329 -1.122775) (xy 6.276072 -1.122613) (xy 6.526141 -1.122404) (xy 6.757275 -1.122146) (xy 6.970211 -1.121836) (xy 7.165689 -1.121473)
     (xy 7.344445 -1.121055) (xy 7.507218 -1.120578) (xy 7.654746 -1.120042) (xy 7.787768 -1.119445) (xy 7.907020 -1.118784) (xy 8.013242 -1.118057) (xy 8.107170 -1.117263) (xy 8.189544 -1.116398)
     (xy 8.261101 -1.115462) (xy 8.322580 -1.114452) (xy 8.374717 -1.113367) (xy 8.418253 -1.112203) (xy 8.453923 -1.110959) (xy 8.482467 -1.109634) (xy 8.504623 -1.108224) (xy 8.521128 -1.106729)
     (xy 8.532721 -1.105145) (xy 8.540139 -1.103472) (xy 8.544121 -1.101706) (xy 8.545405 -1.099846) (xy 8.545300 -1.098980) (xy 8.539312 -1.080858) (xy 8.524578 -1.036513) (xy 8.501844 -0.968187)
     (xy 8.471858 -0.878124) (xy 8.435367 -0.768564) (xy 8.393117 -0.641750) (xy 8.345855 -0.499924) (xy 8.294328 -0.345328) (xy 8.239283 -0.180205) (xy 8.181468 -0.006796) (xy 8.171698 0.022504)
     (xy 7.806511 1.117720) (xy -0.373602 1.121484) (xy -0.966259 1.121754) (xy -1.529648 1.122003) (xy -2.064507 1.122229) (xy -2.571575 1.122429) (xy -3.051589 1.122603) (xy -3.505287 1.122748)
     (xy -3.933407 1.122861) (xy -4.336688 1.122941) (xy -4.715868 1.122987) (xy -5.071683 1.122994) (xy -5.404874 1.122963) (xy -5.716177 1.122890) (xy -6.006330 1.122774) (xy -6.276073 1.122613)
     (xy -6.526142 1.122404) (xy -6.757276 1.122146) (xy -6.970212 1.121836) (xy -7.165690 1.121473) (xy -7.344446 1.121054) (xy -7.507219 1.120578) (xy -7.654747 1.120042) (xy -7.787769 1.119445)
     (xy -7.907021 1.118784) (xy -8.013243 1.118057) (xy -8.107171 1.117262) (xy -8.189545 1.116398) (xy -8.261102 1.115462) (xy -8.322581 1.114452) (xy -8.374718 1.113366) (xy -8.418254 1.112203)
     (xy -8.453924 1.110959) (xy -8.482468 1.109634) (xy -8.504624 1.108224) (xy -8.521129 1.106729) (xy -8.532722 1.105145) (xy -8.540140 1.103471) (xy -8.544122 1.101706) (xy -8.545406 1.099846)
     (xy -8.545301 1.098980) (xy -8.539313 1.080857) (xy -8.524579 1.036512) (xy -8.501845 0.968187) (xy -8.471859 0.878123) (xy -8.435368 0.768563) (xy -8.393118 0.641750) (xy -8.345856 0.499924)
     (xy -8.294329 0.345328) (xy -8.239284 0.180205) (xy -8.181469 0.006796) (xy -8.171699 -0.022505) (xy -7.943534 -0.706783) (xy -7.471471 -0.706783) (xy -7.471471 0.765150) (xy -7.171412 0.765150)
     (xy -6.046191 0.765150) (xy -5.761135 0.765150) (xy -5.761135 0.217543) (xy -5.573598 0.217543) (xy -5.572898 0.293319) (xy -5.569877 0.347539) (xy -5.563145 0.388639) (xy -5.551318 0.425054)
     (xy -5.533009 0.465219) (xy -5.532826 0.465591) (xy -5.463346 0.575372) (xy -5.375063 0.663338) (xy -5.271006 0.728267) (xy -5.154198 0.768935) (xy -5.027665 0.784118) (xy -4.894434 0.772592)
     (xy -4.819013 0.754310) (xy -4.769064 0.734929) (xy -4.713189 0.706470) (xy -4.658898 0.673642) (xy -4.613703 0.641158) (xy -4.585115 0.613726) (xy -4.579636 0.604182) (xy -4.586386 0.585164)
     (xy -4.609735 0.551696) (xy -4.644940 0.510422) (xy -4.652013 0.502842) (xy -4.730416 0.419942) (xy -4.780690 0.458288) (xy -4.868491 0.509895) (xy -4.957692 0.535051) (xy -5.044317 0.535532)
     (xy -5.124391 0.513115) (xy -5.193942 0.469576) (xy -5.248993 0.406693) (xy -5.285570 0.326241) (xy -5.299700 0.229997) (xy -5.299740 0.226265) (xy -5.298707 0.217543) (xy -4.478382 0.217543)
     (xy -4.475178 0.318711) (xy -4.463553 0.398617) (xy -4.440484 0.465515) (xy -4.402952 0.527658) (xy -4.347935 0.593300) (xy -4.336278 0.605768) (xy -4.237870 0.688105) (xy -4.119758 0.747835)
     (xy -3.981919 0.784969) (xy -3.923273 0.793278) (xy -3.901561 0.791868) (xy -3.859738 0.786559) (xy -3.812097 0.779325) (xy -3.760091 0.765150) (xy -3.120615 0.765150) (xy -2.820556 0.765150)
     (xy -2.820556 0.165032) (xy -2.265446 0.165032) (xy -2.265446 0.042286) (xy -1.890373 0.042286) (xy -1.889850 0.175869) (xy -1.887868 0.283534) (xy -1.883804 0.369358) (xy -1.877034 0.437417)
     (xy -1.866938 0.491786) (xy -1.852892 0.536543) (xy -1.834274 0.575764) (xy -1.810461 0.613525) (xy -1.801135 0.626666) (xy -1.730993 0.699047) (xy -1.643499 0.750504) (xy -1.543761 0.780011)
     (xy -1.436885 0.786543) (xy -1.327978 0.769073) (xy -1.245246 0.738288) (xy -1.199673 0.716574) (xy -1.165255 0.700069) (xy -1.151477 0.693356) (xy -1.143214 0.701674) (xy -1.140225 0.726393)
     (xy -1.140225 0.765150) (xy -0.855169 0.765150) (xy -0.855169 0.642810) (xy -0.721937 0.642810) (xy -0.657277 0.680105) (xy -0.534142 0.736225) (xy -0.398740 0.772042) (xy -0.258679 0.786803)
     (xy -0.121570 0.779756) (xy -0.059143 0.765150) (xy 0.420082 0.765150) (xy 0.705138 0.765150) (xy 0.705138 0.217773) (xy 0.892675 0.217773) (xy 0.893441 0.289350) (xy 0.897017 0.340744)
     (xy 0.905320 0.381765) (xy 0.920270 0.422223) (xy 0.941434 0.467161) (xy 1.010866 0.575730) (xy 1.101523 0.664657) (xy 1.210005 0.730611) (xy 1.210464 0.730821) (xy 1.312519 0.768257)
     (xy 1.414833 0.785206) (xy 1.525360 0.782259) (xy 1.625862 0.765150) (xy 2.235440 0.765150) (xy 2.520496 0.765150) (xy 2.520496 0.005614) (xy 2.561754 -0.033746) (xy 2.628801 -0.079921)
     (xy 2.704179 -0.102983) (xy 2.781358 -0.103473) (xy 2.853806 -0.081929) (xy 2.914990 -0.038893) (xy 2.944093 -0.002154) (xy 2.954870 0.016522) (xy 2.963175 0.036247) (xy 2.969399 0.061155)
     (xy 2.973935 0.095379) (xy 2.977173 0.143052) (xy 2.979504 0.208306) (xy 2.981322 0.295275) (xy 2.983016 0.408092) (xy 2.983027 0.408830) (xy 2.987967 0.765150) (xy 3.273219 0.765150)
     (xy 3.930773 0.765150) (xy 4.230832 0.765150) (xy 4.230832 0.165032) (xy 4.920968 0.165032) (xy 4.920968 0.765150) (xy 5.221027 0.765150) (xy 5.221027 -0.301959) (xy 5.416066 -0.301959)
     (xy 5.554843 -0.360068) (xy 5.693620 -0.418178) (xy 5.701466 0.765150) (xy 5.986178 0.765150) (xy 5.986178 0.041507) (xy 6.185997 0.041507) (xy 6.192048 0.158344) (xy 6.207390 0.265103)
     (xy 6.222725 0.325719) (xy 6.278178 0.457785) (xy 6.353917 0.570329) (xy 6.447240 0.661658) (xy 6.555446 0.730081) (xy 6.675832 0.773907) (xy 6.805698 0.791443) (xy 6.942343 0.780997)
     (xy 6.948070 0.779944) (xy 7.074218 0.741530) (xy 7.186969 0.677531) (xy 7.284128 0.590196) (xy 7.363501 0.481775) (xy 7.422893 0.354520) (xy 7.448882 0.266456) (xy 7.459101 0.206928)
     (xy 7.466825 0.131111) (xy 7.470771 0.052698) (xy 7.471027 0.030006) (xy 7.459227 -0.138414) (xy 7.423889 -0.288697) (xy 7.365110 -0.420578) (xy 7.282983 -0.533794) (xy 7.260051 -0.557916)
     (xy 7.161077 -0.636548) (xy 7.048017 -0.691651) (xy 6.925759 -0.722942) (xy 6.799190 -0.730136) (xy 6.673198 -0.712951) (xy 6.552671 -0.671104) (xy 6.443707 -0.605239) (xy 6.373391 -0.537481)
     (xy 6.307686 -0.447755) (xy 6.251914 -0.344089) (xy 6.223466 -0.272911) (xy 6.201718 -0.183777) (xy 6.189224 -0.075752) (xy 6.185997 0.041507) (xy 5.986178 0.041507) (xy 5.986178 -0.705139)
     (xy 5.892409 -0.705195) (xy 5.847552 -0.703309) (xy 5.803013 -0.696340) (xy 5.751782 -0.682404) (xy 5.686850 -0.659614) (xy 5.607353 -0.628554) (xy 5.416066 -0.551858) (xy 5.416066 -0.301959)
     (xy 5.221027 -0.301959) (xy 5.221027 -0.705139) (xy 4.920968 -0.705139) (xy 4.920968 -0.104457) (xy 4.579651 -0.108490) (xy 4.238334 -0.112522) (xy 4.234266 -0.408831) (xy 4.230198 -0.705139)
     (xy 3.930773 -0.705139) (xy 3.930773 0.765150) (xy 3.273219 0.765150) (xy 3.268052 0.371323) (xy 3.266356 0.251540) (xy 3.264556 0.157688) (xy 3.262310 0.085694) (xy 3.259273 0.031484)
     (xy 3.255102 -0.009015) (xy 3.249453 -0.039877) (xy 3.241981 -0.065176) (xy 3.232345 -0.088984) (xy 3.228488 -0.097519) (xy 3.170811 -0.194707) (xy 3.097759 -0.266593) (xy 3.007701 -0.314275)
     (xy 2.899009 -0.338847) (xy 2.865564 -0.341704) (xy 2.757671 -0.341054) (xy 2.668711 -0.323882) (xy 2.591612 -0.288638) (xy 2.575064 -0.277983) (xy 2.520496 -0.240952) (xy 2.520496 -0.330065)
     (xy 2.235440 -0.330065) (xy 2.235440 0.765150) (xy 1.625862 0.765150) (xy 1.639901 0.762760) (xy 1.705323 0.739577) (xy 1.778885 0.700291) (xy 1.849703 0.651855) (xy 1.906893 0.601222)
     (xy 1.924015 0.581258) (xy 1.992780 0.468622) (xy 2.034372 0.350263) (xy 2.049627 0.229906) (xy 2.039385 0.111273) (xy 2.004483 -0.001912) (xy 1.945760 -0.105926) (xy 1.864053 -0.197044)
     (xy 1.760202 -0.271543) (xy 1.728231 -0.288445) (xy 1.682112 -0.310239) (xy 1.644112 -0.324414) (xy 1.605436 -0.332600) (xy 1.557286 -0.336428) (xy 1.490868 -0.337526) (xy 1.463103 -0.337567)
     (xy 1.387886 -0.336935) (xy 1.334080 -0.334053) (xy 1.293101 -0.327434) (xy 1.256365 -0.315597) (xy 1.215286 -0.297057) (xy 1.207929 -0.293464) (xy 1.109302 -0.231238) (xy 1.021636 -0.149497)
     (xy 0.952902 -0.056210) (xy 0.933006 -0.018541) (xy 0.913766 0.026233) (xy 0.901764 0.067076) (xy 0.895362 0.113585) (xy 0.892922 0.175358) (xy 0.892675 0.217773) (xy 0.705138 0.217773)
     (xy 0.705138 -0.330065) (xy 0.420082 -0.330065) (xy 0.420082 0.765150) (xy -0.059143 0.765150) (xy 0.004980 0.750147) (xy 0.014935 0.746592) (xy 0.103784 0.701045) (xy 0.175801 0.638409)
     (xy 0.228071 0.563403) (xy 0.257682 0.480748) (xy 0.261719 0.395163) (xy 0.254731 0.358123) (xy 0.229779 0.289766) (xy 0.192892 0.234782) (xy 0.140515 0.190946) (xy 0.069095 0.156036)
     (xy -0.024924 0.127828) (xy -0.145097 0.104099) (xy -0.153598 0.102707) (xy -0.247671 0.086512) (xy -0.316395 0.071847) (xy -0.364247 0.056958) (xy -0.395705 0.040094) (xy -0.415244 0.019500)
     (xy -0.426515 -0.004166) (xy -0.433106 -0.035832) (xy -0.422697 -0.061814) (xy -0.401583 -0.085332) (xy -0.351916 -0.115506) (xy -0.283246 -0.130317) (xy -0.202101 -0.130169) (xy -0.115009 -0.115465)
     (xy -0.028497 -0.086608) (xy 0.027112 -0.058850) (xy 0.060237 -0.040310) (xy 0.080202 -0.030481) (xy 0.081966 -0.030006) (xy 0.093158 -0.041251) (xy 0.115372 -0.069842) (xy 0.143132 -0.108061)
     (xy 0.170960 -0.148192) (xy 0.193380 -0.182518) (xy 0.204841 -0.203129) (xy 0.197047 -0.221640) (xy 0.165767 -0.245230) (xy 0.116469 -0.271091) (xy 0.054618 -0.296420) (xy -0.014319 -0.318411)
     (xy -0.025742 -0.321459) (xy -0.135264 -0.339943) (xy -0.254339 -0.343566) (xy -0.369004 -0.332384) (xy -0.425813 -0.319755) (xy -0.496342 -0.293418) (xy -0.555822 -0.253885) (xy -0.586681 -0.225987)
     (xy -0.647048 -0.153793) (xy -0.679323 -0.078868) (xy -0.685293 0.004325) (xy -0.677784 0.056718) (xy -0.656494 0.128827) (xy -0.623147 0.186894) (xy -0.574334 0.233191) (xy -0.506648 0.269992)
     (xy -0.416679 0.299570) (xy -0.301020 0.324198) (xy -0.268491 0.329718) (xy -0.164437 0.349122) (xy -0.088083 0.369572) (xy -0.037129 0.392505) (xy -0.009273 0.419361) (xy -0.002212 0.451578)
     (xy -0.013065 0.489332) (xy -0.046935 0.529407) (xy -0.102424 0.556021) (xy -0.174237 0.568986) (xy -0.257081 0.568110) (xy -0.345662 0.553203) (xy -0.434685 0.524075) (xy -0.474187 0.505919)
     (xy -0.580801 0.451884) (xy -0.615630 0.499746) (xy -0.649924 0.546446) (xy -0.684950 0.593545) (xy -0.686198 0.595209) (xy -0.721937 0.642810) (xy -0.855169 0.642810) (xy -0.855169 -0.330065)
     (xy -1.140225 -0.330065) (xy -1.140225 0.429472) (xy -1.181483 0.468831) (xy -1.248517 0.514832) (xy -1.324591 0.538157) (xy -1.402996 0.539299) (xy -1.477021 0.518751) (xy -1.539954 0.477005)
     (xy -1.570745 0.440259) (xy -1.579379 0.424186) (xy -1.586110 0.402909) (xy -1.591243 0.372546) (xy -1.595083 0.329211) (xy -1.597933 0.269019) (xy -1.600098 0.188088) (xy -1.601882 0.082531)
     (xy -1.602532 0.034463) (xy -1.607248 -0.330065) (xy -1.890373 -0.330065) (xy -1.890373 0.042286) (xy -2.265446 0.042286) (xy -2.265446 -0.090018) (xy -2.820556 -0.090018) (xy -2.820556 -0.450089)
     (xy -1.980390 -0.450089) (xy -1.980390 -0.629174) (xy 0.396127 -0.629174) (xy 0.406687 -0.570366) (xy 0.439098 -0.518907) (xy 0.469659 -0.494436) (xy 0.530158 -0.468927) (xy 0.588194 -0.470949)
     (xy 0.630615 -0.487850) (xy 0.676203 -0.525736) (xy 0.708663 -0.579577) (xy 0.720085 -0.633130) (xy 0.706573 -0.693311) (xy 0.670638 -0.741771) (xy 0.618866 -0.774458) (xy 0.557845 -0.787319)
     (xy 0.494162 -0.776299) (xy 0.490085 -0.774659) (xy 0.438373 -0.738825) (xy 0.406872 -0.687829) (xy 0.396127 -0.629174) (xy -1.980390 -0.629174) (xy -1.980390 -0.705139) (xy -3.120615 -0.705139)
     (xy -3.120615 0.765150) (xy -3.760091 0.765150) (xy -3.683510 0.744277) (xy -3.569994 0.683286) (xy -3.479612 0.605081) (xy -3.399418 0.500518) (xy -3.347792 0.387041) (xy -3.324990 0.265547)
     (xy -3.331270 0.136935) (xy -3.336982 0.105828) (xy -3.377524 -0.019481) (xy -3.442860 -0.128299) (xy -3.531782 -0.219107) (xy -3.643080 -0.290385) (xy -3.658093 -0.297653) (xy -3.699843 -0.315750)
     (xy -3.737948 -0.327418) (xy -3.781008 -0.334028) (xy -3.837621 -0.336952) (xy -3.908270 -0.337567) (xy -3.984719 -0.336806) (xy -4.039780 -0.333610) (xy -4.082051 -0.326606) (xy -4.120132 -0.314422)
     (xy -4.158446 -0.297653) (xy -4.269629 -0.229247) (xy -4.363093 -0.137517) (xy -4.427515 -0.041290) (xy -4.449941 0.001551) (xy -4.464574 0.036585) (xy -4.473073 0.072261) (xy -4.477098 0.117027)
     (xy -4.478311 0.179331) (xy -4.478382 0.217543) (xy -5.298707 0.217543) (xy -5.288006 0.127227) (xy -5.253982 0.042536) (xy -5.201339 -0.025209) (xy -5.133749 -0.073408) (xy -5.054884 -0.099460)
     (xy -4.968417 -0.100766) (xy -4.878018 -0.074725) (xy -4.875960 -0.073801) (xy -4.826118 -0.047044) (xy -4.781376 -0.016260) (xy -4.769224 -0.005760) (xy -4.730000 0.031721) (xy -4.645276 -0.061903)
     (xy -4.560551 -0.155527) (xy -4.599810 -0.196504) (xy -4.633304 -0.224044) (xy -4.683311 -0.256790) (xy -4.738761 -0.287524) (xy -4.784659 -0.309695) (xy -4.822236 -0.324124) (xy -4.860252 -0.332467)
     (xy -4.907466 -0.336379) (xy -4.972638 -0.337517) (xy -5.003485 -0.337567) (xy -5.079542 -0.336845) (xy -5.134413 -0.333711) (xy -5.176904 -0.326711) (xy -5.215822 -0.314392) (xy -5.259972 -0.295301)
     (xy -5.260192 -0.295200) (xy -5.360372 -0.233780) (xy -5.449595 -0.149678) (xy -5.520606 -0.049984) (xy -5.531369 -0.030006) (xy -5.550276 0.009425) (xy -5.562531 0.044532) (xy -5.569554 0.083648)
     (xy -5.572767 0.135105) (xy -5.573592 0.207237) (xy -5.573598 0.217543) (xy -5.761135 0.217543) (xy -5.761135 -0.330065) (xy -6.046191 -0.330065) (xy -6.046191 0.765150) (xy -7.171412 0.765150)
     (xy -7.171412 0.212802) (xy -6.882605 0.207624) (xy -6.781738 0.205624) (xy -6.705670 0.203333) (xy -6.649196 0.200124) (xy -6.607112 0.195372) (xy -6.574212 0.188451) (xy -6.545292 0.178736)
     (xy -6.515148 0.165602) (xy -6.508951 0.162714) (xy -6.412559 0.103005) (xy -6.337624 0.026959) (xy -6.284227 -0.061244) (xy -6.252451 -0.157423) (xy -6.242378 -0.257400) (xy -6.254090 -0.356994)
     (xy -6.287668 -0.452026) (xy -6.343194 -0.538316) (xy -6.420751 -0.611684) (xy -6.492226 -0.655047) (xy -6.072366 -0.655047) (xy -6.070337 -0.596994) (xy -6.053504 -0.554745) (xy -6.011437 -0.502405)
     (xy -5.955314 -0.473606) (xy -5.891697 -0.470082) (xy -5.827146 -0.493572) (xy -5.825714 -0.494436) (xy -5.779774 -0.537775) (xy -5.756016 -0.593018) (xy -5.753894 -0.652661) (xy -5.772862 -0.709200)
     (xy -5.812372 -0.755133) (xy -5.846140 -0.774659) (xy -5.913205 -0.788689) (xy -5.976325 -0.776425) (xy -6.028475 -0.739935) (xy -6.046852 -0.715574) (xy -6.072366 -0.655047) (xy -6.492226 -0.655047)
     (xy -6.492915 -0.655465) (xy -6.578796 -0.697637) (xy -7.025133 -0.702210) (xy -7.471471 -0.706783) (xy -7.943534 -0.706783) (xy -7.806512 -1.117720) (xy 0.373601 -1.121485) (xy 0.966258 -1.121754)
     (xy 1.529647 -1.122003) (xy 2.064506 -1.122229) (xy 2.571574 -1.122430) (xy 3.051588 -1.122603) (xy 3.505286 -1.122748) (xy 3.933406 -1.122861) (xy 4.336687 -1.122942) (xy 4.715867 -1.122987)
     (xy 5.071682 -1.122995) )(layer F.SilkS) (width  0.000000)
  )
  (fp_poly (pts (xy -3.846750 -0.097203) (xy -3.776662 -0.070095) (xy -3.714059 -0.026729) (xy -3.662238 0.030421) (xy -3.624496 0.098882) (xy -3.604131 0.176182) (xy -3.604439 0.259846) (xy -3.628717 0.347402)
     (xy -3.642483 0.376596) (xy -3.696510 0.450236) (xy -3.767501 0.502829) (xy -3.849658 0.532340) (xy -3.937183 0.536733) (xy -4.024276 0.513971) (xy -4.028422 0.512126) (xy -4.106915 0.461440)
     (xy -4.164707 0.393249) (xy -4.200686 0.312777) (xy -4.213741 0.225249) (xy -4.202761 0.135888) (xy -4.166635 0.049918) (xy -4.136004 0.006408) (xy -4.068950 -0.056248) (xy -3.996191 -0.092752)
     (xy -3.921026 -0.105580) )(layer F.SilkS) (width  0.000000)
  )
  (fp_poly (pts (xy 1.536763 -0.093019) (xy 1.611965 -0.061595) (xy 1.677030 -0.010293) (xy 1.727805 0.058532) (xy 1.760132 0.142526) (xy 1.770019 0.226435) (xy 1.757134 0.321727) (xy 1.719910 0.403944)
     (xy 1.661678 0.469416) (xy 1.585770 0.514474) (xy 1.495517 0.535447) (xy 1.489120 0.535896) (xy 1.413853 0.534122) (xy 1.351417 0.516874) (xy 1.341703 0.512541) (xy 1.265798 0.461991)
     (xy 1.210170 0.394310) (xy 1.175305 0.314920) (xy 1.161685 0.229243) (xy 1.169798 0.142702) (xy 1.200126 0.060717) (xy 1.253155 -0.011289) (xy 1.291899 -0.044477) (xy 1.372575 -0.086814)
     (xy 1.455582 -0.102210) )(layer F.SilkS) (width  0.000000)
  )
  (fp_poly (pts (xy 6.888775 -0.476050) (xy 6.974906 -0.448405) (xy 7.051697 -0.396247) (xy 7.076233 -0.371157) (xy 7.126543 -0.301578) (xy 7.161426 -0.222482) (xy 7.182510 -0.128230) (xy 7.191422 -0.013181)
     (xy 7.191969 0.030006) (xy 7.187642 0.146023) (xy 7.173360 0.239951) (xy 7.147176 0.318622) (xy 7.107138 0.388865) (xy 7.079009 0.425771) (xy 7.010241 0.486812) (xy 6.926806 0.525677)
     (xy 6.835655 0.540998) (xy 6.743736 0.531410) (xy 6.674923 0.505207) (xy 6.594112 0.445936) (xy 6.532000 0.363666) (xy 6.488916 0.259122) (xy 6.465186 0.133026) (xy 6.460266 0.030006)
     (xy 6.467987 -0.102348) (xy 6.491415 -0.212405) (xy 6.531578 -0.304038) (xy 6.560170 -0.346679) (xy 6.629002 -0.414496) (xy 6.710357 -0.458836) (xy 6.798770 -0.479441) )(layer F.SilkS) (width  0.000000)
  )
  (fp_poly (pts (xy -6.942617 -0.450065) (xy -6.837421 -0.448831) (xy -6.757296 -0.444327) (xy -6.697377 -0.435317) (xy -6.652800 -0.420564) (xy -6.618698 -0.398832) (xy -6.590207 -0.368883) (xy -6.582290 -0.358472)
     (xy -6.559364 -0.305413) (xy -6.553133 -0.239818) (xy -6.563752 -0.174187) (xy -6.579549 -0.137791) (xy -6.602079 -0.105556) (xy -6.629254 -0.081626) (xy -6.665634 -0.064818) (xy -6.715777 -0.053950)
     (xy -6.784244 -0.047840) (xy -6.875593 -0.045307) (xy -6.937383 -0.045009) (xy -7.171412 -0.045009) (xy -7.171412 -0.450089) )(layer F.SilkS) (width  0.000000)
  )
)
