(footprint "LOGO" (version 20210606) (generator bitmap2component) (layer "F.Cu")
  (at 0 0)
(attr board_only exclude_from_pos_files exclude_from_bom)
 (fp_text reference "G***" (at 0 0) (layer F.SilkS)
  (effects (font (thickness 0.3)))
  )
  (fp_text value "LOGO" (at 0.75 0) (layer F.SilkS) hide
  (effects (font (thickness 0.3)))
  )
  (fp_poly (pts (xy -9.567500 -0.468056) (xy -9.483379 -0.467144) (xy -9.416712 -0.466222) (xy -9.364955 -0.465077) (xy -9.325563 -0.463495) (xy -9.295991 -0.461263) (xy -9.273696 -0.458167) (xy -9.256133 -0.453992)
     (xy -9.240757 -0.448527) (xy -9.225023 -0.441556) (xy -9.219136 -0.438802) (xy -9.155026 -0.399506) (xy -9.102801 -0.348613) (xy -9.066785 -0.290894) (xy -9.051121 -0.238582) (xy -9.044973 -0.177652)
     (xy -9.048356 -0.116125) (xy -9.061287 -0.062024) (xy -9.066291 -0.050000) (xy -9.093282 -0.005973) (xy -9.130615 0.037293) (xy -9.171727 0.072801) (xy -9.195000 0.087229) (xy -9.216387 0.098509)
     (xy -9.228286 0.105468) (xy -9.228657 0.105761) (xy -9.225467 0.115766) (xy -9.212974 0.142378) (xy -9.191621 0.184739) (xy -9.161850 0.241989) (xy -9.124104 0.313272) (xy -9.078826 0.397728)
     (xy -9.062762 0.427500) (xy -9.018186 0.510000) (xy -9.131593 0.509758) (xy -9.245000 0.509517) (xy -9.341287 0.322258) (xy -9.437573 0.135000) (xy -9.655000 0.135000) (xy -9.660442 0.510000)
     (xy -9.860000 0.510000) (xy -9.860000 -0.300000) (xy -9.660000 -0.300000) (xy -9.660000 -0.030000) (xy -9.512500 -0.030220) (xy -9.451513 -0.030715) (xy -9.406556 -0.032258) (xy -9.373670 -0.035252)
     (xy -9.348896 -0.040097) (xy -9.328275 -0.047196) (xy -9.323164 -0.049434) (xy -9.282388 -0.077660) (xy -9.257784 -0.117465) (xy -9.250000 -0.165000) (xy -9.258630 -0.214813) (xy -9.284070 -0.254057)
     (xy -9.323164 -0.280567) (xy -9.343357 -0.288310) (xy -9.366686 -0.293697) (xy -9.397109 -0.297128) (xy -9.438585 -0.299005) (xy -9.495073 -0.299731) (xy -9.512500 -0.299781) (xy -9.660000 -0.300000)
     (xy -9.860000 -0.300000) (xy -9.860000 -0.471111) )(layer F.SilkS) (width  0.000000)
  )
  (fp_poly (pts (xy -8.546136 -0.485301) (xy -8.461463 -0.468303) (xy -8.390060 -0.438347) (xy -8.332922 -0.396382) (xy -8.291047 -0.343355) (xy -8.265430 -0.280214) (xy -8.257059 -0.210416) (xy -8.258249 -0.173439)
     (xy -8.262777 -0.140263) (xy -8.272082 -0.108652) (xy -8.287606 -0.076367) (xy -8.310786 -0.041174) (xy -8.343062 -0.000833) (xy -8.385875 0.046891) (xy -8.440662 0.104237) (xy -8.495178 0.159650)
     (xy -8.544630 0.209794) (xy -8.589089 0.255362) (xy -8.626704 0.294418) (xy -8.655624 0.325025) (xy -8.673998 0.345245) (xy -8.680000 0.353054) (xy -8.670476 0.355071) (xy -8.643807 0.356859)
     (xy -8.602847 0.358326) (xy -8.550450 0.359382) (xy -8.489470 0.359937) (xy -8.460000 0.360000) (xy -8.240000 0.360000) (xy -8.240000 0.510000) (xy -8.920000 0.510000) (xy -8.920000 0.375953)
     (xy -8.701769 0.155476) (xy -8.646534 0.099230) (xy -8.595042 0.045954) (xy -8.549232 -0.002280) (xy -8.511044 -0.043400) (xy -8.482417 -0.075334) (xy -8.465290 -0.096010) (xy -8.462213 -0.100462)
     (xy -8.439622 -0.153069) (xy -8.434809 -0.203701) (xy -8.447247 -0.249507) (xy -8.476410 -0.287636) (xy -8.500000 -0.304660) (xy -8.528077 -0.316994) (xy -8.562313 -0.323093) (xy -8.605000 -0.324335)
     (xy -8.662646 -0.319166) (xy -8.714332 -0.303268) (xy -8.765986 -0.274272) (xy -8.806952 -0.243574) (xy -8.848904 -0.209560) (xy -8.900724 -0.271827) (xy -8.952543 -0.334094) (xy -8.913772 -0.366903)
     (xy -8.846722 -0.413320) (xy -8.769158 -0.449983) (xy -8.686780 -0.475055) (xy -8.605288 -0.486703) )(layer F.SilkS) (width  0.000000)
  )
)
