(kicad_symbol_lib (version 20211014) (generator kicad_symbol_editor)
  (symbol "74LVC1T45GS" (in_bom yes) (on_board yes)
    (property "Reference" "U" (id 0) (at 6.35 -7.62 0)
      (effects (font (size 1.27 1.27)))
    )
    (property "Value" "74LVC1T45GS" (id 1) (at 7.62 -10.16 0)
      (effects (font (size 1.27 1.27)))
    )
    (property "Footprint" "74LVC1T45:PSON35P100X100X35-6N" (id 2) (at 0 11.43 0)
      (effects (font (size 1.27 1.27)) hide)
    )
    (property "Datasheet" "" (id 3) (at 0 11.43 0)
      (effects (font (size 1.27 1.27)) hide)
    )
    (symbol "74LVC1T45GS_0_1"
      (rectangle (start -5.08 7.62) (end 5.08 -7.62)
        (stroke (width 0) (type default) (color 0 0 0 0))
        (fill (type background))
      )
    )
    (symbol "74LVC1T45GS_1_1"
      (pin power_in line (at -1.27 10.16 270) (length 2.54)
        (name "VCCA" (effects (font (size 1.27 1.27))))
        (number "1" (effects (font (size 1.27 1.27))))
      )
      (pin power_in line (at 0 -10.16 90) (length 2.54)
        (name "GND" (effects (font (size 1.27 1.27))))
        (number "2" (effects (font (size 1.27 1.27))))
      )
      (pin bidirectional line (at -7.62 0 0) (length 2.54)
        (name "A" (effects (font (size 1.27 1.27))))
        (number "3" (effects (font (size 1.27 1.27))))
      )
      (pin bidirectional line (at 7.62 0 180) (length 2.54)
        (name "B" (effects (font (size 1.27 1.27))))
        (number "4" (effects (font (size 1.27 1.27))))
      )
      (pin input line (at -7.62 -2.54 0) (length 2.54)
        (name "DIR" (effects (font (size 1.27 1.27))))
        (number "5" (effects (font (size 1.27 1.27))))
      )
      (pin power_in line (at 1.27 10.16 270) (length 2.54)
        (name "VCCB" (effects (font (size 1.27 1.27))))
        (number "6" (effects (font (size 1.27 1.27))))
      )
    )
  )
)
