(kicad_symbol_lib (version 20211014) (generator kicad_symbol_editor)
  (symbol "picofusion-H10" (in_bom yes) (on_board yes)
    (property "Reference" "U" (id 0) (at 0 -1.27 0)
      (effects (font (size 1.27 1.27)))
    )
    (property "Value" "picofusion-H10" (id 1) (at 0 1.27 0)
      (effects (font (size 1.27 1.27)))
    )
    (property "Footprint" "" (id 2) (at 0 0 0)
      (effects (font (size 1.27 1.27)) hide)
    )
    (property "Datasheet" "" (id 3) (at 0 0 0)
      (effects (font (size 1.27 1.27)) hide)
    )
    (symbol "picofusion-H10_0_1"
      (rectangle (start -16.51 24.13) (end 16.51 -24.13)
        (stroke (width 0.1524) (type default) (color 0 0 0 0))
        (fill (type none))
      )
    )
    (symbol "picofusion-H10_1_1"
      (pin input line (at -19.05 19.05 0) (length 2.54)
        (name "SPI0-nCS" (effects (font (size 1.27 1.27))))
        (number "1" (effects (font (size 1.27 1.27))))
      )
      (pin power_in line (at 0 26.67 270) (length 2.54)
        (name "3V3" (effects (font (size 1.27 1.27))))
        (number "10" (effects (font (size 1.27 1.27))))
      )
      (pin input line (at -19.05 0 0) (length 2.54)
        (name "LED" (effects (font (size 1.27 1.27))))
        (number "11" (effects (font (size 1.27 1.27))))
      )
      (pin input line (at -19.05 -2.54 0) (length 2.54)
        (name "IMU_HEATER" (effects (font (size 1.27 1.27))))
        (number "12" (effects (font (size 1.27 1.27))))
      )
      (pin input line (at -19.05 -5.08 0) (length 2.54)
        (name "BUZZER" (effects (font (size 1.27 1.27))))
        (number "13" (effects (font (size 1.27 1.27))))
      )
      (pin input line (at -19.05 -7.62 0) (length 2.54)
        (name "UART0_TX_TELEM" (effects (font (size 1.27 1.27))))
        (number "14" (effects (font (size 1.27 1.27))))
      )
      (pin input line (at -19.05 -10.16 0) (length 2.54)
        (name "UART0_RX_TELEM" (effects (font (size 1.27 1.27))))
        (number "15" (effects (font (size 1.27 1.27))))
      )
      (pin input line (at -19.05 -16.51 0) (length 2.54)
        (name "UART0_CTS_TELEM" (effects (font (size 1.27 1.27))))
        (number "16" (effects (font (size 1.27 1.27))))
      )
      (pin input line (at -19.05 -13.97 0) (length 2.54)
        (name "UART0_CTS_TELEM" (effects (font (size 1.27 1.27))))
        (number "17" (effects (font (size 1.27 1.27))))
      )
      (pin power_in line (at -2.54 -26.67 90) (length 2.54)
        (name "GND" (effects (font (size 1.27 1.27))))
        (number "18" (effects (font (size 1.27 1.27))))
      )
      (pin input line (at 19.05 17.78 180) (length 2.54)
        (name "SWCLK" (effects (font (size 1.27 1.27))))
        (number "19" (effects (font (size 1.27 1.27))))
      )
      (pin input line (at -19.05 16.51 0) (length 2.54)
        (name "SPI0_SCK" (effects (font (size 1.27 1.27))))
        (number "2" (effects (font (size 1.27 1.27))))
      )
      (pin input line (at 19.05 15.24 180) (length 2.54)
        (name "SWDIO" (effects (font (size 1.27 1.27))))
        (number "20" (effects (font (size 1.27 1.27))))
      )
      (pin input line (at 19.05 11.43 180) (length 2.54)
        (name "BOOTSEL" (effects (font (size 1.27 1.27))))
        (number "21" (effects (font (size 1.27 1.27))))
      )
      (pin input line (at 19.05 8.89 180) (length 2.54)
        (name "RUN" (effects (font (size 1.27 1.27))))
        (number "22" (effects (font (size 1.27 1.27))))
      )
      (pin input line (at 19.05 6.35 180) (length 2.54)
        (name "UART1_TX_GNSS" (effects (font (size 1.27 1.27))))
        (number "23" (effects (font (size 1.27 1.27))))
      )
      (pin input line (at 19.05 3.81 180) (length 2.54)
        (name "UART1_RX_GNSS" (effects (font (size 1.27 1.27))))
        (number "24" (effects (font (size 1.27 1.27))))
      )
      (pin power_in line (at 0 -26.67 90) (length 2.54)
        (name "GND" (effects (font (size 1.27 1.27))))
        (number "25" (effects (font (size 1.27 1.27))))
      )
      (pin input line (at 19.05 0 180) (length 2.54)
        (name "SD_nCD" (effects (font (size 1.27 1.27))))
        (number "26" (effects (font (size 1.27 1.27))))
      )
      (pin input line (at 19.05 -2.54 180) (length 2.54)
        (name "SPI1_nCS_SD" (effects (font (size 1.27 1.27))))
        (number "27" (effects (font (size 1.27 1.27))))
      )
      (pin input line (at 19.05 -5.08 180) (length 2.54)
        (name "SPI1_PICO_SD" (effects (font (size 1.27 1.27))))
        (number "28" (effects (font (size 1.27 1.27))))
      )
      (pin input line (at 19.05 -7.62 180) (length 2.54)
        (name "SPI1_POCI_SD" (effects (font (size 1.27 1.27))))
        (number "29" (effects (font (size 1.27 1.27))))
      )
      (pin input line (at -19.05 13.97 0) (length 2.54)
        (name "SPI0-PICO" (effects (font (size 1.27 1.27))))
        (number "3" (effects (font (size 1.27 1.27))))
      )
      (pin input line (at 19.05 -10.16 180) (length 2.54)
        (name "SPI1_SCK_SD" (effects (font (size 1.27 1.27))))
        (number "30" (effects (font (size 1.27 1.27))))
      )
      (pin power_in line (at 2.54 -26.67 90) (length 2.54)
        (name "GND" (effects (font (size 1.27 1.27))))
        (number "31" (effects (font (size 1.27 1.27))))
      )
      (pin power_in line (at 2.54 26.67 270) (length 2.54)
        (name "5V" (effects (font (size 1.27 1.27))))
        (number "32" (effects (font (size 1.27 1.27))))
      )
      (pin power_in line (at 5.08 -26.67 90) (length 2.54)
        (name "GND" (effects (font (size 1.27 1.27))))
        (number "33" (effects (font (size 1.27 1.27))))
      )
      (pin input line (at 19.05 -13.97 180) (length 2.54)
        (name "USB_DN" (effects (font (size 1.27 1.27))))
        (number "34" (effects (font (size 1.27 1.27))))
      )
      (pin input line (at 19.05 -16.51 180) (length 2.54)
        (name "USB_DP" (effects (font (size 1.27 1.27))))
        (number "35" (effects (font (size 1.27 1.27))))
      )
      (pin input line (at -19.05 11.43 0) (length 2.54)
        (name "SPI0-POCI" (effects (font (size 1.27 1.27))))
        (number "4" (effects (font (size 1.27 1.27))))
      )
      (pin input line (at -19.05 7.62 0) (length 2.54)
        (name "DRDY_ICM42605" (effects (font (size 1.27 1.27))))
        (number "5" (effects (font (size 1.27 1.27))))
      )
      (pin power_in line (at -2.54 26.67 270) (length 2.54)
        (name "5V" (effects (font (size 1.27 1.27))))
        (number "6" (effects (font (size 1.27 1.27))))
      )
      (pin input line (at -19.05 5.08 0) (length 2.54)
        (name "CAN_N" (effects (font (size 1.27 1.27))))
        (number "7" (effects (font (size 1.27 1.27))))
      )
      (pin input line (at -19.05 2.54 0) (length 2.54)
        (name "CAN_P" (effects (font (size 1.27 1.27))))
        (number "8" (effects (font (size 1.27 1.27))))
      )
      (pin power_in line (at -5.08 -26.67 90) (length 2.54)
        (name "GND" (effects (font (size 1.27 1.27))))
        (number "9" (effects (font (size 1.27 1.27))))
      )
    )
  )
  (symbol "picofusion-H10-PCB_STD" (in_bom yes) (on_board yes)
    (property "Reference" "U" (id 0) (at 0 1.27 0)
      (effects (font (size 1.27 1.27)))
    )
    (property "Value" "picofusion-H10-PCB_STD" (id 1) (at 0 -1.27 0)
      (effects (font (size 1.27 1.27)))
    )
    (property "Footprint" "" (id 2) (at 0 0 0)
      (effects (font (size 1.27 1.27)) hide)
    )
    (property "Datasheet" "" (id 3) (at 0 0 0)
      (effects (font (size 1.27 1.27)) hide)
    )
    (symbol "picofusion-H10-PCB_STD_0_1"
      (rectangle (start -21.59 21.59) (end 21.59 -21.59)
        (stroke (width 0.1524) (type default) (color 0 0 0 0))
        (fill (type none))
      )
    )
    (symbol "picofusion-H10-PCB_STD_1_1"
      (pin input line (at -24.13 11.43 0) (length 2.54)
        (name "SPI0-nCS" (effects (font (size 1.27 1.27))))
        (number "1" (effects (font (size 1.27 1.27))))
      )
      (pin power_in line (at -24.13 -11.43 0) (length 2.54)
        (name "3V3" (effects (font (size 1.27 1.27))))
        (number "10" (effects (font (size 1.27 1.27))))
      )
      (pin input line (at -11.43 -24.13 90) (length 2.54)
        (name "LED" (effects (font (size 1.27 1.27))))
        (number "11" (effects (font (size 1.27 1.27))))
      )
      (pin input line (at -8.89 -24.13 90) (length 2.54)
        (name "IMU_HEATER" (effects (font (size 1.27 1.27))))
        (number "12" (effects (font (size 1.27 1.27))))
      )
      (pin input line (at -6.35 -24.13 90) (length 2.54)
        (name "BUZZER" (effects (font (size 1.27 1.27))))
        (number "13" (effects (font (size 1.27 1.27))))
      )
      (pin input line (at -3.81 -24.13 90) (length 2.54)
        (name "UART0_TX_TELEM" (effects (font (size 1.27 1.27))))
        (number "14" (effects (font (size 1.27 1.27))))
      )
      (pin input line (at -1.27 -24.13 90) (length 2.54)
        (name "UART0_RX_TELEM" (effects (font (size 1.27 1.27))))
        (number "15" (effects (font (size 1.27 1.27))))
      )
      (pin input line (at 1.27 -24.13 90) (length 2.54)
        (name "UART0_CTS_TELEM" (effects (font (size 1.27 1.27))))
        (number "16" (effects (font (size 1.27 1.27))))
      )
      (pin input line (at 3.81 -24.13 90) (length 2.54)
        (name "UART0_CTS_TELEM" (effects (font (size 1.27 1.27))))
        (number "17" (effects (font (size 1.27 1.27))))
      )
      (pin power_in line (at 6.35 -24.13 90) (length 2.54)
        (name "GND" (effects (font (size 1.27 1.27))))
        (number "18" (effects (font (size 1.27 1.27))))
      )
      (pin input line (at 8.89 -24.13 90) (length 2.54)
        (name "SWCLK" (effects (font (size 1.27 1.27))))
        (number "19" (effects (font (size 1.27 1.27))))
      )
      (pin input line (at -24.13 8.89 0) (length 2.54)
        (name "SPI0_SCK" (effects (font (size 1.27 1.27))))
        (number "2" (effects (font (size 1.27 1.27))))
      )
      (pin input line (at 11.43 -24.13 90) (length 2.54)
        (name "SWDIO" (effects (font (size 1.27 1.27))))
        (number "20" (effects (font (size 1.27 1.27))))
      )
      (pin input line (at 24.13 -11.43 180) (length 2.54)
        (name "BOOTSEL" (effects (font (size 1.27 1.27))))
        (number "21" (effects (font (size 1.27 1.27))))
      )
      (pin input line (at 24.13 -8.89 180) (length 2.54)
        (name "RUN" (effects (font (size 1.27 1.27))))
        (number "22" (effects (font (size 1.27 1.27))))
      )
      (pin input line (at 24.13 -6.35 180) (length 2.54)
        (name "UART1_TX_GNSS" (effects (font (size 1.27 1.27))))
        (number "23" (effects (font (size 1.27 1.27))))
      )
      (pin input line (at 24.13 -3.81 180) (length 2.54)
        (name "UART1_RX_GNSS" (effects (font (size 1.27 1.27))))
        (number "24" (effects (font (size 1.27 1.27))))
      )
      (pin power_in line (at 24.13 -1.27 180) (length 2.54)
        (name "GND" (effects (font (size 1.27 1.27))))
        (number "25" (effects (font (size 1.27 1.27))))
      )
      (pin input line (at 24.13 1.27 180) (length 2.54)
        (name "SD_nCD" (effects (font (size 1.27 1.27))))
        (number "26" (effects (font (size 1.27 1.27))))
      )
      (pin input line (at 24.13 3.81 180) (length 2.54)
        (name "SPI1_nCS_SD" (effects (font (size 1.27 1.27))))
        (number "27" (effects (font (size 1.27 1.27))))
      )
      (pin input line (at 24.13 6.35 180) (length 2.54)
        (name "SPI1_PICO_SD" (effects (font (size 1.27 1.27))))
        (number "28" (effects (font (size 1.27 1.27))))
      )
      (pin input line (at 24.13 8.89 180) (length 2.54)
        (name "SPI1_POCI_SD" (effects (font (size 1.27 1.27))))
        (number "29" (effects (font (size 1.27 1.27))))
      )
      (pin input line (at -24.13 6.35 0) (length 2.54)
        (name "SPI0-PICO" (effects (font (size 1.27 1.27))))
        (number "3" (effects (font (size 1.27 1.27))))
      )
      (pin input line (at 24.13 11.43 180) (length 2.54)
        (name "SPI1_SCK_SD" (effects (font (size 1.27 1.27))))
        (number "30" (effects (font (size 1.27 1.27))))
      )
      (pin power_in line (at 11.43 24.13 270) (length 2.54)
        (name "GND" (effects (font (size 1.27 1.27))))
        (number "31" (effects (font (size 1.27 1.27))))
      )
      (pin power_in line (at 8.89 24.13 270) (length 2.54)
        (name "5V" (effects (font (size 1.27 1.27))))
        (number "32" (effects (font (size 1.27 1.27))))
      )
      (pin power_in line (at 6.35 24.13 270) (length 2.54)
        (name "GND" (effects (font (size 1.27 1.27))))
        (number "33" (effects (font (size 1.27 1.27))))
      )
      (pin input line (at 3.81 24.13 270) (length 2.54)
        (name "USB_DN" (effects (font (size 1.27 1.27))))
        (number "34" (effects (font (size 1.27 1.27))))
      )
      (pin input line (at 1.27 24.13 270) (length 2.54)
        (name "USB_DP" (effects (font (size 1.27 1.27))))
        (number "35" (effects (font (size 1.27 1.27))))
      )
      (pin input line (at -1.27 24.13 270) (length 2.54)
        (name "X" (effects (font (size 1.27 1.27))))
        (number "36" (effects (font (size 1.27 1.27))))
      )
      (pin input line (at -3.81 24.13 270) (length 2.54)
        (name "X" (effects (font (size 1.27 1.27))))
        (number "37" (effects (font (size 1.27 1.27))))
      )
      (pin input line (at -6.35 24.13 270) (length 2.54)
        (name "X" (effects (font (size 1.27 1.27))))
        (number "38" (effects (font (size 1.27 1.27))))
      )
      (pin input line (at -8.89 24.13 270) (length 2.54)
        (name "X" (effects (font (size 1.27 1.27))))
        (number "39" (effects (font (size 1.27 1.27))))
      )
      (pin input line (at -24.13 3.81 0) (length 2.54)
        (name "SPI0-POCI" (effects (font (size 1.27 1.27))))
        (number "4" (effects (font (size 1.27 1.27))))
      )
      (pin input line (at -11.43 24.13 270) (length 2.54)
        (name "X" (effects (font (size 1.27 1.27))))
        (number "40" (effects (font (size 1.27 1.27))))
      )
      (pin input line (at -24.13 1.27 0) (length 2.54)
        (name "DRDY_ICM42605" (effects (font (size 1.27 1.27))))
        (number "5" (effects (font (size 1.27 1.27))))
      )
      (pin power_in line (at -24.13 -1.27 0) (length 2.54)
        (name "5V" (effects (font (size 1.27 1.27))))
        (number "6" (effects (font (size 1.27 1.27))))
      )
      (pin input line (at -24.13 -3.81 0) (length 2.54)
        (name "CAN_N" (effects (font (size 1.27 1.27))))
        (number "7" (effects (font (size 1.27 1.27))))
      )
      (pin input line (at -24.13 -6.35 0) (length 2.54)
        (name "CAN_P" (effects (font (size 1.27 1.27))))
        (number "8" (effects (font (size 1.27 1.27))))
      )
      (pin power_in line (at -24.13 -8.89 0) (length 2.54)
        (name "GND" (effects (font (size 1.27 1.27))))
        (number "9" (effects (font (size 1.27 1.27))))
      )
    )
  )
)
