(kicad_symbol_lib (version 20211014) (generator kicad_symbol_editor)
  (symbol "INA186" (pin_names (offset 0.127)) (in_bom yes) (on_board yes)
    (property "Reference" "U" (id 0) (at 3.81 3.81 0)
      (effects (font (size 1.27 1.27)) (justify left))
    )
    (property "Value" "INA186" (id 1) (at 3.81 -2.54 0)
      (effects (font (size 1.27 1.27)) (justify left))
    )
    (property "Footprint" "Package_TO_SOT_SMD:SOT-23-6" (id 2) (at 1.27 1.27 0)
      (effects (font (size 1.27 1.27)) hide)
    )
    (property "Datasheet" "http://www.ti.com/lit/ds/symlink/ina186.pdf" (id 3) (at 3.81 3.81 0)
      (effects (font (size 1.27 1.27)) hide)
    )
    (property "ki_keywords" "current monitor shunt sensor bidirectional" (id 4) (at 0 0 0)
      (effects (font (size 1.27 1.27)) hide)
    )
    (property "ki_description" "Bidirectional, Low- and High-Side Voltage Output, Current-Sense Amplifier, SOT-23-6" (id 5) (at 0 0 0)
      (effects (font (size 1.27 1.27)) hide)
    )
    (property "ki_fp_filters" "SOT?23*" (id 6) (at 0 0 0)
      (effects (font (size 1.27 1.27)) hide)
    )
    (symbol "INA186_0_1"
      (polyline
        (pts
          (xy 5.08 0)
          (xy -5.08 5.08)
          (xy -5.08 -5.08)
          (xy 5.08 0)
        )
        (stroke (width 0.254) (type default) (color 0 0 0 0))
        (fill (type background))
      )
    )
    (symbol "INA186_1_1"
      (pin input line (at 2.54 -7.62 90) (length 6.35)
        (name "REF" (effects (font (size 0.508 0.508))))
        (number "1" (effects (font (size 1.27 1.27))))
      )
      (pin power_in line (at -2.54 -7.62 90) (length 3.81)
        (name "GND" (effects (font (size 1.27 1.27))))
        (number "2" (effects (font (size 1.27 1.27))))
      )
      (pin power_in line (at -2.54 7.62 270) (length 3.81)
        (name "V+" (effects (font (size 1.27 1.27))))
        (number "3" (effects (font (size 1.27 1.27))))
      )
      (pin input line (at -7.62 2.54 0) (length 2.54)
        (name "+" (effects (font (size 1.27 1.27))))
        (number "4" (effects (font (size 1.27 1.27))))
      )
      (pin input line (at -7.62 -2.54 0) (length 2.54)
        (name "-" (effects (font (size 1.27 1.27))))
        (number "5" (effects (font (size 1.27 1.27))))
      )
      (pin output line (at 7.62 0 180) (length 2.54)
        (name "~" (effects (font (size 1.27 1.27))))
        (number "6" (effects (font (size 1.27 1.27))))
      )
    )
  )
)
