(kicad_symbol_lib (version 20211014) (generator kicad_symbol_editor)
  (symbol "MMC5983MA" (in_bom yes) (on_board yes)
    (property "Reference" "U" (id 0) (at -7.62 10.16 0)
      (effects (font (size 1.27 1.27)) (justify left top))
    )
    (property "Value" "MMC5983MA" (id 1) (at 5.08 10.16 0)
      (effects (font (size 1.27 1.27)) (justify left top))
    )
    (property "Footprint" "Package_LGA:LGA-16_3x3mm_P0.5mm" (id 2) (at 0 -22.86 0)
      (effects (font (size 1.27 1.27)) hide)
    )
    (property "Datasheet" "https://www.memsic.com/Public/Uploads/uploadfile/files/20220119/MMC5983MADatasheetRevA.pdf" (id 3) (at 0 -25.4 0)
      (effects (font (size 1.27 1.27)) hide)
    )
    (property "ki_keywords" "I2C magnetic 3-axis sensor" (id 4) (at 0 0 0)
      (effects (font (size 1.27 1.27)) hide)
    )
    (property "ki_description" "3-axis Magnetic Sensor, I2C Interface, LGA-16" (id 5) (at 0 0 0)
      (effects (font (size 1.27 1.27)) hide)
    )
    (property "ki_fp_filters" "*LGA*3x3mm*P0.5mm*" (id 6) (at 0 0 0)
      (effects (font (size 1.27 1.27)) hide)
    )
    (symbol "MMC5983MA_0_0"
      (pin no_connect line (at 10.16 5.08 180) (length 2.54) hide
        (name "NC" (effects (font (size 1.27 1.27))))
        (number "12" (effects (font (size 1.27 1.27))))
      )
      (pin no_connect line (at 10.16 0 180) (length 2.54) hide
        (name "NC" (effects (font (size 1.27 1.27))))
        (number "14" (effects (font (size 1.27 1.27))))
      )
      (pin no_connect line (at 3.81 -10.16 90) (length 2.54) hide
        (name "NC" (effects (font (size 1.27 1.27))))
        (number "3" (effects (font (size 1.27 1.27))))
      )
      (pin no_connect line (at 3.81 10.16 270) (length 2.54) hide
        (name "NC" (effects (font (size 1.27 1.27))))
        (number "6" (effects (font (size 1.27 1.27))))
      )
      (pin no_connect line (at 10.16 -5.08 180) (length 2.54) hide
        (name "NC" (effects (font (size 1.27 1.27))))
        (number "7" (effects (font (size 1.27 1.27))))
      )
      (pin no_connect line (at -3.81 -10.16 90) (length 2.54) hide
        (name "NC" (effects (font (size 1.27 1.27))))
        (number "8" (effects (font (size 1.27 1.27))))
      )
    )
    (symbol "MMC5983MA_0_1"
      (rectangle (start -7.62 7.62) (end 7.62 -7.62)
        (stroke (width 0.254) (type default) (color 0 0 0 0))
        (fill (type background))
      )
    )
    (symbol "MMC5983MA_1_1"
      (pin input line (at -10.16 3.81 0) (length 2.54)
        (name "SCL" (effects (font (size 1.27 1.27))))
        (number "1" (effects (font (size 1.27 1.27))))
      )
      (pin passive line (at 10.16 -2.54 180) (length 2.54)
        (name "CAP" (effects (font (size 1.27 1.27))))
        (number "10" (effects (font (size 1.27 1.27))))
      )
      (pin power_in line (at 1.27 -10.16 90) (length 2.54)
        (name "GND" (effects (font (size 1.27 1.27))))
        (number "11" (effects (font (size 1.27 1.27))))
      )
      (pin power_in line (at 1.27 10.16 270) (length 2.54)
        (name "VDDIO" (effects (font (size 1.27 1.27))))
        (number "13" (effects (font (size 1.27 1.27))))
      )
      (pin output line (at 10.16 2.54 180) (length 2.54)
        (name "INT" (effects (font (size 1.27 1.27))))
        (number "15" (effects (font (size 1.27 1.27))))
      )
      (pin bidirectional line (at -10.16 1.27 0) (length 2.54)
        (name "SDA" (effects (font (size 1.27 1.27))))
        (number "16" (effects (font (size 1.27 1.27))))
      )
      (pin power_in line (at -1.27 10.16 270) (length 2.54)
        (name "VDD" (effects (font (size 1.27 1.27))))
        (number "2" (effects (font (size 1.27 1.27))))
      )
      (pin input line (at -10.16 -3.81 0) (length 2.54)
        (name "~{CS}" (effects (font (size 1.27 1.27))))
        (number "4" (effects (font (size 1.27 1.27))))
      )
      (pin output line (at -10.16 -1.27 0) (length 2.54)
        (name "SDO" (effects (font (size 1.27 1.27))))
        (number "5" (effects (font (size 1.27 1.27))))
      )
      (pin power_in line (at -1.27 -10.16 90) (length 2.54)
        (name "GND" (effects (font (size 1.27 1.27))))
        (number "9" (effects (font (size 1.27 1.27))))
      )
    )
  )
)
