(kicad_symbol_lib (version 20210619) (generator kicad_symbol_editor)
  (symbol "NXB0108:NXB0108" (in_bom yes) (on_board yes)
    (property "Reference" "U" (id 0) (at 0 17.78 0)
      (effects (font (size 1.27 1.27)))
    )
    (property "Value" "NXB0108" (id 1) (at 0 15.24 0)
      (effects (font (size 1.27 1.27)))
    )
    (property "Footprint" "" (id 2) (at -5.08 16.51 0)
      (effects (font (size 1.27 1.27)) hide)
    )
    (property "Datasheet" "" (id 3) (at -5.08 16.51 0)
      (effects (font (size 1.27 1.27)) hide)
    )
    (symbol "NXB0108_0_1"
      (rectangle (start -6.35 13.97) (end 6.35 -13.97)
        (stroke (width 0.1524)) (fill (type none))
      )
    )
    (symbol "NXB0108_1_1"
      (pin bidirectional line (at -8.89 11.43 0) (length 2.54)
        (name "A1" (effects (font (size 1.27 1.27))))
        (number "1" (effects (font (size 1.27 1.27))))
      )
      (pin input line (at -8.89 -11.43 0) (length 2.54)
        (name "OE" (effects (font (size 1.27 1.27))))
        (number "10" (effects (font (size 1.27 1.27))))
      )
      (pin power_in line (at 8.89 -11.43 180) (length 2.54)
        (name "GND" (effects (font (size 1.27 1.27))))
        (number "11" (effects (font (size 1.27 1.27))))
      )
      (pin bidirectional line (at 8.89 -8.89 180) (length 2.54)
        (name "B8" (effects (font (size 1.27 1.27))))
        (number "12" (effects (font (size 1.27 1.27))))
      )
      (pin bidirectional line (at 8.89 -6.35 180) (length 2.54)
        (name "B7" (effects (font (size 1.27 1.27))))
        (number "13" (effects (font (size 1.27 1.27))))
      )
      (pin bidirectional line (at 8.89 -3.81 180) (length 2.54)
        (name "B6" (effects (font (size 1.27 1.27))))
        (number "14" (effects (font (size 1.27 1.27))))
      )
      (pin bidirectional line (at 8.89 -1.27 180) (length 2.54)
        (name "B5" (effects (font (size 1.27 1.27))))
        (number "15" (effects (font (size 1.27 1.27))))
      )
      (pin bidirectional line (at 8.89 1.27 180) (length 2.54)
        (name "B4" (effects (font (size 1.27 1.27))))
        (number "16" (effects (font (size 1.27 1.27))))
      )
      (pin bidirectional line (at 8.89 3.81 180) (length 2.54)
        (name "B3" (effects (font (size 1.27 1.27))))
        (number "17" (effects (font (size 1.27 1.27))))
      )
      (pin bidirectional line (at 8.89 6.35 180) (length 2.54)
        (name "B2" (effects (font (size 1.27 1.27))))
        (number "18" (effects (font (size 1.27 1.27))))
      )
      (pin power_in line (at -8.89 8.89 0) (length 2.54)
        (name "VCCA" (effects (font (size 1.27 1.27))))
        (number "2" (effects (font (size 1.27 1.27))))
      )
      (pin power_in line (at 8.89 8.89 180) (length 2.54)
        (name "VCCB" (effects (font (size 1.27 1.27))))
        (number "2" (effects (font (size 1.27 1.27))))
      )
      (pin bidirectional line (at 8.89 11.43 180) (length 2.54)
        (name "B1" (effects (font (size 1.27 1.27))))
        (number "20" (effects (font (size 1.27 1.27))))
      )
      (pin bidirectional line (at -8.89 6.35 0) (length 2.54)
        (name "A2" (effects (font (size 1.27 1.27))))
        (number "3" (effects (font (size 1.27 1.27))))
      )
      (pin bidirectional line (at -8.89 3.81 0) (length 2.54)
        (name "A3" (effects (font (size 1.27 1.27))))
        (number "4" (effects (font (size 1.27 1.27))))
      )
      (pin bidirectional line (at -8.89 1.27 0) (length 2.54)
        (name "A4" (effects (font (size 1.27 1.27))))
        (number "5" (effects (font (size 1.27 1.27))))
      )
      (pin bidirectional line (at -8.89 -1.27 0) (length 2.54)
        (name "A5" (effects (font (size 1.27 1.27))))
        (number "6" (effects (font (size 1.27 1.27))))
      )
      (pin bidirectional line (at -8.89 -3.81 0) (length 2.54)
        (name "A6" (effects (font (size 1.27 1.27))))
        (number "7" (effects (font (size 1.27 1.27))))
      )
      (pin bidirectional line (at -8.89 -6.35 0) (length 2.54)
        (name "A7" (effects (font (size 1.27 1.27))))
        (number "8" (effects (font (size 1.27 1.27))))
      )
      (pin bidirectional line (at -8.89 -8.89 0) (length 2.54)
        (name "A8" (effects (font (size 1.27 1.27))))
        (number "9" (effects (font (size 1.27 1.27))))
      )
    )
  )
)
