(kicad_symbol_lib (version 20211014) (generator kicad_symbol_editor)
  (symbol "MA732" (in_bom yes) (on_board yes)
    (property "Reference" "U" (id 0) (at -10.16 11.43 0)
      (effects (font (size 1.27 1.27)) (justify left))
    )
    (property "Value" "MA732" (id 1) (at 10.16 11.43 0)
      (effects (font (size 1.27 1.27)) (justify right))
    )
    (property "Footprint" "Package_DFN_QFN:QFN-16-1EP_3x3mm_P0.5mm_EP1.8x1.8mm" (id 2) (at 0 -24.13 0)
      (effects (font (size 1.27 1.27)) hide)
    )
    (property "Datasheet" "https://www.monolithicpower.com/pub/media/document/m/a/ma730_r1.01.pdf" (id 3) (at -54.61 40.64 0)
      (effects (font (size 1.27 1.27)) hide)
    )
    (property "ki_keywords" "sensor magnetic hall position rotation spi" (id 4) (at 0 0 0)
      (effects (font (size 1.27 1.27)) hide)
    )
    (property "ki_description" "Magnetic rotary angle sensor, 14-bit, SPI interface, ABZ, PWM, QFN-16" (id 5) (at 0 0 0)
      (effects (font (size 1.27 1.27)) hide)
    )
    (property "ki_fp_filters" "QFN*3x3mm*P0.5mm*EP1.8x1.8mm*" (id 6) (at 0 0 0)
      (effects (font (size 1.27 1.27)) hide)
    )
    (symbol "MA732_0_1"
      (rectangle (start -10.16 10.16) (end 10.16 -10.16)
        (stroke (width 0.254) (type default) (color 0 0 0 0))
        (fill (type background))
      )
      (arc (start -2.794 0) (mid 0 -2.794) (end 2.794 0)
        (stroke (width 0.254) (type default) (color 0 0 0 0))
        (fill (type none))
      )
      (polyline
        (pts
          (xy -2.794 0)
          (xy -3.302 -0.508)
        )
        (stroke (width 0.254) (type default) (color 0 0 0 0))
        (fill (type none))
      )
      (polyline
        (pts
          (xy -2.794 0)
          (xy -2.286 -0.508)
        )
        (stroke (width 0.254) (type default) (color 0 0 0 0))
        (fill (type none))
      )
      (polyline
        (pts
          (xy 2.794 0)
          (xy 2.286 -0.508)
        )
        (stroke (width 0.254) (type default) (color 0 0 0 0))
        (fill (type none))
      )
      (polyline
        (pts
          (xy 2.794 0)
          (xy 3.302 -0.508)
        )
        (stroke (width 0.254) (type default) (color 0 0 0 0))
        (fill (type none))
      )
    )
    (symbol "MA732_1_1"
      (polyline
        (pts
          (xy 0.254 0.254)
          (xy 1.27 -0.762)
          (xy 0.762 -1.27)
          (xy -0.254 -0.254)
        )
        (stroke (width 0) (type default) (color 0 0 0 0))
        (fill (type none))
      )
      (polyline
        (pts
          (xy -0.762 1.27)
          (xy 0.254 0.254)
          (xy -0.254 -0.254)
          (xy -1.27 0.762)
          (xy -1.016 1.016)
          (xy -0.762 1.27)
          (xy -0.635 1.143)
        )
        (stroke (width 0) (type default) (color 0 0 0 0))
        (fill (type outline))
      )
      (circle (center 0 0) (radius 2.032)
        (stroke (width 0.254) (type default) (color 0 0 0 0))
        (fill (type none))
      )
      (pin output line (at -12.7 -5.08 0) (length 2.54)
        (name "SSD" (effects (font (size 1.27 1.27))))
        (number "1" (effects (font (size 1.27 1.27))))
      )
      (pin passive line (at 2.54 -12.7 90) (length 2.54)
        (name "TEST" (effects (font (size 1.27 1.27))))
        (number "10" (effects (font (size 1.27 1.27))))
      )
      (pin output line (at 12.7 2.54 180) (length 2.54)
        (name "MGL" (effects (font (size 1.27 1.27))))
        (number "11" (effects (font (size 1.27 1.27))))
      )
      (pin input line (at -12.7 2.54 0) (length 2.54)
        (name "SCLK" (effects (font (size 1.27 1.27))))
        (number "12" (effects (font (size 1.27 1.27))))
      )
      (pin power_in line (at 0 12.7 270) (length 2.54)
        (name "VDD" (effects (font (size 1.27 1.27))))
        (number "13" (effects (font (size 1.27 1.27))))
      )
      (pin no_connect line (at 5.08 -10.16 90) (length 2.54) hide
        (name "NC" (effects (font (size 1.27 1.27))))
        (number "14" (effects (font (size 1.27 1.27))))
      )
      (pin input line (at -12.7 -7.62 0) (length 2.54)
        (name "SSCK" (effects (font (size 1.27 1.27))))
        (number "15" (effects (font (size 1.27 1.27))))
      )
      (pin output line (at 12.7 5.08 180) (length 2.54)
        (name "MGH" (effects (font (size 1.27 1.27))))
        (number "16" (effects (font (size 1.27 1.27))))
      )
      (pin input line (at -2.54 -12.7 90) (length 2.54)
        (name "PAD" (effects (font (size 1.27 1.27))))
        (number "17" (effects (font (size 1.27 1.27))))
      )
      (pin output line (at 12.7 -2.54 180) (length 2.54)
        (name "A" (effects (font (size 1.27 1.27))))
        (number "2" (effects (font (size 1.27 1.27))))
      )
      (pin output line (at 12.7 -7.62 180) (length 2.54)
        (name "Z" (effects (font (size 1.27 1.27))))
        (number "3" (effects (font (size 1.27 1.27))))
      )
      (pin input line (at -12.7 7.62 0) (length 2.54)
        (name "MOSI" (effects (font (size 1.27 1.27))))
        (number "4" (effects (font (size 1.27 1.27))))
      )
      (pin input line (at -12.7 0 0) (length 2.54)
        (name "~{CS}" (effects (font (size 1.27 1.27))))
        (number "5" (effects (font (size 1.27 1.27))))
      )
      (pin output line (at 12.7 -5.08 180) (length 2.54)
        (name "B" (effects (font (size 1.27 1.27))))
        (number "6" (effects (font (size 1.27 1.27))))
      )
      (pin output line (at -12.7 5.08 0) (length 2.54)
        (name "MISO" (effects (font (size 1.27 1.27))))
        (number "7" (effects (font (size 1.27 1.27))))
      )
      (pin power_in line (at 0 -12.7 90) (length 2.54)
        (name "GND" (effects (font (size 1.27 1.27))))
        (number "8" (effects (font (size 1.27 1.27))))
      )
      (pin output line (at 12.7 7.62 180) (length 2.54)
        (name "PWM" (effects (font (size 1.27 1.27))))
        (number "9" (effects (font (size 1.27 1.27))))
      )
    )
  )
)
