(kicad_symbol_lib (version 20211014) (generator kicad_symbol_editor)
  (symbol "TLV71333PDQN" (pin_names (offset 0.254)) (in_bom yes) (on_board yes)
    (property "Reference" "U" (id 0) (at -3.81 5.715 0)
      (effects (font (size 1.27 1.27)))
    )
    (property "Value" "TLV71333PDQN" (id 1) (at 0 5.715 0)
      (effects (font (size 1.27 1.27)) (justify left))
    )
    (property "Footprint" "Package_SON:Texas_X2SON-4_1x1mm_P0.65mm" (id 2) (at 0 8.255 0)
      (effects (font (size 1.27 1.27) italic) hide)
    )
    (property "Datasheet" "http://www.ti.com/lit/ds/symlink/tlv713p.pdf" (id 3) (at 0 1.27 0)
      (effects (font (size 1.27 1.27)) hide)
    )
    (property "ki_keywords" "LDO Regulator Fixed Positive" (id 4) (at 0 0 0)
      (effects (font (size 1.27 1.27)) hide)
    )
    (property "ki_description" "150mA Low Dropout Voltage Regulator, Fixed Output 3.3V, SOT-23-5" (id 5) (at 0 0 0)
      (effects (font (size 1.27 1.27)) hide)
    )
    (property "ki_fp_filters" "SOT?23*" (id 6) (at 0 0 0)
      (effects (font (size 1.27 1.27)) hide)
    )
    (symbol "TLV71333PDQN_0_1"
      (rectangle (start -5.08 4.445) (end 5.08 -5.08)
        (stroke (width 0.254) (type default) (color 0 0 0 0))
        (fill (type background))
      )
    )
    (symbol "TLV71333PDQN_1_1"
      (pin power_out line (at 7.62 2.54 180) (length 2.54)
        (name "OUT" (effects (font (size 1.27 1.27))))
        (number "1" (effects (font (size 1.27 1.27))))
      )
      (pin power_in line (at 0 -7.62 90) (length 2.54)
        (name "GND" (effects (font (size 1.27 1.27))))
        (number "2" (effects (font (size 1.27 1.27))))
      )
      (pin input line (at -7.62 0 0) (length 2.54)
        (name "EN" (effects (font (size 1.27 1.27))))
        (number "3" (effects (font (size 1.27 1.27))))
      )
      (pin power_in line (at -7.62 2.54 0) (length 2.54)
        (name "IN" (effects (font (size 1.27 1.27))))
        (number "4" (effects (font (size 1.27 1.27))))
      )
      (pin power_in line (at 0 -7.62 90) (length 2.54) hide
        (name "GND" (effects (font (size 1.27 1.27))))
        (number "5" (effects (font (size 1.27 1.27))))
      )
    )
  )
)
