(kicad_sch (version 20211123) (generator eeschema)

  (uuid c1c2754b-b22a-4222-befd-22541aed32d7)

  (paper "A4")

  (lib_symbols
    (symbol "Connector:USB_B_Micro" (pin_names (offset 1.016)) (in_bom yes) (on_board yes)
      (property "Reference" "J" (id 0) (at -5.08 11.43 0)
        (effects (font (size 1.27 1.27)) (justify left))
      )
      (property "Value" "USB_B_Micro" (id 1) (at -5.08 8.89 0)
        (effects (font (size 1.27 1.27)) (justify left))
      )
      (property "Footprint" "" (id 2) (at 3.81 -1.27 0)
        (effects (font (size 1.27 1.27)) hide)
      )
      (property "Datasheet" "~" (id 3) (at 3.81 -1.27 0)
        (effects (font (size 1.27 1.27)) hide)
      )
      (property "ki_keywords" "connector USB micro" (id 4) (at 0 0 0)
        (effects (font (size 1.27 1.27)) hide)
      )
      (property "ki_description" "USB Micro Type B connector" (id 5) (at 0 0 0)
        (effects (font (size 1.27 1.27)) hide)
      )
      (property "ki_fp_filters" "USB*" (id 6) (at 0 0 0)
        (effects (font (size 1.27 1.27)) hide)
      )
      (symbol "USB_B_Micro_0_1"
        (rectangle (start -5.08 -7.62) (end 5.08 7.62)
          (stroke (width 0.254) (type default) (color 0 0 0 0))
          (fill (type background))
        )
        (circle (center -3.81 2.159) (radius 0.635)
          (stroke (width 0.254) (type default) (color 0 0 0 0))
          (fill (type outline))
        )
        (circle (center -0.635 3.429) (radius 0.381)
          (stroke (width 0.254) (type default) (color 0 0 0 0))
          (fill (type outline))
        )
        (rectangle (start -0.127 -7.62) (end 0.127 -6.858)
          (stroke (width 0) (type default) (color 0 0 0 0))
          (fill (type none))
        )
        (polyline
          (pts
            (xy -1.905 2.159)
            (xy 0.635 2.159)
          )
          (stroke (width 0.254) (type default) (color 0 0 0 0))
          (fill (type none))
        )
        (polyline
          (pts
            (xy -3.175 2.159)
            (xy -2.54 2.159)
            (xy -1.27 3.429)
            (xy -0.635 3.429)
          )
          (stroke (width 0.254) (type default) (color 0 0 0 0))
          (fill (type none))
        )
        (polyline
          (pts
            (xy -2.54 2.159)
            (xy -1.905 2.159)
            (xy -1.27 0.889)
            (xy 0 0.889)
          )
          (stroke (width 0.254) (type default) (color 0 0 0 0))
          (fill (type none))
        )
        (polyline
          (pts
            (xy 0.635 2.794)
            (xy 0.635 1.524)
            (xy 1.905 2.159)
            (xy 0.635 2.794)
          )
          (stroke (width 0.254) (type default) (color 0 0 0 0))
          (fill (type outline))
        )
        (polyline
          (pts
            (xy -4.318 5.588)
            (xy -1.778 5.588)
            (xy -2.032 4.826)
            (xy -4.064 4.826)
            (xy -4.318 5.588)
          )
          (stroke (width 0) (type default) (color 0 0 0 0))
          (fill (type outline))
        )
        (polyline
          (pts
            (xy -4.699 5.842)
            (xy -4.699 5.588)
            (xy -4.445 4.826)
            (xy -4.445 4.572)
            (xy -1.651 4.572)
            (xy -1.651 4.826)
            (xy -1.397 5.588)
            (xy -1.397 5.842)
            (xy -4.699 5.842)
          )
          (stroke (width 0) (type default) (color 0 0 0 0))
          (fill (type none))
        )
        (rectangle (start 0.254 1.27) (end -0.508 0.508)
          (stroke (width 0.254) (type default) (color 0 0 0 0))
          (fill (type outline))
        )
        (rectangle (start 5.08 -5.207) (end 4.318 -4.953)
          (stroke (width 0) (type default) (color 0 0 0 0))
          (fill (type none))
        )
        (rectangle (start 5.08 -2.667) (end 4.318 -2.413)
          (stroke (width 0) (type default) (color 0 0 0 0))
          (fill (type none))
        )
        (rectangle (start 5.08 -0.127) (end 4.318 0.127)
          (stroke (width 0) (type default) (color 0 0 0 0))
          (fill (type none))
        )
        (rectangle (start 5.08 4.953) (end 4.318 5.207)
          (stroke (width 0) (type default) (color 0 0 0 0))
          (fill (type none))
        )
      )
      (symbol "USB_B_Micro_1_1"
        (pin power_out line (at 7.62 5.08 180) (length 2.54)
          (name "VBUS" (effects (font (size 1.27 1.27))))
          (number "1" (effects (font (size 1.27 1.27))))
        )
        (pin bidirectional line (at 7.62 -2.54 180) (length 2.54)
          (name "D-" (effects (font (size 1.27 1.27))))
          (number "2" (effects (font (size 1.27 1.27))))
        )
        (pin bidirectional line (at 7.62 0 180) (length 2.54)
          (name "D+" (effects (font (size 1.27 1.27))))
          (number "3" (effects (font (size 1.27 1.27))))
        )
        (pin passive line (at 7.62 -5.08 180) (length 2.54)
          (name "ID" (effects (font (size 1.27 1.27))))
          (number "4" (effects (font (size 1.27 1.27))))
        )
        (pin power_out line (at 0 -10.16 90) (length 2.54)
          (name "GND" (effects (font (size 1.27 1.27))))
          (number "5" (effects (font (size 1.27 1.27))))
        )
        (pin passive line (at -2.54 -10.16 90) (length 2.54)
          (name "Shield" (effects (font (size 1.27 1.27))))
          (number "6" (effects (font (size 1.27 1.27))))
        )
      )
    )
    (symbol "Device:C_Small" (pin_numbers hide) (pin_names (offset 0.254) hide) (in_bom yes) (on_board yes)
      (property "Reference" "C" (id 0) (at 0.254 1.778 0)
        (effects (font (size 1.27 1.27)) (justify left))
      )
      (property "Value" "C_Small" (id 1) (at 0.254 -2.032 0)
        (effects (font (size 1.27 1.27)) (justify left))
      )
      (property "Footprint" "" (id 2) (at 0 0 0)
        (effects (font (size 1.27 1.27)) hide)
      )
      (property "Datasheet" "~" (id 3) (at 0 0 0)
        (effects (font (size 1.27 1.27)) hide)
      )
      (property "ki_keywords" "capacitor cap" (id 4) (at 0 0 0)
        (effects (font (size 1.27 1.27)) hide)
      )
      (property "ki_description" "Unpolarized capacitor, small symbol" (id 5) (at 0 0 0)
        (effects (font (size 1.27 1.27)) hide)
      )
      (property "ki_fp_filters" "C_*" (id 6) (at 0 0 0)
        (effects (font (size 1.27 1.27)) hide)
      )
      (symbol "C_Small_0_1"
        (polyline
          (pts
            (xy -1.524 -0.508)
            (xy 1.524 -0.508)
          )
          (stroke (width 0.3302) (type default) (color 0 0 0 0))
          (fill (type none))
        )
        (polyline
          (pts
            (xy -1.524 0.508)
            (xy 1.524 0.508)
          )
          (stroke (width 0.3048) (type default) (color 0 0 0 0))
          (fill (type none))
        )
      )
      (symbol "C_Small_1_1"
        (pin passive line (at 0 2.54 270) (length 2.032)
          (name "~" (effects (font (size 1.27 1.27))))
          (number "1" (effects (font (size 1.27 1.27))))
        )
        (pin passive line (at 0 -2.54 90) (length 2.032)
          (name "~" (effects (font (size 1.27 1.27))))
          (number "2" (effects (font (size 1.27 1.27))))
        )
      )
    )
    (symbol "Device:Crystal_GND24" (pin_names (offset 1.016) hide) (in_bom yes) (on_board yes)
      (property "Reference" "Y" (id 0) (at 3.175 5.08 0)
        (effects (font (size 1.27 1.27)) (justify left))
      )
      (property "Value" "Crystal_GND24" (id 1) (at 3.175 3.175 0)
        (effects (font (size 1.27 1.27)) (justify left))
      )
      (property "Footprint" "" (id 2) (at 0 0 0)
        (effects (font (size 1.27 1.27)) hide)
      )
      (property "Datasheet" "~" (id 3) (at 0 0 0)
        (effects (font (size 1.27 1.27)) hide)
      )
      (property "ki_keywords" "quartz ceramic resonator oscillator" (id 4) (at 0 0 0)
        (effects (font (size 1.27 1.27)) hide)
      )
      (property "ki_description" "Four pin crystal, GND on pins 2 and 4" (id 5) (at 0 0 0)
        (effects (font (size 1.27 1.27)) hide)
      )
      (property "ki_fp_filters" "Crystal*" (id 6) (at 0 0 0)
        (effects (font (size 1.27 1.27)) hide)
      )
      (symbol "Crystal_GND24_0_1"
        (rectangle (start -1.143 2.54) (end 1.143 -2.54)
          (stroke (width 0.3048) (type default) (color 0 0 0 0))
          (fill (type none))
        )
        (polyline
          (pts
            (xy -2.54 0)
            (xy -2.032 0)
          )
          (stroke (width 0) (type default) (color 0 0 0 0))
          (fill (type none))
        )
        (polyline
          (pts
            (xy -2.032 -1.27)
            (xy -2.032 1.27)
          )
          (stroke (width 0.508) (type default) (color 0 0 0 0))
          (fill (type none))
        )
        (polyline
          (pts
            (xy 0 -3.81)
            (xy 0 -3.556)
          )
          (stroke (width 0) (type default) (color 0 0 0 0))
          (fill (type none))
        )
        (polyline
          (pts
            (xy 0 3.556)
            (xy 0 3.81)
          )
          (stroke (width 0) (type default) (color 0 0 0 0))
          (fill (type none))
        )
        (polyline
          (pts
            (xy 2.032 -1.27)
            (xy 2.032 1.27)
          )
          (stroke (width 0.508) (type default) (color 0 0 0 0))
          (fill (type none))
        )
        (polyline
          (pts
            (xy 2.032 0)
            (xy 2.54 0)
          )
          (stroke (width 0) (type default) (color 0 0 0 0))
          (fill (type none))
        )
        (polyline
          (pts
            (xy -2.54 -2.286)
            (xy -2.54 -3.556)
            (xy 2.54 -3.556)
            (xy 2.54 -2.286)
          )
          (stroke (width 0) (type default) (color 0 0 0 0))
          (fill (type none))
        )
        (polyline
          (pts
            (xy -2.54 2.286)
            (xy -2.54 3.556)
            (xy 2.54 3.556)
            (xy 2.54 2.286)
          )
          (stroke (width 0) (type default) (color 0 0 0 0))
          (fill (type none))
        )
      )
      (symbol "Crystal_GND24_1_1"
        (pin passive line (at -3.81 0 0) (length 1.27)
          (name "1" (effects (font (size 1.27 1.27))))
          (number "1" (effects (font (size 1.27 1.27))))
        )
        (pin passive line (at 0 5.08 270) (length 1.27)
          (name "2" (effects (font (size 1.27 1.27))))
          (number "2" (effects (font (size 1.27 1.27))))
        )
        (pin passive line (at 3.81 0 180) (length 1.27)
          (name "3" (effects (font (size 1.27 1.27))))
          (number "3" (effects (font (size 1.27 1.27))))
        )
        (pin passive line (at 0 -5.08 90) (length 1.27)
          (name "4" (effects (font (size 1.27 1.27))))
          (number "4" (effects (font (size 1.27 1.27))))
        )
      )
    )
    (symbol "Device:R" (pin_numbers hide) (pin_names (offset 0)) (in_bom yes) (on_board yes)
      (property "Reference" "R" (id 0) (at 2.032 0 90)
        (effects (font (size 1.27 1.27)))
      )
      (property "Value" "R" (id 1) (at 0 0 90)
        (effects (font (size 1.27 1.27)))
      )
      (property "Footprint" "" (id 2) (at -1.778 0 90)
        (effects (font (size 1.27 1.27)) hide)
      )
      (property "Datasheet" "~" (id 3) (at 0 0 0)
        (effects (font (size 1.27 1.27)) hide)
      )
      (property "ki_keywords" "R res resistor" (id 4) (at 0 0 0)
        (effects (font (size 1.27 1.27)) hide)
      )
      (property "ki_description" "Resistor" (id 5) (at 0 0 0)
        (effects (font (size 1.27 1.27)) hide)
      )
      (property "ki_fp_filters" "R_*" (id 6) (at 0 0 0)
        (effects (font (size 1.27 1.27)) hide)
      )
      (symbol "R_0_1"
        (rectangle (start -1.016 -2.54) (end 1.016 2.54)
          (stroke (width 0.254) (type default) (color 0 0 0 0))
          (fill (type none))
        )
      )
      (symbol "R_1_1"
        (pin passive line (at 0 3.81 270) (length 1.27)
          (name "~" (effects (font (size 1.27 1.27))))
          (number "1" (effects (font (size 1.27 1.27))))
        )
        (pin passive line (at 0 -3.81 90) (length 1.27)
          (name "~" (effects (font (size 1.27 1.27))))
          (number "2" (effects (font (size 1.27 1.27))))
        )
      )
    )
    (symbol "MCU_RaspberryPi_RP2040:RP2040" (pin_names (offset 1.016)) (in_bom yes) (on_board yes)
      (property "Reference" "U" (id 0) (at -29.21 49.53 0)
        (effects (font (size 1.27 1.27)))
      )
      (property "Value" "RP2040" (id 1) (at 24.13 -49.53 0)
        (effects (font (size 1.27 1.27)))
      )
      (property "Footprint" "RP2040_minimal:RP2040-QFN-56" (id 2) (at -19.05 0 0)
        (effects (font (size 1.27 1.27)) hide)
      )
      (property "Datasheet" "" (id 3) (at -19.05 0 0)
        (effects (font (size 1.27 1.27)) hide)
      )
      (symbol "RP2040_0_0"
        (text "Raspberry Pi" (at 0 5.08 0)
          (effects (font (size 2.54 2.54)))
        )
        (text "RP2040" (at 0 0 0)
          (effects (font (size 2.54 2.54)))
        )
      )
      (symbol "RP2040_0_1"
        (rectangle (start 29.21 48.26) (end -29.21 -48.26)
          (stroke (width 0.254) (type default) (color 0 0 0 0))
          (fill (type background))
        )
      )
      (symbol "RP2040_1_1"
        (pin power_in line (at 8.89 50.8 270) (length 2.54)
          (name "IOVDD" (effects (font (size 1.27 1.27))))
          (number "1" (effects (font (size 1.27 1.27))))
        )
        (pin power_in line (at 6.35 50.8 270) (length 2.54)
          (name "IOVDD" (effects (font (size 1.27 1.27))))
          (number "10" (effects (font (size 1.27 1.27))))
        )
        (pin bidirectional line (at 31.75 12.7 180) (length 2.54)
          (name "GPIO8" (effects (font (size 1.27 1.27))))
          (number "11" (effects (font (size 1.27 1.27))))
        )
        (pin bidirectional line (at 31.75 10.16 180) (length 2.54)
          (name "GPIO9" (effects (font (size 1.27 1.27))))
          (number "12" (effects (font (size 1.27 1.27))))
        )
        (pin bidirectional line (at 31.75 7.62 180) (length 2.54)
          (name "GPIO10" (effects (font (size 1.27 1.27))))
          (number "13" (effects (font (size 1.27 1.27))))
        )
        (pin bidirectional line (at 31.75 5.08 180) (length 2.54)
          (name "GPIO11" (effects (font (size 1.27 1.27))))
          (number "14" (effects (font (size 1.27 1.27))))
        )
        (pin bidirectional line (at 31.75 2.54 180) (length 2.54)
          (name "GPIO12" (effects (font (size 1.27 1.27))))
          (number "15" (effects (font (size 1.27 1.27))))
        )
        (pin bidirectional line (at 31.75 0 180) (length 2.54)
          (name "GPIO13" (effects (font (size 1.27 1.27))))
          (number "16" (effects (font (size 1.27 1.27))))
        )
        (pin bidirectional line (at 31.75 -2.54 180) (length 2.54)
          (name "GPIO14" (effects (font (size 1.27 1.27))))
          (number "17" (effects (font (size 1.27 1.27))))
        )
        (pin bidirectional line (at 31.75 -5.08 180) (length 2.54)
          (name "GPIO15" (effects (font (size 1.27 1.27))))
          (number "18" (effects (font (size 1.27 1.27))))
        )
        (pin passive line (at -12.7 -50.8 90) (length 2.54)
          (name "TESTEN" (effects (font (size 1.27 1.27))))
          (number "19" (effects (font (size 1.27 1.27))))
        )
        (pin bidirectional line (at 31.75 33.02 180) (length 2.54)
          (name "GPIO0" (effects (font (size 1.27 1.27))))
          (number "2" (effects (font (size 1.27 1.27))))
        )
        (pin input line (at -31.75 -2.54 0) (length 2.54)
          (name "XIN" (effects (font (size 1.27 1.27))))
          (number "20" (effects (font (size 1.27 1.27))))
        )
        (pin passive line (at -31.75 -7.62 0) (length 2.54)
          (name "XOUT" (effects (font (size 1.27 1.27))))
          (number "21" (effects (font (size 1.27 1.27))))
        )
        (pin power_in line (at 3.81 50.8 270) (length 2.54)
          (name "IOVDD" (effects (font (size 1.27 1.27))))
          (number "22" (effects (font (size 1.27 1.27))))
        )
        (pin power_in line (at -17.78 50.8 270) (length 2.54)
          (name "DVDD" (effects (font (size 1.27 1.27))))
          (number "23" (effects (font (size 1.27 1.27))))
        )
        (pin output line (at -31.75 -31.75 0) (length 2.54)
          (name "SWCLK" (effects (font (size 1.27 1.27))))
          (number "24" (effects (font (size 1.27 1.27))))
        )
        (pin bidirectional line (at -31.75 -34.29 0) (length 2.54)
          (name "SWD" (effects (font (size 1.27 1.27))))
          (number "25" (effects (font (size 1.27 1.27))))
        )
        (pin input line (at -31.75 -20.32 0) (length 2.54)
          (name "RUN" (effects (font (size 1.27 1.27))))
          (number "26" (effects (font (size 1.27 1.27))))
        )
        (pin bidirectional line (at 31.75 -7.62 180) (length 2.54)
          (name "GPIO16" (effects (font (size 1.27 1.27))))
          (number "27" (effects (font (size 1.27 1.27))))
        )
        (pin bidirectional line (at 31.75 -10.16 180) (length 2.54)
          (name "GPIO17" (effects (font (size 1.27 1.27))))
          (number "28" (effects (font (size 1.27 1.27))))
        )
        (pin bidirectional line (at 31.75 -12.7 180) (length 2.54)
          (name "GPIO18" (effects (font (size 1.27 1.27))))
          (number "29" (effects (font (size 1.27 1.27))))
        )
        (pin bidirectional line (at 31.75 30.48 180) (length 2.54)
          (name "GPIO1" (effects (font (size 1.27 1.27))))
          (number "3" (effects (font (size 1.27 1.27))))
        )
        (pin bidirectional line (at 31.75 -15.24 180) (length 2.54)
          (name "GPIO19" (effects (font (size 1.27 1.27))))
          (number "30" (effects (font (size 1.27 1.27))))
        )
        (pin bidirectional line (at 31.75 -17.78 180) (length 2.54)
          (name "GPIO20" (effects (font (size 1.27 1.27))))
          (number "31" (effects (font (size 1.27 1.27))))
        )
        (pin bidirectional line (at 31.75 -20.32 180) (length 2.54)
          (name "GPIO21" (effects (font (size 1.27 1.27))))
          (number "32" (effects (font (size 1.27 1.27))))
        )
        (pin power_in line (at 1.27 50.8 270) (length 2.54)
          (name "IOVDD" (effects (font (size 1.27 1.27))))
          (number "33" (effects (font (size 1.27 1.27))))
        )
        (pin bidirectional line (at 31.75 -22.86 180) (length 2.54)
          (name "GPIO22" (effects (font (size 1.27 1.27))))
          (number "34" (effects (font (size 1.27 1.27))))
        )
        (pin bidirectional line (at 31.75 -25.4 180) (length 2.54)
          (name "GPIO23" (effects (font (size 1.27 1.27))))
          (number "35" (effects (font (size 1.27 1.27))))
        )
        (pin bidirectional line (at 31.75 -27.94 180) (length 2.54)
          (name "GPIO24" (effects (font (size 1.27 1.27))))
          (number "36" (effects (font (size 1.27 1.27))))
        )
        (pin bidirectional line (at 31.75 -30.48 180) (length 2.54)
          (name "GPIO25" (effects (font (size 1.27 1.27))))
          (number "37" (effects (font (size 1.27 1.27))))
        )
        (pin bidirectional line (at 31.75 -35.56 180) (length 2.54)
          (name "GPIO26_ADC0" (effects (font (size 1.27 1.27))))
          (number "38" (effects (font (size 1.27 1.27))))
        )
        (pin bidirectional line (at 31.75 -38.1 180) (length 2.54)
          (name "GPIO27_ADC1" (effects (font (size 1.27 1.27))))
          (number "39" (effects (font (size 1.27 1.27))))
        )
        (pin bidirectional line (at 31.75 27.94 180) (length 2.54)
          (name "GPIO2" (effects (font (size 1.27 1.27))))
          (number "4" (effects (font (size 1.27 1.27))))
        )
        (pin bidirectional line (at 31.75 -40.64 180) (length 2.54)
          (name "GPIO28_ADC2" (effects (font (size 1.27 1.27))))
          (number "40" (effects (font (size 1.27 1.27))))
        )
        (pin bidirectional line (at 31.75 -43.18 180) (length 2.54)
          (name "GPIO29_ADC3" (effects (font (size 1.27 1.27))))
          (number "41" (effects (font (size 1.27 1.27))))
        )
        (pin power_in line (at -1.27 50.8 270) (length 2.54)
          (name "IOVDD" (effects (font (size 1.27 1.27))))
          (number "42" (effects (font (size 1.27 1.27))))
        )
        (pin power_in line (at 16.51 50.8 270) (length 2.54)
          (name "ADC_AVDD" (effects (font (size 1.27 1.27))))
          (number "43" (effects (font (size 1.27 1.27))))
        )
        (pin power_in line (at -8.89 50.8 270) (length 2.54)
          (name "VREG_IN" (effects (font (size 1.27 1.27))))
          (number "44" (effects (font (size 1.27 1.27))))
        )
        (pin power_out line (at -12.7 50.8 270) (length 2.54)
          (name "VREG_VOUT" (effects (font (size 1.27 1.27))))
          (number "45" (effects (font (size 1.27 1.27))))
        )
        (pin bidirectional line (at 31.75 40.64 180) (length 2.54)
          (name "USB_DM" (effects (font (size 1.27 1.27))))
          (number "46" (effects (font (size 1.27 1.27))))
        )
        (pin bidirectional line (at 31.75 43.18 180) (length 2.54)
          (name "USB_DP" (effects (font (size 1.27 1.27))))
          (number "47" (effects (font (size 1.27 1.27))))
        )
        (pin power_in line (at 12.7 50.8 270) (length 2.54)
          (name "USB_VDD" (effects (font (size 1.27 1.27))))
          (number "48" (effects (font (size 1.27 1.27))))
        )
        (pin power_in line (at -3.81 50.8 270) (length 2.54)
          (name "IOVDD" (effects (font (size 1.27 1.27))))
          (number "49" (effects (font (size 1.27 1.27))))
        )
        (pin bidirectional line (at 31.75 25.4 180) (length 2.54)
          (name "GPIO3" (effects (font (size 1.27 1.27))))
          (number "5" (effects (font (size 1.27 1.27))))
        )
        (pin power_in line (at -20.32 50.8 270) (length 2.54)
          (name "DVDD" (effects (font (size 1.27 1.27))))
          (number "50" (effects (font (size 1.27 1.27))))
        )
        (pin bidirectional line (at -31.75 20.32 0) (length 2.54)
          (name "QSPI_SD3" (effects (font (size 1.27 1.27))))
          (number "51" (effects (font (size 1.27 1.27))))
        )
        (pin output line (at -31.75 16.51 0) (length 2.54)
          (name "QSPI_SCLK" (effects (font (size 1.27 1.27))))
          (number "52" (effects (font (size 1.27 1.27))))
        )
        (pin bidirectional line (at -31.75 27.94 0) (length 2.54)
          (name "QSPI_SD0" (effects (font (size 1.27 1.27))))
          (number "53" (effects (font (size 1.27 1.27))))
        )
        (pin bidirectional line (at -31.75 22.86 0) (length 2.54)
          (name "QSPI_SD2" (effects (font (size 1.27 1.27))))
          (number "54" (effects (font (size 1.27 1.27))))
        )
        (pin bidirectional line (at -31.75 25.4 0) (length 2.54)
          (name "QSPI_SD1" (effects (font (size 1.27 1.27))))
          (number "55" (effects (font (size 1.27 1.27))))
        )
        (pin bidirectional line (at -31.75 31.75 0) (length 2.54)
          (name "QSPI_SS" (effects (font (size 1.27 1.27))))
          (number "56" (effects (font (size 1.27 1.27))))
        )
        (pin power_in line (at 0 -50.8 90) (length 2.54)
          (name "GND" (effects (font (size 1.27 1.27))))
          (number "57" (effects (font (size 1.27 1.27))))
        )
        (pin bidirectional line (at 31.75 22.86 180) (length 2.54)
          (name "GPIO4" (effects (font (size 1.27 1.27))))
          (number "6" (effects (font (size 1.27 1.27))))
        )
        (pin bidirectional line (at 31.75 20.32 180) (length 2.54)
          (name "GPIO5" (effects (font (size 1.27 1.27))))
          (number "7" (effects (font (size 1.27 1.27))))
        )
        (pin bidirectional line (at 31.75 17.78 180) (length 2.54)
          (name "GPIO6" (effects (font (size 1.27 1.27))))
          (number "8" (effects (font (size 1.27 1.27))))
        )
        (pin bidirectional line (at 31.75 15.24 180) (length 2.54)
          (name "GPIO7" (effects (font (size 1.27 1.27))))
          (number "9" (effects (font (size 1.27 1.27))))
        )
      )
    )
    (symbol "Memory_Flash:W25Q32JVSS" (in_bom yes) (on_board yes)
      (property "Reference" "U" (id 0) (at -8.89 8.89 0)
        (effects (font (size 1.27 1.27)))
      )
      (property "Value" "W25Q32JVSS" (id 1) (at 7.62 8.89 0)
        (effects (font (size 1.27 1.27)))
      )
      (property "Footprint" "Package_SO:SOIC-8_5.23x5.23mm_P1.27mm" (id 2) (at 0 0 0)
        (effects (font (size 1.27 1.27)) hide)
      )
      (property "Datasheet" "http://www.winbond.com/resource-files/w25q32jv%20revg%2003272018%20plus.pdf" (id 3) (at 0 0 0)
        (effects (font (size 1.27 1.27)) hide)
      )
      (property "ki_keywords" "flash memory SPI" (id 4) (at 0 0 0)
        (effects (font (size 1.27 1.27)) hide)
      )
      (property "ki_description" "32Mb Serial Flash Memory, Standard/Dual/Quad SPI, SOIC-8" (id 5) (at 0 0 0)
        (effects (font (size 1.27 1.27)) hide)
      )
      (property "ki_fp_filters" "SOIC*5.23x5.23mm*P1.27mm*" (id 6) (at 0 0 0)
        (effects (font (size 1.27 1.27)) hide)
      )
      (symbol "W25Q32JVSS_0_1"
        (rectangle (start -10.16 7.62) (end 10.16 -7.62)
          (stroke (width 0.254) (type default) (color 0 0 0 0))
          (fill (type background))
        )
      )
      (symbol "W25Q32JVSS_1_1"
        (pin input line (at -12.7 2.54 0) (length 2.54)
          (name "~{CS}" (effects (font (size 1.27 1.27))))
          (number "1" (effects (font (size 1.27 1.27))))
        )
        (pin bidirectional line (at 12.7 2.54 180) (length 2.54)
          (name "DO(IO1)" (effects (font (size 1.27 1.27))))
          (number "2" (effects (font (size 1.27 1.27))))
        )
        (pin bidirectional line (at 12.7 -2.54 180) (length 2.54)
          (name "IO2" (effects (font (size 1.27 1.27))))
          (number "3" (effects (font (size 1.27 1.27))))
        )
        (pin power_in line (at 0 -10.16 90) (length 2.54)
          (name "GND" (effects (font (size 1.27 1.27))))
          (number "4" (effects (font (size 1.27 1.27))))
        )
        (pin bidirectional line (at 12.7 5.08 180) (length 2.54)
          (name "DI(IO0)" (effects (font (size 1.27 1.27))))
          (number "5" (effects (font (size 1.27 1.27))))
        )
        (pin input line (at -12.7 -2.54 0) (length 2.54)
          (name "CLK" (effects (font (size 1.27 1.27))))
          (number "6" (effects (font (size 1.27 1.27))))
        )
        (pin bidirectional line (at 12.7 -5.08 180) (length 2.54)
          (name "IO3" (effects (font (size 1.27 1.27))))
          (number "7" (effects (font (size 1.27 1.27))))
        )
        (pin power_in line (at 0 10.16 270) (length 2.54)
          (name "VCC" (effects (font (size 1.27 1.27))))
          (number "8" (effects (font (size 1.27 1.27))))
        )
      )
    )
    (symbol "Regulators:BL9161-33BARN" (in_bom yes) (on_board yes)
      (property "Reference" "U" (id 0) (at 0 7.62 0)
        (effects (font (size 1.27 1.27)))
      )
      (property "Value" "BL9161-33BARN" (id 1) (at 0 5.08 0)
        (effects (font (size 1.27 1.27)))
      )
      (property "Footprint" "Package_TO_SOT_SMD:SOT-23-5" (id 2) (at -22.86 11.43 0)
        (effects (font (size 1.27 1.27)) hide)
      )
      (property "Datasheet" "https://datasheet.lcsc.com/lcsc/2105242039_BL-Shanghai-Belling-BL9161-33BARN_C2826592.pdf" (id 3) (at -22.86 11.43 0)
        (effects (font (size 1.27 1.27)) hide)
      )
      (symbol "BL9161-33BARN_0_0"
        (pin power_in line (at -8.89 1.27 0) (length 2.54)
          (name "VIN" (effects (font (size 1.27 1.27))))
          (number "1" (effects (font (size 1.27 1.27))))
        )
        (pin power_in line (at 8.89 -1.27 180) (length 2.54)
          (name "GND" (effects (font (size 1.27 1.27))))
          (number "2" (effects (font (size 1.27 1.27))))
        )
        (pin input line (at -8.89 -1.27 0) (length 2.54)
          (name "CE" (effects (font (size 1.27 1.27))))
          (number "3" (effects (font (size 1.27 1.27))))
        )
        (pin power_out line (at 8.89 1.27 180) (length 2.54)
          (name "VOUT" (effects (font (size 1.27 1.27))))
          (number "5" (effects (font (size 1.27 1.27))))
        )
      )
      (symbol "BL9161-33BARN_0_1"
        (rectangle (start -6.35 3.81) (end 6.35 -3.81)
          (stroke (width 0.1524) (type default) (color 0 0 0 0))
          (fill (type background))
        )
      )
    )
    (symbol "Switch:SW_Push" (pin_numbers hide) (pin_names (offset 1.016) hide) (in_bom yes) (on_board yes)
      (property "Reference" "SW" (id 0) (at 1.27 2.54 0)
        (effects (font (size 1.27 1.27)) (justify left))
      )
      (property "Value" "SW_Push" (id 1) (at 0 -1.524 0)
        (effects (font (size 1.27 1.27)))
      )
      (property "Footprint" "" (id 2) (at 0 5.08 0)
        (effects (font (size 1.27 1.27)) hide)
      )
      (property "Datasheet" "~" (id 3) (at 0 5.08 0)
        (effects (font (size 1.27 1.27)) hide)
      )
      (property "ki_keywords" "switch normally-open pushbutton push-button" (id 4) (at 0 0 0)
        (effects (font (size 1.27 1.27)) hide)
      )
      (property "ki_description" "Push button switch, generic, two pins" (id 5) (at 0 0 0)
        (effects (font (size 1.27 1.27)) hide)
      )
      (symbol "SW_Push_0_1"
        (circle (center -2.032 0) (radius 0.508)
          (stroke (width 0) (type default) (color 0 0 0 0))
          (fill (type none))
        )
        (polyline
          (pts
            (xy 0 1.27)
            (xy 0 3.048)
          )
          (stroke (width 0) (type default) (color 0 0 0 0))
          (fill (type none))
        )
        (polyline
          (pts
            (xy 2.54 1.27)
            (xy -2.54 1.27)
          )
          (stroke (width 0) (type default) (color 0 0 0 0))
          (fill (type none))
        )
        (circle (center 2.032 0) (radius 0.508)
          (stroke (width 0) (type default) (color 0 0 0 0))
          (fill (type none))
        )
        (pin passive line (at -5.08 0 0) (length 2.54)
          (name "1" (effects (font (size 1.27 1.27))))
          (number "1" (effects (font (size 1.27 1.27))))
        )
        (pin passive line (at 5.08 0 180) (length 2.54)
          (name "2" (effects (font (size 1.27 1.27))))
          (number "2" (effects (font (size 1.27 1.27))))
        )
      )
    )
    (symbol "power:+1V1" (power) (pin_names (offset 0)) (in_bom yes) (on_board yes)
      (property "Reference" "#PWR" (id 0) (at 0 -3.81 0)
        (effects (font (size 1.27 1.27)) hide)
      )
      (property "Value" "+1V1" (id 1) (at 0 3.556 0)
        (effects (font (size 1.27 1.27)))
      )
      (property "Footprint" "" (id 2) (at 0 0 0)
        (effects (font (size 1.27 1.27)) hide)
      )
      (property "Datasheet" "" (id 3) (at 0 0 0)
        (effects (font (size 1.27 1.27)) hide)
      )
      (property "ki_keywords" "global power" (id 4) (at 0 0 0)
        (effects (font (size 1.27 1.27)) hide)
      )
      (property "ki_description" "Power symbol creates a global label with name \"+1V1\"" (id 5) (at 0 0 0)
        (effects (font (size 1.27 1.27)) hide)
      )
      (symbol "+1V1_0_1"
        (polyline
          (pts
            (xy -0.762 1.27)
            (xy 0 2.54)
          )
          (stroke (width 0) (type default) (color 0 0 0 0))
          (fill (type none))
        )
        (polyline
          (pts
            (xy 0 0)
            (xy 0 2.54)
          )
          (stroke (width 0) (type default) (color 0 0 0 0))
          (fill (type none))
        )
        (polyline
          (pts
            (xy 0 2.54)
            (xy 0.762 1.27)
          )
          (stroke (width 0) (type default) (color 0 0 0 0))
          (fill (type none))
        )
      )
      (symbol "+1V1_1_1"
        (pin power_in line (at 0 0 90) (length 0) hide
          (name "+1V1" (effects (font (size 1.27 1.27))))
          (number "1" (effects (font (size 1.27 1.27))))
        )
      )
    )
    (symbol "power:+3V3" (power) (pin_names (offset 0)) (in_bom yes) (on_board yes)
      (property "Reference" "#PWR" (id 0) (at 0 -3.81 0)
        (effects (font (size 1.27 1.27)) hide)
      )
      (property "Value" "+3V3" (id 1) (at 0 3.556 0)
        (effects (font (size 1.27 1.27)))
      )
      (property "Footprint" "" (id 2) (at 0 0 0)
        (effects (font (size 1.27 1.27)) hide)
      )
      (property "Datasheet" "" (id 3) (at 0 0 0)
        (effects (font (size 1.27 1.27)) hide)
      )
      (property "ki_keywords" "global power" (id 4) (at 0 0 0)
        (effects (font (size 1.27 1.27)) hide)
      )
      (property "ki_description" "Power symbol creates a global label with name \"+3V3\"" (id 5) (at 0 0 0)
        (effects (font (size 1.27 1.27)) hide)
      )
      (symbol "+3V3_0_1"
        (polyline
          (pts
            (xy -0.762 1.27)
            (xy 0 2.54)
          )
          (stroke (width 0) (type default) (color 0 0 0 0))
          (fill (type none))
        )
        (polyline
          (pts
            (xy 0 0)
            (xy 0 2.54)
          )
          (stroke (width 0) (type default) (color 0 0 0 0))
          (fill (type none))
        )
        (polyline
          (pts
            (xy 0 2.54)
            (xy 0.762 1.27)
          )
          (stroke (width 0) (type default) (color 0 0 0 0))
          (fill (type none))
        )
      )
      (symbol "+3V3_1_1"
        (pin power_in line (at 0 0 90) (length 0) hide
          (name "+3V3" (effects (font (size 1.27 1.27))))
          (number "1" (effects (font (size 1.27 1.27))))
        )
      )
    )
    (symbol "power:GND" (power) (pin_names (offset 0)) (in_bom yes) (on_board yes)
      (property "Reference" "#PWR" (id 0) (at 0 -6.35 0)
        (effects (font (size 1.27 1.27)) hide)
      )
      (property "Value" "GND" (id 1) (at 0 -3.81 0)
        (effects (font (size 1.27 1.27)))
      )
      (property "Footprint" "" (id 2) (at 0 0 0)
        (effects (font (size 1.27 1.27)) hide)
      )
      (property "Datasheet" "" (id 3) (at 0 0 0)
        (effects (font (size 1.27 1.27)) hide)
      )
      (property "ki_keywords" "global power" (id 4) (at 0 0 0)
        (effects (font (size 1.27 1.27)) hide)
      )
      (property "ki_description" "Power symbol creates a global label with name \"GND\" , ground" (id 5) (at 0 0 0)
        (effects (font (size 1.27 1.27)) hide)
      )
      (symbol "GND_0_1"
        (polyline
          (pts
            (xy 0 0)
            (xy 0 -1.27)
            (xy 1.27 -1.27)
            (xy 0 -2.54)
            (xy -1.27 -1.27)
            (xy 0 -1.27)
          )
          (stroke (width 0) (type default) (color 0 0 0 0))
          (fill (type none))
        )
      )
      (symbol "GND_1_1"
        (pin power_in line (at 0 0 270) (length 0) hide
          (name "GND" (effects (font (size 1.27 1.27))))
          (number "1" (effects (font (size 1.27 1.27))))
        )
      )
    )
  )


  (junction (at 171.45 53.34) (diameter 0) (color 0 0 0 0)
    (uuid 01afaa36-0e74-4e97-9fa4-16b6b8ecd207)
  )
  (junction (at 200.66 44.45) (diameter 0) (color 0 0 0 0)
    (uuid 0e68cc9d-8ae1-4860-8ab4-d91b3c3fe774)
  )
  (junction (at 182.88 53.34) (diameter 0) (color 0 0 0 0)
    (uuid 138e3996-618e-449c-8e3e-04af18a83b60)
  )
  (junction (at 265.43 41.91) (diameter 0) (color 0 0 0 0)
    (uuid 212af5c4-ea00-475c-b351-0df5637b207f)
  )
  (junction (at 224.79 36.83) (diameter 0) (color 0 0 0 0)
    (uuid 35bfc303-b885-4961-93ee-82eed6a36710)
  )
  (junction (at 245.11 36.83) (diameter 0) (color 0 0 0 0)
    (uuid 370cb2dc-ed38-41f8-9a17-785f93b9c173)
  )
  (junction (at 152.4 41.91) (diameter 0) (color 0 0 0 0)
    (uuid 3c695b93-a37e-43b1-883e-ff81acd1e931)
  )
  (junction (at 204.47 36.83) (diameter 0) (color 0 0 0 0)
    (uuid 3fc72189-7fcf-46b9-bd16-3722a62a0f1d)
  )
  (junction (at 245.11 41.91) (diameter 0) (color 0 0 0 0)
    (uuid 4bc4bf04-6b3d-4a52-98e6-bedb4366432c)
  )
  (junction (at 171.45 44.45) (diameter 0) (color 0 0 0 0)
    (uuid 58615da5-a411-4394-aba3-50647b13d288)
  )
  (junction (at 214.63 41.91) (diameter 0) (color 0 0 0 0)
    (uuid 5b995b98-9d67-4677-99d7-972e8efdcafb)
  )
  (junction (at 180.34 53.34) (diameter 0) (color 0 0 0 0)
    (uuid 5dfba11e-4d5a-4ff9-ad24-e3ca21decde7)
  )
  (junction (at 187.96 53.34) (diameter 0) (color 0 0 0 0)
    (uuid 6110fb62-1c77-4fff-a553-0a6760db87e4)
  )
  (junction (at 200.66 53.34) (diameter 0) (color 0 0 0 0)
    (uuid 6613af1b-c3d2-4c63-9867-2232fd8ccfd4)
  )
  (junction (at 100.33 46.99) (diameter 0) (color 0 0 0 0)
    (uuid 70de0fe3-451c-4fa4-a647-d5065d1b280e)
  )
  (junction (at 162.56 36.83) (diameter 0) (color 0 0 0 0)
    (uuid 7351b2b2-84e9-4763-bb0b-ce591c8d9d8d)
  )
  (junction (at 193.04 53.34) (diameter 0) (color 0 0 0 0)
    (uuid 7504c428-8875-47c3-bf8e-49a6edfb2615)
  )
  (junction (at 171.45 36.83) (diameter 0) (color 0 0 0 0)
    (uuid 796cb3d9-0b80-4de6-9f4f-f6bd117747b3)
  )
  (junction (at 255.27 36.83) (diameter 0) (color 0 0 0 0)
    (uuid 801846e6-d8f1-41f1-9085-80379669897c)
  )
  (junction (at 224.79 41.91) (diameter 0) (color 0 0 0 0)
    (uuid ac67f2bc-a19b-4af3-98df-c90504fc9bd1)
  )
  (junction (at 190.5 53.34) (diameter 0) (color 0 0 0 0)
    (uuid bb554fe4-d9b4-40bf-8276-dab22791b657)
  )
  (junction (at 62.23 39.37) (diameter 0) (color 0 0 0 0)
    (uuid bd1b5daa-58f9-4d8c-9bfe-1c1c67857a00)
  )
  (junction (at 196.85 53.34) (diameter 0) (color 0 0 0 0)
    (uuid bf7ef8a7-0a27-4abe-a48f-f5a1a6d54870)
  )
  (junction (at 74.93 140.97) (diameter 0) (color 0 0 0 0)
    (uuid c7594f7b-45c7-4d23-b16d-7cf0a715a152)
  )
  (junction (at 214.63 36.83) (diameter 0) (color 0 0 0 0)
    (uuid c83aeabe-a97f-422d-b280-70f1909226b6)
  )
  (junction (at 234.95 36.83) (diameter 0) (color 0 0 0 0)
    (uuid ca1ad7e7-5f05-4067-9982-98c05c0999e4)
  )
  (junction (at 185.42 53.34) (diameter 0) (color 0 0 0 0)
    (uuid cd8f281c-b778-4038-868c-f90c9d8d1aa7)
  )
  (junction (at 100.33 39.37) (diameter 0) (color 0 0 0 0)
    (uuid ceb042ed-3cb7-4ba3-b312-2d5b8fc21900)
  )
  (junction (at 62.23 86.36) (diameter 0) (color 0 0 0 0)
    (uuid d389f9d1-cf15-4b22-a35a-c9116dde3038)
  )
  (junction (at 166.37 53.34) (diameter 0) (color 0 0 0 0)
    (uuid d4e3612b-3bca-499c-ab20-639e17fcfee1)
  )
  (junction (at 255.27 41.91) (diameter 0) (color 0 0 0 0)
    (uuid e2e1de55-0fe8-4544-a310-4091698c9438)
  )
  (junction (at 200.66 36.83) (diameter 0) (color 0 0 0 0)
    (uuid e3c77fe9-d818-45fb-b5e2-0612b530252e)
  )
  (junction (at 234.95 41.91) (diameter 0) (color 0 0 0 0)
    (uuid e49a3c85-fdf0-4f2b-a2a3-62c9270b7c47)
  )
  (junction (at 71.12 39.37) (diameter 0) (color 0 0 0 0)
    (uuid e9409fcd-51ff-4282-9924-0757d31ed458)
  )
  (junction (at 93.98 140.97) (diameter 0) (color 0 0 0 0)
    (uuid e98019d6-474b-4c6f-9294-c37b330fdeaf)
  )
  (junction (at 74.93 133.35) (diameter 0) (color 0 0 0 0)
    (uuid eba5d15f-6c0b-4e38-82d0-6ee36a0e4c78)
  )
  (junction (at 39.37 55.88) (diameter 0) (color 0 0 0 0)
    (uuid f0d8454b-d83d-4b29-8f08-174f231688f9)
  )
  (junction (at 77.47 67.31) (diameter 0) (color 0 0 0 0)
    (uuid fba68292-6434-4fca-82a9-1ccb2e320ec1)
  )

  (no_connect (at 49.53 49.53) (uuid c1e42cec-45f7-4519-babc-735c24e7d2b5))

  (wire (pts (xy 245.11 41.91) (xy 255.27 41.91))
    (stroke (width 0) (type default) (color 0 0 0 0))
    (uuid 0372b664-80bb-40ed-8b1a-bed6d6c0deaf)
  )
  (wire (pts (xy 41.91 55.88) (xy 39.37 55.88))
    (stroke (width 0) (type default) (color 0 0 0 0))
    (uuid 08d0eea1-fa00-4895-ae2b-8a0125e86c56)
  )
  (wire (pts (xy 77.47 66.04) (xy 77.47 67.31))
    (stroke (width 0) (type default) (color 0 0 0 0))
    (uuid 0b8fc5cc-5ec1-4453-9476-1bcebfc16abd)
  )
  (wire (pts (xy 185.42 53.34) (xy 187.96 53.34))
    (stroke (width 0) (type default) (color 0 0 0 0))
    (uuid 0c68c266-d2d2-4cd7-80c4-cfa105210401)
  )
  (wire (pts (xy 140.97 72.39) (xy 152.4 72.39))
    (stroke (width 0) (type default) (color 0 0 0 0))
    (uuid 154a5b28-d85e-439d-a327-df2f906a733a)
  )
  (wire (pts (xy 41.91 54.61) (xy 41.91 55.88))
    (stroke (width 0) (type default) (color 0 0 0 0))
    (uuid 15590248-4a37-4ba7-92b4-2dc7e6532495)
  )
  (wire (pts (xy 74.93 41.91) (xy 71.12 41.91))
    (stroke (width 0) (type default) (color 0 0 0 0))
    (uuid 172628a2-a37e-47f3-94fd-2ae507b4b4ee)
  )
  (wire (pts (xy 162.56 36.83) (xy 171.45 36.83))
    (stroke (width 0) (type default) (color 0 0 0 0))
    (uuid 18853fb0-124a-4600-a0b7-7e39436004c8)
  )
  (wire (pts (xy 224.79 36.83) (xy 234.95 36.83))
    (stroke (width 0) (type default) (color 0 0 0 0))
    (uuid 19e866f5-b74f-4de2-82c1-159c4a8aa73e)
  )
  (wire (pts (xy 140.97 76.2) (xy 152.4 76.2))
    (stroke (width 0) (type default) (color 0 0 0 0))
    (uuid 1a1c7112-ef8d-4ffd-9263-9ba4e85286db)
  )
  (wire (pts (xy 100.33 39.37) (xy 92.71 39.37))
    (stroke (width 0) (type default) (color 0 0 0 0))
    (uuid 1bfd2078-63c9-469b-92f6-69caeb5bb66b)
  )
  (wire (pts (xy 49.53 46.99) (xy 58.42 46.99))
    (stroke (width 0) (type default) (color 0 0 0 0))
    (uuid 1c72d226-d329-4aba-a670-0eafd9ce2848)
  )
  (wire (pts (xy 215.9 63.5) (xy 218.44 63.5))
    (stroke (width 0) (type default) (color 0 0 0 0))
    (uuid 1c854532-297f-4450-95ac-05aa93713d2f)
  )
  (wire (pts (xy 93.98 140.97) (xy 93.98 144.78))
    (stroke (width 0) (type default) (color 0 0 0 0))
    (uuid 1d93da61-32b5-46d8-b511-f6fb510d7a1e)
  )
  (wire (pts (xy 152.4 36.83) (xy 162.56 36.83))
    (stroke (width 0) (type default) (color 0 0 0 0))
    (uuid 24a8fe81-9b0b-4005-a8e0-52c67afdc0ed)
  )
  (wire (pts (xy 140.97 78.74) (xy 152.4 78.74))
    (stroke (width 0) (type default) (color 0 0 0 0))
    (uuid 2aa0428a-3b21-4137-9483-c390aab4dea2)
  )
  (wire (pts (xy 269.24 41.91) (xy 269.24 44.45))
    (stroke (width 0) (type default) (color 0 0 0 0))
    (uuid 2dcd47ca-86ff-4767-bd29-5389e752302d)
  )
  (wire (pts (xy 49.53 44.45) (xy 58.42 44.45))
    (stroke (width 0) (type default) (color 0 0 0 0))
    (uuid 2e667272-4a47-4c79-b420-6c547536c525)
  )
  (wire (pts (xy 152.4 41.91) (xy 149.86 41.91))
    (stroke (width 0) (type default) (color 0 0 0 0))
    (uuid 308e7764-8c4e-4bfc-9638-7f55e37fef00)
  )
  (wire (pts (xy 140.97 81.28) (xy 152.4 81.28))
    (stroke (width 0) (type default) (color 0 0 0 0))
    (uuid 317dc68c-dbf8-4ddc-8295-78124a842ff3)
  )
  (wire (pts (xy 171.45 44.45) (xy 171.45 53.34))
    (stroke (width 0) (type default) (color 0 0 0 0))
    (uuid 346d39e8-06ec-4d2f-bf69-e2830e7d027c)
  )
  (wire (pts (xy 62.23 74.93) (xy 62.23 86.36))
    (stroke (width 0) (type default) (color 0 0 0 0))
    (uuid 37ac5cce-a924-43ad-8afc-5b746c0a23ce)
  )
  (wire (pts (xy 200.66 44.45) (xy 204.47 44.45))
    (stroke (width 0) (type default) (color 0 0 0 0))
    (uuid 38df8c51-1a32-4fa6-af8a-8f01c9bf3f60)
  )
  (wire (pts (xy 93.98 133.35) (xy 93.98 140.97))
    (stroke (width 0) (type default) (color 0 0 0 0))
    (uuid 38e74f82-6122-4da4-999a-b199b0f4b289)
  )
  (wire (pts (xy 100.33 35.56) (xy 100.33 39.37))
    (stroke (width 0) (type default) (color 0 0 0 0))
    (uuid 3fc500f1-07a4-4b35-9451-520ec5307e18)
  )
  (wire (pts (xy 101.6 83.82) (xy 90.17 83.82))
    (stroke (width 0) (type default) (color 0 0 0 0))
    (uuid 3ff38811-1a50-408a-ab20-01a9b6c79778)
  )
  (wire (pts (xy 39.37 55.88) (xy 39.37 57.15))
    (stroke (width 0) (type default) (color 0 0 0 0))
    (uuid 47a2ccb8-47b9-427f-b0b2-4ad04eeb8f13)
  )
  (wire (pts (xy 96.52 41.91) (xy 96.52 46.99))
    (stroke (width 0) (type default) (color 0 0 0 0))
    (uuid 4b75cd37-bd0b-451f-96f5-556ca9afaddc)
  )
  (wire (pts (xy 214.63 36.83) (xy 224.79 36.83))
    (stroke (width 0) (type default) (color 0 0 0 0))
    (uuid 4d45c1bb-54cb-4950-989c-8269c9ad00af)
  )
  (wire (pts (xy 255.27 41.91) (xy 265.43 41.91))
    (stroke (width 0) (type default) (color 0 0 0 0))
    (uuid 4e681f03-3ba8-4d36-ac30-72114967d238)
  )
  (wire (pts (xy 233.68 63.5) (xy 226.06 63.5))
    (stroke (width 0) (type default) (color 0 0 0 0))
    (uuid 57acceb3-0a05-4b5d-9727-66d5e4b7828d)
  )
  (wire (pts (xy 77.47 67.31) (xy 77.47 78.74))
    (stroke (width 0) (type default) (color 0 0 0 0))
    (uuid 630f29ca-00ce-4207-8f97-0efa252d2665)
  )
  (wire (pts (xy 200.66 31.75) (xy 200.66 36.83))
    (stroke (width 0) (type default) (color 0 0 0 0))
    (uuid 63e751ca-03c6-46f2-b99c-fd92f2583a4d)
  )
  (wire (pts (xy 71.12 39.37) (xy 74.93 39.37))
    (stroke (width 0) (type default) (color 0 0 0 0))
    (uuid 6402fb9c-63d4-4da6-a181-41e244c8353b)
  )
  (wire (pts (xy 62.23 39.37) (xy 71.12 39.37))
    (stroke (width 0) (type default) (color 0 0 0 0))
    (uuid 6831477f-8908-4b91-a0e4-7ccb9a01777b)
  )
  (wire (pts (xy 96.52 46.99) (xy 100.33 46.99))
    (stroke (width 0) (type default) (color 0 0 0 0))
    (uuid 6d12a710-bf11-4c31-ba28-27b147ab1806)
  )
  (wire (pts (xy 204.47 41.91) (xy 214.63 41.91))
    (stroke (width 0) (type default) (color 0 0 0 0))
    (uuid 6d1ccde3-b44e-419a-b63c-1133128f695f)
  )
  (wire (pts (xy 53.34 91.44) (xy 64.77 91.44))
    (stroke (width 0) (type default) (color 0 0 0 0))
    (uuid 71a5c61b-66c6-4220-9264-84c977063c82)
  )
  (wire (pts (xy 71.12 41.91) (xy 71.12 39.37))
    (stroke (width 0) (type default) (color 0 0 0 0))
    (uuid 77b75719-17ae-4102-85b7-202bb2b6d801)
  )
  (wire (pts (xy 255.27 36.83) (xy 265.43 36.83))
    (stroke (width 0) (type default) (color 0 0 0 0))
    (uuid 79958718-05ec-4061-a3eb-4fda663d956f)
  )
  (wire (pts (xy 140.97 106.68) (xy 152.4 106.68))
    (stroke (width 0) (type default) (color 0 0 0 0))
    (uuid 7aa2ae2c-6ae5-4b7f-9b02-5a1509f42a13)
  )
  (wire (pts (xy 101.6 91.44) (xy 90.17 91.44))
    (stroke (width 0) (type default) (color 0 0 0 0))
    (uuid 7c94d414-60b4-4a77-91c8-e3a54388eaee)
  )
  (wire (pts (xy 175.26 53.34) (xy 180.34 53.34))
    (stroke (width 0) (type default) (color 0 0 0 0))
    (uuid 86c2e6b2-a261-4b4e-b05a-3370fac71b18)
  )
  (wire (pts (xy 193.04 53.34) (xy 196.85 53.34))
    (stroke (width 0) (type default) (color 0 0 0 0))
    (uuid 8c913c9d-8c39-417f-91e3-dd52ccc81a76)
  )
  (wire (pts (xy 140.97 83.82) (xy 152.4 83.82))
    (stroke (width 0) (type default) (color 0 0 0 0))
    (uuid 966dc019-1d6f-44e2-a8ac-3f8885f998eb)
  )
  (wire (pts (xy 57.15 140.97) (xy 62.23 140.97))
    (stroke (width 0) (type default) (color 0 0 0 0))
    (uuid 978239b5-2c1e-428a-b67e-e36af7a7e7ec)
  )
  (wire (pts (xy 245.11 36.83) (xy 255.27 36.83))
    (stroke (width 0) (type default) (color 0 0 0 0))
    (uuid 9bd0066f-ddf8-4977-8f2a-31a3bec0b90d)
  )
  (wire (pts (xy 218.44 60.96) (xy 215.9 60.96))
    (stroke (width 0) (type default) (color 0 0 0 0))
    (uuid 9e1d535a-d331-4031-9ed6-0791be6f21fc)
  )
  (wire (pts (xy 200.66 36.83) (xy 204.47 36.83))
    (stroke (width 0) (type default) (color 0 0 0 0))
    (uuid a17ab80a-4544-4ca9-8dac-b201109419cc)
  )
  (wire (pts (xy 62.23 86.36) (xy 64.77 86.36))
    (stroke (width 0) (type default) (color 0 0 0 0))
    (uuid a2262c82-8685-44a3-aec7-0efb358d7d90)
  )
  (wire (pts (xy 77.47 67.31) (xy 87.63 67.31))
    (stroke (width 0) (type default) (color 0 0 0 0))
    (uuid a3bc15f5-a90e-4ccc-9fd4-7759fe079ae7)
  )
  (wire (pts (xy 91.44 140.97) (xy 93.98 140.97))
    (stroke (width 0) (type default) (color 0 0 0 0))
    (uuid a3c1c61b-2d45-4525-9ada-fda0571f2e4e)
  )
  (wire (pts (xy 30.48 86.36) (xy 31.75 86.36))
    (stroke (width 0) (type default) (color 0 0 0 0))
    (uuid a527347b-b1f4-40fa-8d31-043b10f8d057)
  )
  (wire (pts (xy 233.68 60.96) (xy 226.06 60.96))
    (stroke (width 0) (type default) (color 0 0 0 0))
    (uuid adac4a5f-3b0d-4626-bb5c-51012bac9fa4)
  )
  (wire (pts (xy 52.07 86.36) (xy 62.23 86.36))
    (stroke (width 0) (type default) (color 0 0 0 0))
    (uuid aed65514-9250-4741-81bc-9cff989877ce)
  )
  (wire (pts (xy 190.5 53.34) (xy 193.04 53.34))
    (stroke (width 0) (type default) (color 0 0 0 0))
    (uuid af58e4bb-4200-460e-8ee3-96b888cb8aa6)
  )
  (wire (pts (xy 39.37 54.61) (xy 39.37 55.88))
    (stroke (width 0) (type default) (color 0 0 0 0))
    (uuid b0214d30-2361-4f47-b855-0b57ff58cb37)
  )
  (wire (pts (xy 187.96 53.34) (xy 190.5 53.34))
    (stroke (width 0) (type default) (color 0 0 0 0))
    (uuid b3ab4799-a477-4ac9-9f11-257845fbf994)
  )
  (wire (pts (xy 182.88 53.34) (xy 185.42 53.34))
    (stroke (width 0) (type default) (color 0 0 0 0))
    (uuid b4a3fe71-6534-4cb0-9c48-88f64695deeb)
  )
  (wire (pts (xy 74.93 133.35) (xy 86.36 133.35))
    (stroke (width 0) (type default) (color 0 0 0 0))
    (uuid b6358249-59d8-440a-beb9-6afad4e2d9cd)
  )
  (wire (pts (xy 162.56 44.45) (xy 171.45 44.45))
    (stroke (width 0) (type default) (color 0 0 0 0))
    (uuid b84c4f06-f42f-474b-bd4a-daacc889fbec)
  )
  (wire (pts (xy 163.83 53.34) (xy 166.37 53.34))
    (stroke (width 0) (type default) (color 0 0 0 0))
    (uuid bfbc83a8-4187-4f05-8d79-8c340e4b9a2d)
  )
  (wire (pts (xy 196.85 53.34) (xy 200.66 53.34))
    (stroke (width 0) (type default) (color 0 0 0 0))
    (uuid c2614fb3-7a92-4919-9f3e-c12796fc14a0)
  )
  (wire (pts (xy 140.97 87.63) (xy 152.4 87.63))
    (stroke (width 0) (type default) (color 0 0 0 0))
    (uuid c2fdef2e-d3c4-43f9-a538-8a9bd1a57255)
  )
  (wire (pts (xy 149.86 41.91) (xy 149.86 44.45))
    (stroke (width 0) (type default) (color 0 0 0 0))
    (uuid c4ff6761-70f9-41e3-8016-f65d5d862166)
  )
  (wire (pts (xy 234.95 41.91) (xy 245.11 41.91))
    (stroke (width 0) (type default) (color 0 0 0 0))
    (uuid c6589208-8be0-4b4a-8faf-a30cff8673a8)
  )
  (wire (pts (xy 214.63 41.91) (xy 224.79 41.91))
    (stroke (width 0) (type default) (color 0 0 0 0))
    (uuid ca5d3e5b-b647-4d49-8428-4b87abc582fc)
  )
  (wire (pts (xy 265.43 41.91) (xy 269.24 41.91))
    (stroke (width 0) (type default) (color 0 0 0 0))
    (uuid cd39c5b7-6942-4516-883f-ff8f548318b0)
  )
  (wire (pts (xy 162.56 41.91) (xy 152.4 41.91))
    (stroke (width 0) (type default) (color 0 0 0 0))
    (uuid cfc12cec-65ca-473b-a7a4-f07ecca298b1)
  )
  (wire (pts (xy 41.91 86.36) (xy 44.45 86.36))
    (stroke (width 0) (type default) (color 0 0 0 0))
    (uuid d1904754-40f7-41c2-a3aa-b501b434200c)
  )
  (wire (pts (xy 166.37 53.34) (xy 171.45 53.34))
    (stroke (width 0) (type default) (color 0 0 0 0))
    (uuid d34aecbf-c4cd-41d7-8e82-f048a0d154cc)
  )
  (wire (pts (xy 101.6 86.36) (xy 90.17 86.36))
    (stroke (width 0) (type default) (color 0 0 0 0))
    (uuid d6219d58-a63e-4bf7-b9eb-cc06ae811dda)
  )
  (wire (pts (xy 49.53 39.37) (xy 62.23 39.37))
    (stroke (width 0) (type default) (color 0 0 0 0))
    (uuid d6f857d7-e379-4fba-9e38-c7345e9ed0ae)
  )
  (wire (pts (xy 171.45 36.83) (xy 171.45 44.45))
    (stroke (width 0) (type default) (color 0 0 0 0))
    (uuid db2b51aa-cb24-44b1-ae43-ba34752f0f2d)
  )
  (wire (pts (xy 234.95 36.83) (xy 245.11 36.83))
    (stroke (width 0) (type default) (color 0 0 0 0))
    (uuid df2bd834-92cc-4047-b088-03124cec6581)
  )
  (wire (pts (xy 74.93 140.97) (xy 86.36 140.97))
    (stroke (width 0) (type default) (color 0 0 0 0))
    (uuid df2d7c19-1354-46f7-b912-d01276083612)
  )
  (wire (pts (xy 224.79 41.91) (xy 234.95 41.91))
    (stroke (width 0) (type default) (color 0 0 0 0))
    (uuid e49e7a22-1723-4f1b-99a3-85f249e9849d)
  )
  (wire (pts (xy 91.44 133.35) (xy 93.98 133.35))
    (stroke (width 0) (type default) (color 0 0 0 0))
    (uuid e644b7e8-3f0e-4e82-9d29-e83ff9157ecf)
  )
  (wire (pts (xy 101.6 93.98) (xy 90.17 93.98))
    (stroke (width 0) (type default) (color 0 0 0 0))
    (uuid e73c12ef-a5e9-4ce7-86c9-3aa5286dd4bd)
  )
  (wire (pts (xy 100.33 44.45) (xy 100.33 46.99))
    (stroke (width 0) (type default) (color 0 0 0 0))
    (uuid e82a0d16-a6d2-4d59-b947-f7937a0a0abe)
  )
  (wire (pts (xy 30.48 88.9) (xy 30.48 86.36))
    (stroke (width 0) (type default) (color 0 0 0 0))
    (uuid e94ddf46-833d-4701-b13b-24831b6dd908)
  )
  (wire (pts (xy 87.63 67.31) (xy 87.63 68.58))
    (stroke (width 0) (type default) (color 0 0 0 0))
    (uuid e9d21f0c-d803-4342-87db-f30f235c0ee9)
  )
  (wire (pts (xy 171.45 31.75) (xy 171.45 36.83))
    (stroke (width 0) (type default) (color 0 0 0 0))
    (uuid ece9cfa3-f312-4724-b5df-96247bf55b06)
  )
  (wire (pts (xy 140.97 124.46) (xy 152.4 124.46))
    (stroke (width 0) (type default) (color 0 0 0 0))
    (uuid f1bad3fb-bee3-42dc-9583-718e2729120a)
  )
  (wire (pts (xy 62.23 67.31) (xy 77.47 67.31))
    (stroke (width 0) (type default) (color 0 0 0 0))
    (uuid f4d47a59-34d3-4433-9f89-7ebf8f8ec0d4)
  )
  (wire (pts (xy 92.71 41.91) (xy 96.52 41.91))
    (stroke (width 0) (type default) (color 0 0 0 0))
    (uuid f93339c2-379e-45e5-8819-30217542feb2)
  )
  (wire (pts (xy 140.97 111.76) (xy 152.4 111.76))
    (stroke (width 0) (type default) (color 0 0 0 0))
    (uuid fa461bcb-4a3e-4e21-b5f4-4b12110858e0)
  )
  (wire (pts (xy 69.85 140.97) (xy 74.93 140.97))
    (stroke (width 0) (type default) (color 0 0 0 0))
    (uuid fd160c91-2711-49f3-8e63-8649ffa52a30)
  )
  (wire (pts (xy 180.34 53.34) (xy 182.88 53.34))
    (stroke (width 0) (type default) (color 0 0 0 0))
    (uuid fd2366ef-83d2-48b3-90ab-0df349f9acb7)
  )
  (wire (pts (xy 57.15 133.35) (xy 74.93 133.35))
    (stroke (width 0) (type default) (color 0 0 0 0))
    (uuid fdee144d-21a0-4072-86d5-adcade7d5581)
  )
  (wire (pts (xy 200.66 36.83) (xy 200.66 44.45))
    (stroke (width 0) (type default) (color 0 0 0 0))
    (uuid ff0bd8d3-1e95-4984-8bfa-79e2946e001f)
  )
  (wire (pts (xy 204.47 36.83) (xy 214.63 36.83))
    (stroke (width 0) (type default) (color 0 0 0 0))
    (uuid ff4d973d-ab1b-4930-8b32-a82aed9c6548)
  )
  (wire (pts (xy 200.66 44.45) (xy 200.66 53.34))
    (stroke (width 0) (type default) (color 0 0 0 0))
    (uuid ffaea15c-e227-4879-9bc3-ff99858f5790)
  )

  (label "XIN" (at 57.15 133.35 0)
    (effects (font (size 1.27 1.27)) (justify left bottom))
    (uuid 16e5aa00-fb6b-41f4-80fc-79dfeadc9f56)
  )
  (label "XOUT" (at 140.97 111.76 0)
    (effects (font (size 1.27 1.27)) (justify left bottom))
    (uuid 197c2a78-259e-449f-8302-01297a3aa12d)
  )
  (label "QSPI_SD3" (at 140.97 83.82 0)
    (effects (font (size 1.27 1.27)) (justify left bottom))
    (uuid 27ffab6d-1397-4733-add9-4eca8b81cb06)
  )
  (label "QSPI_SD3" (at 101.6 93.98 180)
    (effects (font (size 1.27 1.27)) (justify right bottom))
    (uuid 287fbab3-5927-42dd-848c-9b760c13ab1d)
  )
  (label "QSPI_SS" (at 140.97 72.39 0)
    (effects (font (size 1.27 1.27)) (justify left bottom))
    (uuid 2aea89a9-99ae-4187-8082-aec07043b16c)
  )
  (label "QSPI_SS" (at 53.34 86.36 0)
    (effects (font (size 1.27 1.27)) (justify left bottom))
    (uuid 546f824b-d34c-44c2-b511-e3aaa2717903)
  )
  (label "QSPI_SD2" (at 101.6 91.44 180)
    (effects (font (size 1.27 1.27)) (justify right bottom))
    (uuid 5c2deb5d-e4e1-44f4-b3f1-d9c6fff9674e)
  )
  (label "QSPI_SCLK" (at 140.97 87.63 0)
    (effects (font (size 1.27 1.27)) (justify left bottom))
    (uuid 628725a8-d6fc-49af-9074-b14f2ccb5468)
  )
  (label "USB_D+" (at 58.42 44.45 180)
    (effects (font (size 1.27 1.27)) (justify right bottom))
    (uuid 69413f18-28c4-4da6-862e-84e8b2bb91dd)
  )
  (label "USB_D-" (at 58.42 46.99 180)
    (effects (font (size 1.27 1.27)) (justify right bottom))
    (uuid 85f324e5-f3d5-43b1-b57b-3fd3c10714d2)
  )
  (label "QSPI_SCLK" (at 53.34 91.44 0)
    (effects (font (size 1.27 1.27)) (justify left bottom))
    (uuid 8b5b2fd4-f72e-4605-9278-1dbe647812b0)
  )
  (label "QSPI_SD2" (at 140.97 81.28 0)
    (effects (font (size 1.27 1.27)) (justify left bottom))
    (uuid 8ca31520-bbe2-4adf-9c3e-f4f021c122a0)
  )
  (label "QSPI_SD0" (at 101.6 83.82 180)
    (effects (font (size 1.27 1.27)) (justify right bottom))
    (uuid 96678796-624a-4a3b-b318-b4da82c159ee)
  )
  (label "XOUT" (at 57.15 140.97 0)
    (effects (font (size 1.27 1.27)) (justify left bottom))
    (uuid 9d9a596d-f084-4c72-b089-bc6e45fad270)
  )
  (label "USB_D-" (at 233.68 63.5 180)
    (effects (font (size 1.27 1.27)) (justify right bottom))
    (uuid a27a769e-3ddd-44ea-a914-45955b785036)
  )
  (label "USB_D+" (at 233.68 60.96 180)
    (effects (font (size 1.27 1.27)) (justify right bottom))
    (uuid b250f021-85f0-4518-8695-c281e6003b9f)
  )
  (label "XIN" (at 140.97 106.68 0)
    (effects (font (size 1.27 1.27)) (justify left bottom))
    (uuid b3b3a116-1e11-41ae-9d0c-32bc9f21c883)
  )
  (label "RUN" (at 140.97 124.46 0)
    (effects (font (size 1.27 1.27)) (justify left bottom))
    (uuid b7197b34-c8ab-4281-ac3c-e7736d72f783)
  )
  (label "QSPI_SD0" (at 140.97 76.2 0)
    (effects (font (size 1.27 1.27)) (justify left bottom))
    (uuid cec55de1-4417-4fbf-bf21-02b7cc5d49f1)
  )
  (label "QSPI_SD1" (at 101.6 86.36 180)
    (effects (font (size 1.27 1.27)) (justify right bottom))
    (uuid f195b52b-10f0-48a6-8bd5-e0738b28f816)
  )
  (label "QSPI_SD1" (at 140.97 78.74 0)
    (effects (font (size 1.27 1.27)) (justify left bottom))
    (uuid f58f4de2-2104-4022-8526-26a89e558789)
  )

  (symbol (lib_id "Device:C_Small") (at 162.56 39.37 0) (unit 1)
    (in_bom yes) (on_board yes) (fields_autoplaced)
    (uuid 024ced39-fd0c-42ce-b10f-3775f8b8a385)
    (property "Reference" "C7" (id 0) (at 165.1 38.1062 0)
      (effects (font (size 1.27 1.27)) (justify left))
    )
    (property "Value" "100n" (id 1) (at 165.1 40.6462 0)
      (effects (font (size 1.27 1.27)) (justify left))
    )
    (property "Footprint" "Capacitor_SMD:C_0603_1608Metric" (id 2) (at 162.56 39.37 0)
      (effects (font (size 1.27 1.27)) hide)
    )
    (property "Datasheet" "~" (id 3) (at 162.56 39.37 0)
      (effects (font (size 1.27 1.27)) hide)
    )
    (pin "1" (uuid c71fbf2f-3dcc-4436-9554-42dbe5bc2189))
    (pin "2" (uuid f1cc7ff4-4039-4181-bdb5-ccf9012bfc60))
  )

  (symbol (lib_id "Device:C_Small") (at 245.11 39.37 0) (unit 1)
    (in_bom yes) (on_board yes) (fields_autoplaced)
    (uuid 076ef873-b89f-4d18-bcc1-2d7d8bdd1a86)
    (property "Reference" "C14" (id 0) (at 247.65 38.1062 0)
      (effects (font (size 1.27 1.27)) (justify left))
    )
    (property "Value" "100n" (id 1) (at 247.65 40.6462 0)
      (effects (font (size 1.27 1.27)) (justify left))
    )
    (property "Footprint" "Capacitor_SMD:C_0603_1608Metric" (id 2) (at 245.11 39.37 0)
      (effects (font (size 1.27 1.27)) hide)
    )
    (property "Datasheet" "~" (id 3) (at 245.11 39.37 0)
      (effects (font (size 1.27 1.27)) hide)
    )
    (pin "1" (uuid 367e1f81-5512-4760-8f6c-71a0352cf8be))
    (pin "2" (uuid 8373550b-8783-4e06-9a33-6e503bea5209))
  )

  (symbol (lib_id "power:GND") (at 149.86 44.45 0) (unit 1)
    (in_bom yes) (on_board yes) (fields_autoplaced)
    (uuid 07f928a4-555a-4cd7-81ba-8597f1638cb2)
    (property "Reference" "#PWR09" (id 0) (at 149.86 50.8 0)
      (effects (font (size 1.27 1.27)) hide)
    )
    (property "Value" "GND" (id 1) (at 149.86 49.53 0))
    (property "Footprint" "" (id 2) (at 149.86 44.45 0)
      (effects (font (size 1.27 1.27)) hide)
    )
    (property "Datasheet" "" (id 3) (at 149.86 44.45 0)
      (effects (font (size 1.27 1.27)) hide)
    )
    (pin "1" (uuid 973b87d7-818a-49b7-9aa5-66e512345a08))
  )

  (symbol (lib_id "Device:C_Small") (at 162.56 46.99 0) (unit 1)
    (in_bom yes) (on_board yes) (fields_autoplaced)
    (uuid 208aef5c-0c95-4cc3-9a65-2cd98df63a09)
    (property "Reference" "C8" (id 0) (at 165.1 45.7262 0)
      (effects (font (size 1.27 1.27)) (justify left))
    )
    (property "Value" "1u" (id 1) (at 165.1 48.2662 0)
      (effects (font (size 1.27 1.27)) (justify left))
    )
    (property "Footprint" "Capacitor_SMD:C_0603_1608Metric" (id 2) (at 162.56 46.99 0)
      (effects (font (size 1.27 1.27)) hide)
    )
    (property "Datasheet" "~" (id 3) (at 162.56 46.99 0)
      (effects (font (size 1.27 1.27)) hide)
    )
    (pin "1" (uuid af9a4f20-7da4-408b-b954-4ec289727238))
    (pin "2" (uuid 8e9c9e9d-0399-4b7a-ac51-c8a3fbe59858))
  )

  (symbol (lib_id "power:GND") (at 30.48 88.9 0) (unit 1)
    (in_bom yes) (on_board yes) (fields_autoplaced)
    (uuid 2379f6be-795e-42c5-bea8-84ad03547910)
    (property "Reference" "#PWR0103" (id 0) (at 30.48 95.25 0)
      (effects (font (size 1.27 1.27)) hide)
    )
    (property "Value" "GND" (id 1) (at 30.48 93.98 0))
    (property "Footprint" "" (id 2) (at 30.48 88.9 0)
      (effects (font (size 1.27 1.27)) hide)
    )
    (property "Datasheet" "" (id 3) (at 30.48 88.9 0)
      (effects (font (size 1.27 1.27)) hide)
    )
    (pin "1" (uuid f0e36460-3360-4149-8f69-e5ba70a1078a))
  )

  (symbol (lib_id "power:GND") (at 80.01 137.16 90) (unit 1)
    (in_bom yes) (on_board yes)
    (uuid 2ff648d5-a584-4533-bc16-6a9427c82766)
    (property "Reference" "#PWR0102" (id 0) (at 86.36 137.16 0)
      (effects (font (size 1.27 1.27)) hide)
    )
    (property "Value" "GND" (id 1) (at 82.55 138.43 90)
      (effects (font (size 1.27 1.27)) (justify right))
    )
    (property "Footprint" "" (id 2) (at 80.01 137.16 0)
      (effects (font (size 1.27 1.27)) hide)
    )
    (property "Datasheet" "" (id 3) (at 80.01 137.16 0)
      (effects (font (size 1.27 1.27)) hide)
    )
    (pin "1" (uuid 276a467b-9b6e-4841-b2f2-696f5c2650fb))
  )

  (symbol (lib_id "Switch:SW_Push") (at 36.83 86.36 0) (unit 1)
    (in_bom yes) (on_board yes) (fields_autoplaced)
    (uuid 31d4f8b9-149d-4008-b86e-6b2818cbc657)
    (property "Reference" "SW1" (id 0) (at 36.83 78.74 0))
    (property "Value" "SW_Push" (id 1) (at 36.83 81.28 0))
    (property "Footprint" "TS_1088R:TS-1088R-02026" (id 2) (at 36.83 81.28 0)
      (effects (font (size 1.27 1.27)) hide)
    )
    (property "Datasheet" "~" (id 3) (at 36.83 81.28 0)
      (effects (font (size 1.27 1.27)) hide)
    )
    (pin "1" (uuid 6dc21390-78c3-495e-ae5d-aaa41e93ac37))
    (pin "2" (uuid 6ed90c3c-8e91-42e9-bcba-61423a2eff66))
  )

  (symbol (lib_id "power:GND") (at 77.47 99.06 0) (unit 1)
    (in_bom yes) (on_board yes) (fields_autoplaced)
    (uuid 31d9ad3f-5f0a-4be8-9f26-967737ce9950)
    (property "Reference" "#PWR04" (id 0) (at 77.47 105.41 0)
      (effects (font (size 1.27 1.27)) hide)
    )
    (property "Value" "GND" (id 1) (at 77.47 104.14 0))
    (property "Footprint" "" (id 2) (at 77.47 99.06 0)
      (effects (font (size 1.27 1.27)) hide)
    )
    (property "Datasheet" "" (id 3) (at 77.47 99.06 0)
      (effects (font (size 1.27 1.27)) hide)
    )
    (pin "1" (uuid ed642236-694e-4783-a09c-fb5b35807180))
  )

  (symbol (lib_id "Device:C_Small") (at 100.33 41.91 0) (unit 1)
    (in_bom yes) (on_board yes) (fields_autoplaced)
    (uuid 36ad09c0-f89f-46d3-8253-12d2d31060db)
    (property "Reference" "C5" (id 0) (at 102.87 40.6462 0)
      (effects (font (size 1.27 1.27)) (justify left))
    )
    (property "Value" "2.2u" (id 1) (at 102.87 43.1862 0)
      (effects (font (size 1.27 1.27)) (justify left))
    )
    (property "Footprint" "Capacitor_SMD:C_0603_1608Metric" (id 2) (at 100.33 41.91 0)
      (effects (font (size 1.27 1.27)) hide)
    )
    (property "Datasheet" "~" (id 3) (at 100.33 41.91 0)
      (effects (font (size 1.27 1.27)) hide)
    )
    (pin "1" (uuid 27bbaf04-1d5e-48fc-bf9c-de9996efc54c))
    (pin "2" (uuid 16f54f5d-ced2-4b0f-87bb-6ac5fdc03f77))
  )

  (symbol (lib_id "Device:R") (at 66.04 140.97 90) (unit 1)
    (in_bom yes) (on_board yes)
    (uuid 36c71fef-fc62-4ba9-863f-f5b62ef356a4)
    (property "Reference" "R3" (id 0) (at 66.04 146.05 90))
    (property "Value" "1k" (id 1) (at 66.04 143.51 90))
    (property "Footprint" "Resistor_SMD:R_0603_1608Metric" (id 2) (at 66.04 142.748 90)
      (effects (font (size 1.27 1.27)) hide)
    )
    (property "Datasheet" "~" (id 3) (at 66.04 140.97 0)
      (effects (font (size 1.27 1.27)) hide)
    )
    (pin "1" (uuid d1c7d093-a06e-43a0-bca2-5c5f32c82aa5))
    (pin "2" (uuid 20d43bf7-a587-4555-922b-447e3562e393))
  )

  (symbol (lib_id "Device:R") (at 48.26 86.36 270) (unit 1)
    (in_bom yes) (on_board yes) (fields_autoplaced)
    (uuid 3854ecd2-b618-437e-9903-4c927cbe1b91)
    (property "Reference" "R1" (id 0) (at 48.26 80.01 90))
    (property "Value" "1k" (id 1) (at 48.26 82.55 90))
    (property "Footprint" "Resistor_SMD:R_0603_1608Metric" (id 2) (at 48.26 84.582 90)
      (effects (font (size 1.27 1.27)) hide)
    )
    (property "Datasheet" "~" (id 3) (at 48.26 86.36 0)
      (effects (font (size 1.27 1.27)) hide)
    )
    (pin "1" (uuid 820318b0-88a7-4a43-b46b-6e9d137318f8))
    (pin "2" (uuid 07d6ac30-d8b3-4dee-a905-115c4946b531))
  )

  (symbol (lib_id "power:GND") (at 269.24 44.45 0) (unit 1)
    (in_bom yes) (on_board yes) (fields_autoplaced)
    (uuid 4178c5e5-c952-47ae-9064-df464107af6e)
    (property "Reference" "#PWR016" (id 0) (at 269.24 50.8 0)
      (effects (font (size 1.27 1.27)) hide)
    )
    (property "Value" "GND" (id 1) (at 269.24 49.53 0))
    (property "Footprint" "" (id 2) (at 269.24 44.45 0)
      (effects (font (size 1.27 1.27)) hide)
    )
    (property "Datasheet" "" (id 3) (at 269.24 44.45 0)
      (effects (font (size 1.27 1.27)) hide)
    )
    (pin "1" (uuid 180e9261-93a2-455a-b5ab-df940c9d0ab4))
  )

  (symbol (lib_id "Device:C_Small") (at 88.9 133.35 270) (unit 1)
    (in_bom yes) (on_board yes)
    (uuid 427ad8f4-04e2-4446-9449-8c8e058f3aa9)
    (property "Reference" "C3" (id 0) (at 88.9 128.27 90))
    (property "Value" "100n" (id 1) (at 88.9 130.81 90))
    (property "Footprint" "Capacitor_SMD:C_0603_1608Metric" (id 2) (at 88.9 133.35 0)
      (effects (font (size 1.27 1.27)) hide)
    )
    (property "Datasheet" "~" (id 3) (at 88.9 133.35 0)
      (effects (font (size 1.27 1.27)) hide)
    )
    (pin "1" (uuid 5b5a37dc-f637-43b5-a4b8-3e904fdede47))
    (pin "2" (uuid 2d354e90-6278-438e-81c2-f8284294be93))
  )

  (symbol (lib_id "MCU_RaspberryPi_RP2040:RP2040") (at 184.15 104.14 0) (unit 1)
    (in_bom yes) (on_board yes) (fields_autoplaced)
    (uuid 42f1fc54-c76a-46bb-b3e5-cbe718b394ed)
    (property "Reference" "U3" (id 0) (at 186.1694 154.94 0)
      (effects (font (size 1.27 1.27)) (justify left))
    )
    (property "Value" "RP2040" (id 1) (at 186.1694 157.48 0)
      (effects (font (size 1.27 1.27)) (justify left))
    )
    (property "Footprint" "RP2040_minimal:RP2040-QFN-56" (id 2) (at 165.1 104.14 0)
      (effects (font (size 1.27 1.27)) hide)
    )
    (property "Datasheet" "" (id 3) (at 165.1 104.14 0)
      (effects (font (size 1.27 1.27)) hide)
    )
    (pin "1" (uuid d6895bb6-411a-4825-af1c-1d00b94d8a94))
    (pin "10" (uuid ecb7a6b9-d485-4fc8-afb4-f2c80a4cd48f))
    (pin "11" (uuid 89555f3e-5e71-486a-a705-9875f4769fc3))
    (pin "12" (uuid 3458200c-8a82-4670-b658-4358773ce92e))
    (pin "13" (uuid 4c02167d-afa2-43eb-9d7f-dba24808d21c))
    (pin "14" (uuid 091fc5b0-e25b-4e3d-b9fc-99b740a51b8a))
    (pin "15" (uuid 9fc78d97-5957-4c4c-84e7-acf63632b88b))
    (pin "16" (uuid 96f0e3eb-bf35-46ca-b1a2-8563b1723cb2))
    (pin "17" (uuid 8bf021aa-c151-44e3-bbd9-d8a129f51372))
    (pin "18" (uuid 7a9abb60-3dc1-4bb5-a546-c5301affbd82))
    (pin "19" (uuid c996cb7b-89d8-40d8-9889-4d51e767eee0))
    (pin "2" (uuid 10dca87c-d5d9-4699-a3e8-3720e514754e))
    (pin "20" (uuid 8dbf48ee-9af2-4ecf-92e4-532656906675))
    (pin "21" (uuid 3fcd926d-940d-488a-9897-89c8a9204ede))
    (pin "22" (uuid da0a2473-2f19-46d1-8fac-21943aa46124))
    (pin "23" (uuid c391faa7-722f-4e5f-96ce-48121a09124e))
    (pin "24" (uuid eee73a0c-2f99-40c7-87d0-2fbcb8eef495))
    (pin "25" (uuid f940ab7b-70d7-4084-ba69-b0208c7760ba))
    (pin "26" (uuid d695b4f7-120c-47cc-ba4d-397b87282f6c))
    (pin "27" (uuid b549ad07-4fc3-462e-b7ad-9698db1adb31))
    (pin "28" (uuid ba53c80f-d017-438d-b6cf-fb93c4080f0d))
    (pin "29" (uuid 4adfe669-1e27-4efa-9450-2a72f2f7a40b))
    (pin "3" (uuid dc784b3b-b719-4f13-821f-e826e935b466))
    (pin "30" (uuid 8b915d74-df58-4e54-9b23-7b50e87bf3d4))
    (pin "31" (uuid c4098c6c-98fd-427c-ae25-eec706e2cf59))
    (pin "32" (uuid 111313b5-aca6-4916-9986-bce0bebc0c1b))
    (pin "33" (uuid ba02def3-a298-4499-b6ae-33393c96d39d))
    (pin "34" (uuid bfcb2dfd-86d3-4476-bd2a-f96f8079f4a6))
    (pin "35" (uuid c9a9cbb0-0bd6-414e-9d44-42f4b8a38a4e))
    (pin "36" (uuid c1ccb272-0627-46ed-86b9-50cde1c51a82))
    (pin "37" (uuid 0cea82e1-31b8-4edb-85bd-1a71bee7a60d))
    (pin "38" (uuid 690efab5-60b2-49c2-813c-2ad248e5eed0))
    (pin "39" (uuid db129e1f-d219-4d4a-bcb0-c1a0ea3f4655))
    (pin "4" (uuid d1d5c71d-fcd8-423d-83d2-5040a32719a6))
    (pin "40" (uuid b931d41d-8c5f-4e9e-ab25-66f4a6e6165e))
    (pin "41" (uuid 3c1facd8-6721-4865-9df5-ec8667ff2d97))
    (pin "42" (uuid dd1ddde2-555c-4d56-b0d0-99e0d8f95adb))
    (pin "43" (uuid 7006df79-0905-4b26-a083-3e04b0a467d0))
    (pin "44" (uuid f6869cf4-2acc-4197-98df-b0c0681578ef))
    (pin "45" (uuid 0572cee5-a4bf-4eb6-9f05-981395224b34))
    (pin "46" (uuid 0b666ac2-6f8b-4847-bf19-88237dd8a72d))
    (pin "47" (uuid cf4f46df-f8a4-4c73-a2ec-a1f9aac2207a))
    (pin "48" (uuid ecd6ba2f-22dc-44c3-b9f7-7838c275791c))
    (pin "49" (uuid 5a8f86d2-6798-4054-9b41-d1c13bcac931))
    (pin "5" (uuid 17534e48-ac9d-41b9-a63c-debdae029be6))
    (pin "50" (uuid ccd02990-6fab-4542-b048-262e67516a5a))
    (pin "51" (uuid 855be5be-efd3-4eec-bb9d-dca03019ff02))
    (pin "52" (uuid 975835fa-4ecb-4a31-a764-3f20dc0e2445))
    (pin "53" (uuid 711782b2-831e-4a19-901a-ed9948524298))
    (pin "54" (uuid a61183ac-27a3-4dda-8d1d-a9a9cc994234))
    (pin "55" (uuid f06a20fb-656f-40ca-8991-1831d80b11a3))
    (pin "56" (uuid 84f120aa-3da2-467d-91a8-31ffd47d9518))
    (pin "57" (uuid 2d1ccc53-1441-4ca2-886d-54ae589e76a5))
    (pin "6" (uuid 9f6f05c9-d8f1-40c6-8b71-c1185406cea8))
    (pin "7" (uuid 0ff515b6-1db5-4396-a5ba-cc629334295c))
    (pin "8" (uuid 39eb7198-392c-426e-9ae7-2670c860c7a1))
    (pin "9" (uuid c833adc5-e8e9-4cad-a2c9-f726922de9a3))
  )

  (symbol (lib_id "power:+3V3") (at 100.33 35.56 0) (unit 1)
    (in_bom yes) (on_board yes) (fields_autoplaced)
    (uuid 565548f5-e471-4a5f-bc4a-bd6181782022)
    (property "Reference" "#PWR07" (id 0) (at 100.33 39.37 0)
      (effects (font (size 1.27 1.27)) hide)
    )
    (property "Value" "+3V3" (id 1) (at 100.33 30.48 0))
    (property "Footprint" "" (id 2) (at 100.33 35.56 0)
      (effects (font (size 1.27 1.27)) hide)
    )
    (property "Datasheet" "" (id 3) (at 100.33 35.56 0)
      (effects (font (size 1.27 1.27)) hide)
    )
    (pin "1" (uuid 5ab84427-3467-45da-8f66-895c6eea0d38))
  )

  (symbol (lib_id "power:+3V3") (at 200.66 31.75 0) (unit 1)
    (in_bom yes) (on_board yes) (fields_autoplaced)
    (uuid 58906806-1a0c-46f2-81e4-82098d3a0d55)
    (property "Reference" "#PWR014" (id 0) (at 200.66 35.56 0)
      (effects (font (size 1.27 1.27)) hide)
    )
    (property "Value" "+3V3" (id 1) (at 200.66 26.67 0))
    (property "Footprint" "" (id 2) (at 200.66 31.75 0)
      (effects (font (size 1.27 1.27)) hide)
    )
    (property "Datasheet" "" (id 3) (at 200.66 31.75 0)
      (effects (font (size 1.27 1.27)) hide)
    )
    (pin "1" (uuid c53d6f54-7561-4ed3-a134-fbb7b47cd366))
  )

  (symbol (lib_id "power:GND") (at 93.98 144.78 0) (unit 1)
    (in_bom yes) (on_board yes) (fields_autoplaced)
    (uuid 5ab86ae6-f831-493b-8352-3a0a7e8aa343)
    (property "Reference" "#PWR06" (id 0) (at 93.98 151.13 0)
      (effects (font (size 1.27 1.27)) hide)
    )
    (property "Value" "GND" (id 1) (at 93.98 149.86 0))
    (property "Footprint" "" (id 2) (at 93.98 144.78 0)
      (effects (font (size 1.27 1.27)) hide)
    )
    (property "Datasheet" "" (id 3) (at 93.98 144.78 0)
      (effects (font (size 1.27 1.27)) hide)
    )
    (pin "1" (uuid 62c2e47c-5211-4f5a-864b-c999a328e385))
  )

  (symbol (lib_id "Device:R") (at 222.25 60.96 90) (unit 1)
    (in_bom yes) (on_board yes) (fields_autoplaced)
    (uuid 5e6efde5-0dbd-4251-8f75-dc21e4f712e7)
    (property "Reference" "R4" (id 0) (at 222.25 54.61 90))
    (property "Value" "27.4" (id 1) (at 222.25 57.15 90))
    (property "Footprint" "Resistor_SMD:R_0603_1608Metric" (id 2) (at 222.25 62.738 90)
      (effects (font (size 1.27 1.27)) hide)
    )
    (property "Datasheet" "~" (id 3) (at 222.25 60.96 0)
      (effects (font (size 1.27 1.27)) hide)
    )
    (pin "1" (uuid 7203d099-4087-4176-88a2-ed5a0ff5d303))
    (pin "2" (uuid 38ab514d-e524-4140-81f1-c2e55cd81d0a))
  )

  (symbol (lib_id "Device:C_Small") (at 62.23 41.91 0) (unit 1)
    (in_bom yes) (on_board yes) (fields_autoplaced)
    (uuid 5f33cb2f-81ee-4b39-9484-783e873dc8d4)
    (property "Reference" "C1" (id 0) (at 64.77 40.6462 0)
      (effects (font (size 1.27 1.27)) (justify left))
    )
    (property "Value" "1u" (id 1) (at 64.77 43.1862 0)
      (effects (font (size 1.27 1.27)) (justify left))
    )
    (property "Footprint" "Capacitor_SMD:C_0603_1608Metric" (id 2) (at 62.23 41.91 0)
      (effects (font (size 1.27 1.27)) hide)
    )
    (property "Datasheet" "~" (id 3) (at 62.23 41.91 0)
      (effects (font (size 1.27 1.27)) hide)
    )
    (pin "1" (uuid d68faeb8-16f2-4acc-9793-0c1ee12b440e))
    (pin "2" (uuid 36f8f27f-629e-4428-809e-89a2a9031a70))
  )

  (symbol (lib_id "Device:C_Small") (at 224.79 39.37 0) (unit 1)
    (in_bom yes) (on_board yes) (fields_autoplaced)
    (uuid 657fd5eb-5776-406a-abc4-59f033989732)
    (property "Reference" "C12" (id 0) (at 227.33 38.1062 0)
      (effects (font (size 1.27 1.27)) (justify left))
    )
    (property "Value" "100n" (id 1) (at 227.33 40.6462 0)
      (effects (font (size 1.27 1.27)) (justify left))
    )
    (property "Footprint" "Capacitor_SMD:C_0603_1608Metric" (id 2) (at 224.79 39.37 0)
      (effects (font (size 1.27 1.27)) hide)
    )
    (property "Datasheet" "~" (id 3) (at 224.79 39.37 0)
      (effects (font (size 1.27 1.27)) hide)
    )
    (pin "1" (uuid 9146a827-5291-40c6-805b-18164b2349ca))
    (pin "2" (uuid 6017f6e7-867c-4785-ac03-76c0ce8e9a2f))
  )

  (symbol (lib_id "power:GND") (at 162.56 49.53 0) (unit 1)
    (in_bom yes) (on_board yes)
    (uuid 6764c3e1-7d86-4f0c-b3d2-65351623179c)
    (property "Reference" "#PWR010" (id 0) (at 162.56 55.88 0)
      (effects (font (size 1.27 1.27)) hide)
    )
    (property "Value" "GND" (id 1) (at 158.75 50.8 0))
    (property "Footprint" "" (id 2) (at 162.56 49.53 0)
      (effects (font (size 1.27 1.27)) hide)
    )
    (property "Datasheet" "" (id 3) (at 162.56 49.53 0)
      (effects (font (size 1.27 1.27)) hide)
    )
    (pin "1" (uuid 8104b65f-811d-42f9-95b5-3ad1bb571cc5))
  )

  (symbol (lib_id "Device:C_Small") (at 88.9 140.97 90) (unit 1)
    (in_bom yes) (on_board yes)
    (uuid 6fbb0a7f-ecf6-4ebc-be7d-f14634e3ef80)
    (property "Reference" "C4" (id 0) (at 88.9 135.89 90))
    (property "Value" "100n" (id 1) (at 88.9 138.43 90))
    (property "Footprint" "Capacitor_SMD:C_0603_1608Metric" (id 2) (at 88.9 140.97 0)
      (effects (font (size 1.27 1.27)) hide)
    )
    (property "Datasheet" "~" (id 3) (at 88.9 140.97 0)
      (effects (font (size 1.27 1.27)) hide)
    )
    (pin "1" (uuid eac502e1-b01c-4909-835a-419d0ec9cc17))
    (pin "2" (uuid 647f7d1c-2574-4e0b-a493-ca44c1bbf57e))
  )

  (symbol (lib_id "power:GND") (at 39.37 57.15 0) (unit 1)
    (in_bom yes) (on_board yes) (fields_autoplaced)
    (uuid 72165a51-adae-4171-9b97-2e5001f3aca6)
    (property "Reference" "#PWR01" (id 0) (at 39.37 63.5 0)
      (effects (font (size 1.27 1.27)) hide)
    )
    (property "Value" "GND" (id 1) (at 39.37 62.23 0))
    (property "Footprint" "" (id 2) (at 39.37 57.15 0)
      (effects (font (size 1.27 1.27)) hide)
    )
    (property "Datasheet" "" (id 3) (at 39.37 57.15 0)
      (effects (font (size 1.27 1.27)) hide)
    )
    (pin "1" (uuid 93f36f78-2e10-4858-a83f-7e384f4e1cc8))
  )

  (symbol (lib_id "power:GND") (at 184.15 154.94 0) (unit 1)
    (in_bom yes) (on_board yes) (fields_autoplaced)
    (uuid 76e17d3f-5459-4474-aea0-db3a29eeae67)
    (property "Reference" "#PWR013" (id 0) (at 184.15 161.29 0)
      (effects (font (size 1.27 1.27)) hide)
    )
    (property "Value" "GND" (id 1) (at 184.15 160.02 0))
    (property "Footprint" "" (id 2) (at 184.15 154.94 0)
      (effects (font (size 1.27 1.27)) hide)
    )
    (property "Datasheet" "" (id 3) (at 184.15 154.94 0)
      (effects (font (size 1.27 1.27)) hide)
    )
    (pin "1" (uuid cf8742b3-f53f-4fdd-8968-25ec8c4f3554))
  )

  (symbol (lib_id "power:+3V3") (at 77.47 66.04 0) (unit 1)
    (in_bom yes) (on_board yes) (fields_autoplaced)
    (uuid 7803dd8d-c2f2-4e50-a6c3-f95f1669f56b)
    (property "Reference" "#PWR03" (id 0) (at 77.47 69.85 0)
      (effects (font (size 1.27 1.27)) hide)
    )
    (property "Value" "+3V3" (id 1) (at 77.47 60.96 0))
    (property "Footprint" "" (id 2) (at 77.47 66.04 0)
      (effects (font (size 1.27 1.27)) hide)
    )
    (property "Datasheet" "" (id 3) (at 77.47 66.04 0)
      (effects (font (size 1.27 1.27)) hide)
    )
    (pin "1" (uuid 74abf286-49bb-4709-a548-d09b99a5cd25))
  )

  (symbol (lib_id "power:GND") (at 100.33 46.99 0) (unit 1)
    (in_bom yes) (on_board yes) (fields_autoplaced)
    (uuid 80a2cf7e-6d90-475d-b217-3bdf0e7683d9)
    (property "Reference" "#PWR08" (id 0) (at 100.33 53.34 0)
      (effects (font (size 1.27 1.27)) hide)
    )
    (property "Value" "GND" (id 1) (at 100.33 52.07 0))
    (property "Footprint" "" (id 2) (at 100.33 46.99 0)
      (effects (font (size 1.27 1.27)) hide)
    )
    (property "Datasheet" "" (id 3) (at 100.33 46.99 0)
      (effects (font (size 1.27 1.27)) hide)
    )
    (pin "1" (uuid bc47b6b1-8019-4df6-83cd-5e0faf934b37))
  )

  (symbol (lib_id "power:GND") (at 87.63 73.66 0) (unit 1)
    (in_bom yes) (on_board yes)
    (uuid 813ff784-611d-4cdf-84fa-d910db8d8c79)
    (property "Reference" "#PWR05" (id 0) (at 87.63 80.01 0)
      (effects (font (size 1.27 1.27)) hide)
    )
    (property "Value" "GND" (id 1) (at 91.44 74.93 0))
    (property "Footprint" "" (id 2) (at 87.63 73.66 0)
      (effects (font (size 1.27 1.27)) hide)
    )
    (property "Datasheet" "" (id 3) (at 87.63 73.66 0)
      (effects (font (size 1.27 1.27)) hide)
    )
    (pin "1" (uuid 786bcb53-1a97-4dda-8185-20a11fe83ea5))
  )

  (symbol (lib_id "Device:C_Small") (at 204.47 39.37 0) (unit 1)
    (in_bom yes) (on_board yes) (fields_autoplaced)
    (uuid 82e4a407-667a-4162-a11f-960c46c6c7e2)
    (property "Reference" "C9" (id 0) (at 207.01 38.1062 0)
      (effects (font (size 1.27 1.27)) (justify left))
    )
    (property "Value" "100n" (id 1) (at 207.01 40.6462 0)
      (effects (font (size 1.27 1.27)) (justify left))
    )
    (property "Footprint" "Capacitor_SMD:C_0603_1608Metric" (id 2) (at 204.47 39.37 0)
      (effects (font (size 1.27 1.27)) hide)
    )
    (property "Datasheet" "~" (id 3) (at 204.47 39.37 0)
      (effects (font (size 1.27 1.27)) hide)
    )
    (pin "1" (uuid de852692-d6b6-4bb9-ad17-662018cdc1ee))
    (pin "2" (uuid 9e0986c1-5eab-45e2-b5d8-634e6d36cc8d))
  )

  (symbol (lib_id "power:GND") (at 69.85 137.16 270) (unit 1)
    (in_bom yes) (on_board yes)
    (uuid 96181405-aca7-4e2b-ab4c-341ee1f3c107)
    (property "Reference" "#PWR0101" (id 0) (at 63.5 137.16 0)
      (effects (font (size 1.27 1.27)) hide)
    )
    (property "Value" "GND" (id 1) (at 63.5 135.89 90)
      (effects (font (size 1.27 1.27)) (justify left))
    )
    (property "Footprint" "" (id 2) (at 69.85 137.16 0)
      (effects (font (size 1.27 1.27)) hide)
    )
    (property "Datasheet" "" (id 3) (at 69.85 137.16 0)
      (effects (font (size 1.27 1.27)) hide)
    )
    (pin "1" (uuid 0cb3bdab-126e-437d-9bfb-ca96dd0bd357))
  )

  (symbol (lib_id "Device:C_Small") (at 265.43 39.37 0) (unit 1)
    (in_bom yes) (on_board yes) (fields_autoplaced)
    (uuid 963eeed2-cee6-49ee-953f-630f6a73de46)
    (property "Reference" "C16" (id 0) (at 267.97 38.1062 0)
      (effects (font (size 1.27 1.27)) (justify left))
    )
    (property "Value" "100n" (id 1) (at 267.97 40.6462 0)
      (effects (font (size 1.27 1.27)) (justify left))
    )
    (property "Footprint" "Capacitor_SMD:C_0603_1608Metric" (id 2) (at 265.43 39.37 0)
      (effects (font (size 1.27 1.27)) hide)
    )
    (property "Datasheet" "~" (id 3) (at 265.43 39.37 0)
      (effects (font (size 1.27 1.27)) hide)
    )
    (pin "1" (uuid 702e03d8-f200-4c8c-8ae9-377d26fddbf6))
    (pin "2" (uuid 458fe911-e38f-4680-94ef-52fcaa82f010))
  )

  (symbol (lib_id "Device:Crystal_GND24") (at 74.93 137.16 90) (unit 1)
    (in_bom yes) (on_board yes)
    (uuid 99b322e0-b7c4-47c3-bb75-4746f1d8192f)
    (property "Reference" "Y1" (id 0) (at 74.93 143.51 90))
    (property "Value" "Crystal_GND24" (id 1) (at 74.93 130.81 90))
    (property "Footprint" "Crystal:Crystal_SMD_3225-4Pin_3.2x2.5mm" (id 2) (at 74.93 137.16 0)
      (effects (font (size 1.27 1.27)) hide)
    )
    (property "Datasheet" "~" (id 3) (at 74.93 137.16 0)
      (effects (font (size 1.27 1.27)) hide)
    )
    (pin "1" (uuid e21c2761-ecc6-4359-9b1c-8dcb6fdc1a18))
    (pin "2" (uuid e141587c-d5d3-448f-89d9-07cbc5d6b029))
    (pin "3" (uuid e6630a7e-817b-4e5d-bf84-de316903a756))
    (pin "4" (uuid 5fd6a491-fb41-414e-843f-1e6d1ff17bf0))
  )

  (symbol (lib_id "Device:R") (at 62.23 71.12 180) (unit 1)
    (in_bom yes) (on_board yes) (fields_autoplaced)
    (uuid a580b305-eecb-4db0-bf52-8d747b0778e9)
    (property "Reference" "R2" (id 0) (at 64.77 69.8499 0)
      (effects (font (size 1.27 1.27)) (justify right))
    )
    (property "Value" "DNF" (id 1) (at 64.77 72.3899 0)
      (effects (font (size 1.27 1.27)) (justify right))
    )
    (property "Footprint" "Resistor_SMD:R_0603_1608Metric" (id 2) (at 64.008 71.12 90)
      (effects (font (size 1.27 1.27)) hide)
    )
    (property "Datasheet" "~" (id 3) (at 62.23 71.12 0)
      (effects (font (size 1.27 1.27)) hide)
    )
    (pin "1" (uuid 3b28d362-3c57-43e9-b2c0-b471eb6437d0))
    (pin "2" (uuid 73508c93-c580-44c6-a046-d2cc1dd1e1a4))
  )

  (symbol (lib_id "Device:C_Small") (at 214.63 39.37 0) (unit 1)
    (in_bom yes) (on_board yes) (fields_autoplaced)
    (uuid ae27126a-a8d9-4b3a-ba97-bcaca31f6d54)
    (property "Reference" "C11" (id 0) (at 217.17 38.1062 0)
      (effects (font (size 1.27 1.27)) (justify left))
    )
    (property "Value" "100n" (id 1) (at 217.17 40.6462 0)
      (effects (font (size 1.27 1.27)) (justify left))
    )
    (property "Footprint" "Capacitor_SMD:C_0603_1608Metric" (id 2) (at 214.63 39.37 0)
      (effects (font (size 1.27 1.27)) hide)
    )
    (property "Datasheet" "~" (id 3) (at 214.63 39.37 0)
      (effects (font (size 1.27 1.27)) hide)
    )
    (pin "1" (uuid 4bf5c341-3584-490d-a6c8-aa2fcb94fce3))
    (pin "2" (uuid 980d9579-b5a2-4c19-978e-df9c12f8d836))
  )

  (symbol (lib_id "Device:C_Small") (at 204.47 46.99 0) (unit 1)
    (in_bom yes) (on_board yes) (fields_autoplaced)
    (uuid b35e1d95-8656-47af-9b1f-0336ce11a7b6)
    (property "Reference" "C10" (id 0) (at 207.01 45.7262 0)
      (effects (font (size 1.27 1.27)) (justify left))
    )
    (property "Value" "1u" (id 1) (at 207.01 48.2662 0)
      (effects (font (size 1.27 1.27)) (justify left))
    )
    (property "Footprint" "Capacitor_SMD:C_0603_1608Metric" (id 2) (at 204.47 46.99 0)
      (effects (font (size 1.27 1.27)) hide)
    )
    (property "Datasheet" "~" (id 3) (at 204.47 46.99 0)
      (effects (font (size 1.27 1.27)) hide)
    )
    (pin "1" (uuid 7ec71ec8-2ddc-4df5-a900-0845509d02f8))
    (pin "2" (uuid 9f7087ab-a7b2-4411-b524-1e62a9e65da5))
  )

  (symbol (lib_id "Device:C_Small") (at 255.27 39.37 0) (unit 1)
    (in_bom yes) (on_board yes) (fields_autoplaced)
    (uuid b35eef24-d642-420f-9ae8-9333126ce495)
    (property "Reference" "C15" (id 0) (at 257.81 38.1062 0)
      (effects (font (size 1.27 1.27)) (justify left))
    )
    (property "Value" "100n" (id 1) (at 257.81 40.6462 0)
      (effects (font (size 1.27 1.27)) (justify left))
    )
    (property "Footprint" "Capacitor_SMD:C_0603_1608Metric" (id 2) (at 255.27 39.37 0)
      (effects (font (size 1.27 1.27)) hide)
    )
    (property "Datasheet" "~" (id 3) (at 255.27 39.37 0)
      (effects (font (size 1.27 1.27)) hide)
    )
    (pin "1" (uuid c1c9c338-acd9-49c1-809c-f46ffc3bc179))
    (pin "2" (uuid af5b4d5e-5a01-4d41-b83d-9563a6033a29))
  )

  (symbol (lib_id "Device:C_Small") (at 234.95 39.37 0) (unit 1)
    (in_bom yes) (on_board yes) (fields_autoplaced)
    (uuid bbc054f6-d7b1-4938-8ab1-fb7999c981d3)
    (property "Reference" "C13" (id 0) (at 237.49 38.1062 0)
      (effects (font (size 1.27 1.27)) (justify left))
    )
    (property "Value" "100n" (id 1) (at 237.49 40.6462 0)
      (effects (font (size 1.27 1.27)) (justify left))
    )
    (property "Footprint" "Capacitor_SMD:C_0603_1608Metric" (id 2) (at 234.95 39.37 0)
      (effects (font (size 1.27 1.27)) hide)
    )
    (property "Datasheet" "~" (id 3) (at 234.95 39.37 0)
      (effects (font (size 1.27 1.27)) hide)
    )
    (pin "1" (uuid dcca85f3-9df7-4404-a8c3-e6e7c87b48da))
    (pin "2" (uuid 20160722-3f21-4fd4-8439-002abe9f90c4))
  )

  (symbol (lib_id "Device:C_Small") (at 152.4 39.37 0) (unit 1)
    (in_bom yes) (on_board yes) (fields_autoplaced)
    (uuid bd920652-0478-418e-895f-e88f34f29d04)
    (property "Reference" "C6" (id 0) (at 154.94 38.1062 0)
      (effects (font (size 1.27 1.27)) (justify left))
    )
    (property "Value" "100n" (id 1) (at 154.94 40.6462 0)
      (effects (font (size 1.27 1.27)) (justify left))
    )
    (property "Footprint" "Capacitor_SMD:C_0603_1608Metric" (id 2) (at 152.4 39.37 0)
      (effects (font (size 1.27 1.27)) hide)
    )
    (property "Datasheet" "~" (id 3) (at 152.4 39.37 0)
      (effects (font (size 1.27 1.27)) hide)
    )
    (pin "1" (uuid aebf8b99-3966-4b21-af51-a22d70f733c6))
    (pin "2" (uuid c48668f6-e9ce-4ab8-bb53-428da1dc872d))
  )

  (symbol (lib_id "Device:R") (at 222.25 63.5 90) (unit 1)
    (in_bom yes) (on_board yes) (fields_autoplaced)
    (uuid beb8ca01-e958-4793-b5f7-4f723554150b)
    (property "Reference" "R5" (id 0) (at 222.25 69.85 90))
    (property "Value" "27.4" (id 1) (at 222.25 67.31 90))
    (property "Footprint" "Resistor_SMD:R_0603_1608Metric" (id 2) (at 222.25 65.278 90)
      (effects (font (size 1.27 1.27)) hide)
    )
    (property "Datasheet" "~" (id 3) (at 222.25 63.5 0)
      (effects (font (size 1.27 1.27)) hide)
    )
    (pin "1" (uuid d6026d84-57c4-4d24-bf7c-5e22a4e2635a))
    (pin "2" (uuid a859c4dd-00a0-45db-9bf1-52229dbd0e91))
  )

  (symbol (lib_id "power:+1V1") (at 171.45 31.75 0) (unit 1)
    (in_bom yes) (on_board yes) (fields_autoplaced)
    (uuid c0200b60-6009-4f95-bcf5-2b818dbfbd17)
    (property "Reference" "#PWR011" (id 0) (at 171.45 35.56 0)
      (effects (font (size 1.27 1.27)) hide)
    )
    (property "Value" "+1V1" (id 1) (at 171.45 26.67 0))
    (property "Footprint" "" (id 2) (at 171.45 31.75 0)
      (effects (font (size 1.27 1.27)) hide)
    )
    (property "Datasheet" "" (id 3) (at 171.45 31.75 0)
      (effects (font (size 1.27 1.27)) hide)
    )
    (pin "1" (uuid bbfdab41-67c8-492f-ac47-e8df52f18ab8))
  )

  (symbol (lib_id "Memory_Flash:W25Q32JVSS") (at 77.47 88.9 0) (unit 1)
    (in_bom yes) (on_board yes) (fields_autoplaced)
    (uuid c14c2f6f-f5ca-48cc-ad15-c1734f3db8f5)
    (property "Reference" "U1" (id 0) (at 79.4894 76.2 0)
      (effects (font (size 1.27 1.27)) (justify left))
    )
    (property "Value" "W25Q32JVSS" (id 1) (at 79.4894 78.74 0)
      (effects (font (size 1.27 1.27)) (justify left))
    )
    (property "Footprint" "Package_SO:SOIC-8_5.23x5.23mm_P1.27mm" (id 2) (at 77.47 88.9 0)
      (effects (font (size 1.27 1.27)) hide)
    )
    (property "Datasheet" "http://www.winbond.com/resource-files/w25q32jv%20revg%2003272018%20plus.pdf" (id 3) (at 77.47 88.9 0)
      (effects (font (size 1.27 1.27)) hide)
    )
    (pin "1" (uuid 68b37850-f63c-4d88-9b1a-e6943cec7b87))
    (pin "2" (uuid e55aae25-4229-412d-92b1-09a496bbbfc5))
    (pin "3" (uuid 3f3f6218-5989-43de-865d-e861a6920f9a))
    (pin "4" (uuid faa1e6bd-22d4-443a-aa11-48611814d19c))
    (pin "5" (uuid 6a0eb807-7692-43fd-bf13-6aa1be53ffba))
    (pin "6" (uuid 982041d1-3376-4c5f-9267-3d4c158bf581))
    (pin "7" (uuid 3efba43d-e3d6-477b-b0fa-a6868a4ee094))
    (pin "8" (uuid 47eed2d4-c50e-47e1-8917-2d9c41c7d491))
  )

  (symbol (lib_id "power:GND") (at 171.45 154.94 0) (unit 1)
    (in_bom yes) (on_board yes) (fields_autoplaced)
    (uuid c5df8490-0114-4cfe-828c-32292b8fa277)
    (property "Reference" "#PWR012" (id 0) (at 171.45 161.29 0)
      (effects (font (size 1.27 1.27)) hide)
    )
    (property "Value" "GND" (id 1) (at 171.45 160.02 0))
    (property "Footprint" "" (id 2) (at 171.45 154.94 0)
      (effects (font (size 1.27 1.27)) hide)
    )
    (property "Datasheet" "" (id 3) (at 171.45 154.94 0)
      (effects (font (size 1.27 1.27)) hide)
    )
    (pin "1" (uuid 3b43dc16-bfc3-42f9-8bb3-6be234554f9e))
  )

  (symbol (lib_id "power:GND") (at 62.23 44.45 0) (unit 1)
    (in_bom yes) (on_board yes) (fields_autoplaced)
    (uuid c7f85dd5-cf86-43f5-889f-91a50735b4a0)
    (property "Reference" "#PWR02" (id 0) (at 62.23 50.8 0)
      (effects (font (size 1.27 1.27)) hide)
    )
    (property "Value" "GND" (id 1) (at 62.23 49.53 0))
    (property "Footprint" "" (id 2) (at 62.23 44.45 0)
      (effects (font (size 1.27 1.27)) hide)
    )
    (property "Datasheet" "" (id 3) (at 62.23 44.45 0)
      (effects (font (size 1.27 1.27)) hide)
    )
    (pin "1" (uuid 844ac20d-484d-4c41-8d46-b0578828566e))
  )

  (symbol (lib_id "Connector:USB_B_Micro") (at 41.91 44.45 0) (unit 1)
    (in_bom yes) (on_board yes) (fields_autoplaced)
    (uuid d4682adb-785e-43e0-9e50-0d69b23cf542)
    (property "Reference" "J1" (id 0) (at 41.91 31.75 0))
    (property "Value" "USB_B_Micro" (id 1) (at 41.91 34.29 0))
    (property "Footprint" "U254-051T-4BH83-F1S:XKB_U254-051T-4BH83-F1S" (id 2) (at 45.72 45.72 0)
      (effects (font (size 1.27 1.27)) hide)
    )
    (property "Datasheet" "~" (id 3) (at 45.72 45.72 0)
      (effects (font (size 1.27 1.27)) hide)
    )
    (pin "1" (uuid c554beff-4b58-4b4f-9e24-8f3ad5858656))
    (pin "2" (uuid cc537b26-8dbe-47ac-b6f6-c5d648d0860f))
    (pin "3" (uuid 5b6a58f5-9b5e-4137-8f21-d93dfa698571))
    (pin "4" (uuid b9569ba1-c27d-4127-a2e5-7a7498f73d39))
    (pin "5" (uuid 07d6a43c-36f8-4527-8c49-26891fa7b0b3))
    (pin "6" (uuid 48ed048c-338b-4352-8d0f-509630e25c5e))
  )

  (symbol (lib_id "power:GND") (at 204.47 49.53 0) (unit 1)
    (in_bom yes) (on_board yes)
    (uuid dec58d67-275e-443c-9d86-d8d0d0218b84)
    (property "Reference" "#PWR015" (id 0) (at 204.47 55.88 0)
      (effects (font (size 1.27 1.27)) hide)
    )
    (property "Value" "GND" (id 1) (at 208.28 50.8 0))
    (property "Footprint" "" (id 2) (at 204.47 49.53 0)
      (effects (font (size 1.27 1.27)) hide)
    )
    (property "Datasheet" "" (id 3) (at 204.47 49.53 0)
      (effects (font (size 1.27 1.27)) hide)
    )
    (pin "1" (uuid d3b140dd-9726-4580-bb70-9517e94792a7))
  )

  (symbol (lib_id "Device:C_Small") (at 87.63 71.12 0) (unit 1)
    (in_bom yes) (on_board yes) (fields_autoplaced)
    (uuid f2c2753a-a6a4-467b-ae9e-e0c35346c011)
    (property "Reference" "C2" (id 0) (at 90.17 69.8562 0)
      (effects (font (size 1.27 1.27)) (justify left))
    )
    (property "Value" "100n" (id 1) (at 90.17 72.3962 0)
      (effects (font (size 1.27 1.27)) (justify left))
    )
    (property "Footprint" "Capacitor_SMD:C_0603_1608Metric" (id 2) (at 87.63 71.12 0)
      (effects (font (size 1.27 1.27)) hide)
    )
    (property "Datasheet" "~" (id 3) (at 87.63 71.12 0)
      (effects (font (size 1.27 1.27)) hide)
    )
    (pin "1" (uuid 0ab3b1b4-d166-4747-b45a-a45aba2ab946))
    (pin "2" (uuid 2ae4a16e-a096-434c-ab35-0f9de80b278c))
  )

  (symbol (lib_id "Regulators:BL9161-33BARN") (at 83.82 40.64 0) (unit 1)
    (in_bom yes) (on_board yes) (fields_autoplaced)
    (uuid f7426ea2-78cf-4a15-a3ab-48b456fd4991)
    (property "Reference" "U2" (id 0) (at 83.82 31.75 0))
    (property "Value" "BL9161-33BARN" (id 1) (at 83.82 34.29 0))
    (property "Footprint" "Package_TO_SOT_SMD:SOT-23-5" (id 2) (at 60.96 29.21 0)
      (effects (font (size 1.27 1.27)) hide)
    )
    (property "Datasheet" "https://datasheet.lcsc.com/lcsc/2105242039_BL-Shanghai-Belling-BL9161-33BARN_C2826592.pdf" (id 3) (at 60.96 29.21 0)
      (effects (font (size 1.27 1.27)) hide)
    )
    (pin "1" (uuid 9196210c-0485-43c3-8fe2-bda8922f5618))
    (pin "2" (uuid 2d7086ae-151f-4346-8c3f-4d797041b1d3))
    (pin "3" (uuid a5ea2d3f-ebb6-4c70-87cb-9dc904d2db16))
    (pin "5" (uuid 7b567fe9-6534-43a7-aaf4-a891078652ed))
  )

  (sheet_instances
    (path "/" (page "1"))
  )

  (symbol_instances
    (path "/72165a51-adae-4171-9b97-2e5001f3aca6"
      (reference "#PWR01") (unit 1) (value "GND") (footprint "")
    )
    (path "/c7f85dd5-cf86-43f5-889f-91a50735b4a0"
      (reference "#PWR02") (unit 1) (value "GND") (footprint "")
    )
    (path "/7803dd8d-c2f2-4e50-a6c3-f95f1669f56b"
      (reference "#PWR03") (unit 1) (value "+3V3") (footprint "")
    )
    (path "/31d9ad3f-5f0a-4be8-9f26-967737ce9950"
      (reference "#PWR04") (unit 1) (value "GND") (footprint "")
    )
    (path "/813ff784-611d-4cdf-84fa-d910db8d8c79"
      (reference "#PWR05") (unit 1) (value "GND") (footprint "")
    )
    (path "/5ab86ae6-f831-493b-8352-3a0a7e8aa343"
      (reference "#PWR06") (unit 1) (value "GND") (footprint "")
    )
    (path "/565548f5-e471-4a5f-bc4a-bd6181782022"
      (reference "#PWR07") (unit 1) (value "+3V3") (footprint "")
    )
    (path "/80a2cf7e-6d90-475d-b217-3bdf0e7683d9"
      (reference "#PWR08") (unit 1) (value "GND") (footprint "")
    )
    (path "/07f928a4-555a-4cd7-81ba-8597f1638cb2"
      (reference "#PWR09") (unit 1) (value "GND") (footprint "")
    )
    (path "/6764c3e1-7d86-4f0c-b3d2-65351623179c"
      (reference "#PWR010") (unit 1) (value "GND") (footprint "")
    )
    (path "/c0200b60-6009-4f95-bcf5-2b818dbfbd17"
      (reference "#PWR011") (unit 1) (value "+1V1") (footprint "")
    )
    (path "/c5df8490-0114-4cfe-828c-32292b8fa277"
      (reference "#PWR012") (unit 1) (value "GND") (footprint "")
    )
    (path "/76e17d3f-5459-4474-aea0-db3a29eeae67"
      (reference "#PWR013") (unit 1) (value "GND") (footprint "")
    )
    (path "/58906806-1a0c-46f2-81e4-82098d3a0d55"
      (reference "#PWR014") (unit 1) (value "+3V3") (footprint "")
    )
    (path "/dec58d67-275e-443c-9d86-d8d0d0218b84"
      (reference "#PWR015") (unit 1) (value "GND") (footprint "")
    )
    (path "/4178c5e5-c952-47ae-9064-df464107af6e"
      (reference "#PWR016") (unit 1) (value "GND") (footprint "")
    )
    (path "/96181405-aca7-4e2b-ab4c-341ee1f3c107"
      (reference "#PWR0101") (unit 1) (value "GND") (footprint "")
    )
    (path "/2ff648d5-a584-4533-bc16-6a9427c82766"
      (reference "#PWR0102") (unit 1) (value "GND") (footprint "")
    )
    (path "/2379f6be-795e-42c5-bea8-84ad03547910"
      (reference "#PWR0103") (unit 1) (value "GND") (footprint "")
    )
    (path "/5f33cb2f-81ee-4b39-9484-783e873dc8d4"
      (reference "C1") (unit 1) (value "1u") (footprint "Capacitor_SMD:C_0603_1608Metric")
    )
    (path "/f2c2753a-a6a4-467b-ae9e-e0c35346c011"
      (reference "C2") (unit 1) (value "100n") (footprint "Capacitor_SMD:C_0603_1608Metric")
    )
    (path "/427ad8f4-04e2-4446-9449-8c8e058f3aa9"
      (reference "C3") (unit 1) (value "100n") (footprint "Capacitor_SMD:C_0603_1608Metric")
    )
    (path "/6fbb0a7f-ecf6-4ebc-be7d-f14634e3ef80"
      (reference "C4") (unit 1) (value "100n") (footprint "Capacitor_SMD:C_0603_1608Metric")
    )
    (path "/36ad09c0-f89f-46d3-8253-12d2d31060db"
      (reference "C5") (unit 1) (value "2.2u") (footprint "Capacitor_SMD:C_0603_1608Metric")
    )
    (path "/bd920652-0478-418e-895f-e88f34f29d04"
      (reference "C6") (unit 1) (value "100n") (footprint "Capacitor_SMD:C_0603_1608Metric")
    )
    (path "/024ced39-fd0c-42ce-b10f-3775f8b8a385"
      (reference "C7") (unit 1) (value "100n") (footprint "Capacitor_SMD:C_0603_1608Metric")
    )
    (path "/208aef5c-0c95-4cc3-9a65-2cd98df63a09"
      (reference "C8") (unit 1) (value "1u") (footprint "Capacitor_SMD:C_0603_1608Metric")
    )
    (path "/82e4a407-667a-4162-a11f-960c46c6c7e2"
      (reference "C9") (unit 1) (value "100n") (footprint "Capacitor_SMD:C_0603_1608Metric")
    )
    (path "/b35e1d95-8656-47af-9b1f-0336ce11a7b6"
      (reference "C10") (unit 1) (value "1u") (footprint "Capacitor_SMD:C_0603_1608Metric")
    )
    (path "/ae27126a-a8d9-4b3a-ba97-bcaca31f6d54"
      (reference "C11") (unit 1) (value "100n") (footprint "Capacitor_SMD:C_0603_1608Metric")
    )
    (path "/657fd5eb-5776-406a-abc4-59f033989732"
      (reference "C12") (unit 1) (value "100n") (footprint "Capacitor_SMD:C_0603_1608Metric")
    )
    (path "/bbc054f6-d7b1-4938-8ab1-fb7999c981d3"
      (reference "C13") (unit 1) (value "100n") (footprint "Capacitor_SMD:C_0603_1608Metric")
    )
    (path "/076ef873-b89f-4d18-bcc1-2d7d8bdd1a86"
      (reference "C14") (unit 1) (value "100n") (footprint "Capacitor_SMD:C_0603_1608Metric")
    )
    (path "/b35eef24-d642-420f-9ae8-9333126ce495"
      (reference "C15") (unit 1) (value "100n") (footprint "Capacitor_SMD:C_0603_1608Metric")
    )
    (path "/963eeed2-cee6-49ee-953f-630f6a73de46"
      (reference "C16") (unit 1) (value "100n") (footprint "Capacitor_SMD:C_0603_1608Metric")
    )
    (path "/d4682adb-785e-43e0-9e50-0d69b23cf542"
      (reference "J1") (unit 1) (value "USB_B_Micro") (footprint "U254-051T-4BH83-F1S:XKB_U254-051T-4BH83-F1S")
    )
    (path "/3854ecd2-b618-437e-9903-4c927cbe1b91"
      (reference "R1") (unit 1) (value "1k") (footprint "Resistor_SMD:R_0603_1608Metric")
    )
    (path "/a580b305-eecb-4db0-bf52-8d747b0778e9"
      (reference "R2") (unit 1) (value "DNF") (footprint "Resistor_SMD:R_0603_1608Metric")
    )
    (path "/36c71fef-fc62-4ba9-863f-f5b62ef356a4"
      (reference "R3") (unit 1) (value "1k") (footprint "Resistor_SMD:R_0603_1608Metric")
    )
    (path "/5e6efde5-0dbd-4251-8f75-dc21e4f712e7"
      (reference "R4") (unit 1) (value "27.4") (footprint "Resistor_SMD:R_0603_1608Metric")
    )
    (path "/beb8ca01-e958-4793-b5f7-4f723554150b"
      (reference "R5") (unit 1) (value "27.4") (footprint "Resistor_SMD:R_0603_1608Metric")
    )
    (path "/31d4f8b9-149d-4008-b86e-6b2818cbc657"
      (reference "SW1") (unit 1) (value "SW_Push") (footprint "TS_1088R:TS-1088R-02026")
    )
    (path "/c14c2f6f-f5ca-48cc-ad15-c1734f3db8f5"
      (reference "U1") (unit 1) (value "W25Q32JVSS") (footprint "Package_SO:SOIC-8_5.23x5.23mm_P1.27mm")
    )
    (path "/f7426ea2-78cf-4a15-a3ab-48b456fd4991"
      (reference "U2") (unit 1) (value "BL9161-33BARN") (footprint "Package_TO_SOT_SMD:SOT-23-5")
    )
    (path "/42f1fc54-c76a-46bb-b3e5-cbe718b394ed"
      (reference "U3") (unit 1) (value "RP2040") (footprint "RP2040_minimal:RP2040-QFN-56")
    )
    (path "/99b322e0-b7c4-47c3-bb75-4746f1d8192f"
      (reference "Y1") (unit 1) (value "Crystal_GND24") (footprint "Crystal:Crystal_SMD_3225-4Pin_3.2x2.5mm")
    )
  )
)
