(footprint "PowerPAK SC75-6L" (version 20211014) (generator pcbnew)
  (layer "F.Cu")
  (tedit 0)
  (attr smd)
  (fp_text reference "REF**" (at 0 -4.532714 unlocked) (layer "F.SilkS")
    (effects (font (size 1 1) (thickness 0.15)))
    (tstamp 7d95a84a-4769-4463-ba2f-679b745ea2d3)
  )
  (fp_text value "PowerPAK SC75-6L" (at 0 4.985986 unlocked) (layer "F.Fab")
    (effects (font (size 1 1) (thickness 0.15)))
    (tstamp cbde88d7-73b4-4e15-a97c-fa01576be6a8)
  )
  (fp_rect (start -1 -0.85) (end 1 0.85) (layer "F.CrtYd") (width 0.06) (fill none) (tstamp 7fffe6ad-dd8f-4f33-813f-716bf88e9cf9))
  (pad "1" smd rect (at 0.5 0.7 90) (size 0.3 0.25) (layers "F.Cu" "F.Paste" "F.Mask") (tstamp 7366c7b1-016b-41d5-85db-66b8fc10e684))
  (pad "2" smd rect (at 0.5 -0.06 90) (size 0.62 0.2) (layers "F.Cu" "F.Paste" "F.Mask") (tstamp 9403283e-c194-4db9-b03b-0dd46545d5d6))
  (pad "2" smd rect (at 0.5 -0.7 90) (size 0.3 0.25) (layers "F.Cu" "F.Paste" "F.Mask") (tstamp b25b0e0a-baa8-43d1-aded-538df98148ba))
  (pad "3" smd rect (at 0 0.7 90) (size 0.3 0.25) (layers "F.Cu" "F.Paste" "F.Mask") (tstamp 07eb4609-a79d-49bc-bc0b-0daeb3c92751))
  (pad "3" smd rect (at -0.21 0) (size 0.67 1.1) (layers "F.Cu" "F.Paste" "F.Mask") (tstamp 708a8340-3ad4-493f-a9f3-afc0808644c7))
  (pad "3" smd rect (at -0.5 -0.7 90) (size 0.3 0.25) (layers "F.Cu" "F.Paste" "F.Mask") (tstamp 986037ed-826b-4acf-adc0-59104dc8dc16))
  (pad "3" smd rect (at 0 -0.7 90) (size 0.3 0.25) (layers "F.Cu" "F.Paste" "F.Mask") (tstamp b3535d6e-3d90-406d-bcaf-520828322701))
  (pad "3" smd rect (at -0.5 0.7 90) (size 0.3 0.25) (layers "F.Cu" "F.Paste" "F.Mask") (tstamp f51d9208-dc34-4b47-a4dc-96e5f4eac18d))
)
