(module LOGO (layer F.Cu)
  (at 0 0)
(attr board_only exclude_from_pos_files exclude_from_bom)
 (fp_text reference "G***" (at 0 0) (layer F.SilkS)
  (effects (font (thickness 0.3)))
  )
  (fp_text value "LOGO" (at 0.75 0) (layer F.SilkS) hide
  (effects (font (thickness 0.3)))
  )
  (fp_poly (pts (xy -0.271049 -1.081632) (xy -0.267943 -1.068980) (xy -0.265410 -1.045261) (xy -0.263393 -1.008475) (xy -0.261831 -0.956619) (xy -0.260666 -0.887694) (xy -0.259839 -0.799699) (xy -0.259290 -0.690633)
     (xy -0.258960 -0.558495) (xy -0.258790 -0.401284) (xy -0.258784 -0.390926) (xy -0.258351 0.326339) (xy -0.910475 0.326339) (xy -0.938223 0.380728) (xy -0.965971 0.435118) (xy -0.258351 0.435118)
     (xy -0.258351 1.917238) (xy 0.456560 1.917238) (xy 1.224292 0.583015) (xy 1.325406 0.407333) (xy 1.422873 0.238070) (xy 1.515819 0.076740) (xy 1.603370 -0.075145) (xy 1.684653 -0.216072)
     (xy 1.758794 -0.344529) (xy 1.824920 -0.459002) (xy 1.882156 -0.557978) (xy 1.929630 -0.639946) (xy 1.966468 -0.703391) (xy 1.991795 -0.746802) (xy 2.004739 -0.768666) (xy 2.006166 -0.770925)
     (xy 2.012586 -0.770887) (xy 2.024785 -0.758962) (xy 2.043752 -0.733576) (xy 2.070478 -0.693155) (xy 2.105952 -0.636125) (xy 2.151164 -0.560912) (xy 2.207104 -0.465943) (xy 2.274761 -0.349643)
     (xy 2.316495 -0.277454) (xy 2.379015 -0.168407) (xy 2.436649 -0.066480) (xy 2.488061 0.025860) (xy 2.531909 0.106141) (xy 2.566855 0.171895) (xy 2.591561 0.220652) (xy 2.604687 0.249944)
     (xy 2.606423 0.257240) (xy 2.598856 0.271856) (xy 2.578601 0.308354) (xy 2.546604 0.365085) (xy 2.503809 0.440399) (xy 2.451161 0.532647) (xy 2.389605 0.640179) (xy 2.320085 0.761346)
     (xy 2.243546 0.894498) (xy 2.160932 1.037985) (xy 2.073189 1.190160) (xy 1.981261 1.349370) (xy 1.947762 1.407334) (xy 1.295359 2.535921) (xy -1.371217 2.542853) (xy -1.479347 2.355821)
     (xy -1.521934 2.282153) (xy -1.573575 2.192814) (xy -1.629718 2.095681) (xy -1.685810 1.998628) (xy -1.731628 1.919346) (xy -1.875781 1.669901) (xy -1.087505 0.307308) (xy -0.984716 0.129698)
     (xy -0.885494 -0.041612) (xy -0.790716 -0.205119) (xy -0.701254 -0.359319) (xy -0.617986 -0.502710) (xy -0.541784 -0.633787) (xy -0.473525 -0.751048) (xy -0.414082 -0.852988) (xy -0.364331 -0.938105)
     (xy -0.325147 -1.004896) (xy -0.297404 -1.051855) (xy -0.281977 -1.077482) (xy -0.279223 -1.081738) (xy -0.274790 -1.085217) )(layer F.SilkS) (width  0.000000)
  )
  (fp_poly (pts (xy 1.565439 -1.578047) (xy 1.624625 -1.475252) (xy 1.679165 -1.379767) (xy 1.727626 -1.294154) (xy 1.768578 -1.220975) (xy 1.800592 -1.162792) (xy 1.822235 -1.122169) (xy 1.832077 -1.101666)
     (xy 1.832502 -1.099776) (xy 1.824307 -1.084161) (xy 1.803594 -1.047132) (xy 1.771407 -0.990487) (xy 1.728792 -0.916024) (xy 1.676794 -0.825541) (xy 1.616458 -0.720838) (xy 1.548830 -0.603710)
     (xy 1.474955 -0.475958) (xy 1.395878 -0.339378) (xy 1.312644 -0.195770) (xy 1.226299 -0.046930) (xy 1.137888 0.105342) (xy 1.048457 0.259248) (xy 0.959049 0.412991) (xy 0.870712 0.564773)
     (xy 0.784490 0.712794) (xy 0.701427 0.855257) (xy 0.622571 0.990365) (xy 0.548965 1.116318) (xy 0.481655 1.231319) (xy 0.421687 1.333569) (xy 0.370105 1.421271) (xy 0.327956 1.492626)
     (xy 0.296283 1.545836) (xy 0.276133 1.579103) (xy 0.268550 1.590629) (xy 0.268549 1.590629) (xy 0.267197 1.577356) (xy 0.265897 1.538615) (xy 0.264662 1.476135) (xy 0.263502 1.391642)
     (xy 0.262430 1.286865) (xy 0.261457 1.163530) (xy 0.260595 1.023364) (xy 0.259855 0.868097) (xy 0.259250 0.699454) (xy 0.258791 0.519163) (xy 0.258489 0.328952) (xy 0.258356 0.130549)
     (xy 0.258351 0.081585) (xy 0.258351 -1.427730) (xy -0.098582 -1.427101) (xy -0.455514 -1.426471) (xy -1.250964 -0.040370) (xy -1.353616 0.138333) (xy -1.452585 0.310285) (xy -1.547022 0.474032)
     (xy -1.636081 0.628121) (xy -1.718916 0.771097) (xy -1.794679 0.901506) (xy -1.862524 1.017896) (xy -1.921604 1.118813) (xy -1.971072 1.202802) (xy -2.010082 1.268410) (xy -2.037787 1.314184)
     (xy -2.053340 1.338669) (xy -2.056479 1.342539) (xy -2.064992 1.330554) (xy -2.085338 1.297792) (xy -2.115869 1.247096) (xy -2.154940 1.181309) (xy -2.200903 1.103273) (xy -2.252112 1.015832)
     (xy -2.306920 0.921828) (xy -2.363680 0.824104) (xy -2.420747 0.725502) (xy -2.476473 0.628866) (xy -2.529211 0.537037) (xy -2.577316 0.452859) (xy -2.619139 0.379175) (xy -2.653036 0.318827)
     (xy -2.677358 0.274658) (xy -2.690460 0.249511) (xy -2.692291 0.244889) (xy -2.685635 0.231927) (xy -2.666286 0.197046) (xy -2.635169 0.141867) (xy -2.593212 0.068009) (xy -2.541343 -0.022910)
     (xy -2.480489 -0.129268) (xy -2.411576 -0.249447) (xy -2.335531 -0.381827) (xy -2.253283 -0.524788) (xy -2.165758 -0.676712) (xy -2.073882 -0.835978) (xy -2.033551 -0.905829) (xy -1.374811 -2.046413)
     (xy 1.294729 -2.046413) )(layer F.SilkS) (width  0.000000)
  )
)
