(module LOGO (layer F.Cu)
  (at 0 0)
(attr board_only exclude_from_pos_files exclude_from_bom)
 (fp_text reference "G***" (at 0 0) (layer F.SilkS)
  (effects (font (thickness 0.3)))
  )
  (fp_text value "LOGO" (at 0.75 0) (layer F.SilkS) hide
  (effects (font (thickness 0.3)))
  )
  (fp_poly (pts (xy 8.083679 -5.545718) (xy 7.963913 -5.349783) (xy 7.788498 -5.077115) (xy 7.634087 -4.843919) (xy 7.300129 -4.316990) (xy 7.078128 -3.890497) (xy 6.963471 -3.542051) (xy 6.951543 -3.249265)
     (xy 7.037733 -2.989752) (xy 7.203910 -2.756352) (xy 7.419228 -2.562653) (xy 7.721444 -2.352801) (xy 8.009911 -2.190629) (xy 8.270361 -2.055686) (xy 8.452242 -1.948411) (xy 8.520371 -1.889780)
     (xy 8.519214 -1.886991) (xy 8.409430 -1.880419) (xy 8.187400 -1.931412) (xy 7.894609 -2.026534) (xy 7.572539 -2.152353) (xy 7.270905 -2.291264) (xy 6.912402 -2.507059) (xy 6.635499 -2.742262)
     (xy 6.469408 -2.968562) (xy 6.434667 -3.101751) (xy 6.409576 -3.207158) (xy 6.392205 -3.217333) (xy 6.316396 -3.166935) (xy 6.128325 -3.025976) (xy 5.847850 -2.809810) (xy 5.494831 -2.533792)
     (xy 5.089125 -2.213275) (xy 4.931705 -2.088127) (xy 4.236414 -1.543007) (xy 3.459813 -0.948783) (xy 2.641496 -0.334800) (xy 1.821059 0.269599) (xy 1.038096 0.835071) (xy 0.332202 1.332271)
     (xy 0.110727 1.484695) (xy -0.159448 1.671510) (xy -0.364137 1.817358) (xy -0.472582 1.900122) (xy -0.481940 1.910824) (xy -0.388757 1.914648) (xy -0.151751 1.910829) (xy 0.203793 1.900458)
     (xy 0.652589 1.884625) (xy 1.169353 1.864420) (xy 1.728800 1.840934) (xy 2.305645 1.815258) (xy 2.874602 1.788482) (xy 3.410387 1.761696) (xy 3.887715 1.735992) (xy 4.281300 1.712459)
     (xy 4.541100 1.694190) (xy 4.990502 1.651819) (xy 5.510989 1.591964) (xy 6.070245 1.519483) (xy 6.635955 1.439233) (xy 7.175804 1.356073) (xy 7.657478 1.274858) (xy 8.048660 1.200448)
     (xy 8.317035 1.137699) (xy 8.383861 1.116548) (xy 8.491674 1.067746) (xy 8.487619 1.022770) (xy 8.352911 0.958996) (xy 8.207854 0.904606) (xy 7.701558 0.760722) (xy 7.033028 0.640068)
     (xy 6.207904 0.543661) (xy 6.201834 0.543096) (xy 5.886130 0.516024) (xy 5.702935 0.513769) (xy 5.616189 0.545065) (xy 5.589831 0.618649) (xy 5.588000 0.691794) (xy 5.538911 0.919730)
     (xy 5.378059 1.050799) (xy 5.085069 1.099520) (xy 5.014221 1.100667) (xy 4.730058 1.071874) (xy 4.514848 0.959802) (xy 4.387802 0.844827) (xy 4.230625 0.648759) (xy 4.180012 0.506092)
     (xy 4.587728 0.506092) (xy 4.653689 0.631412) (xy 4.788311 0.719782) (xy 4.963411 0.759501) (xy 5.111151 0.744212) (xy 5.164667 0.679285) (xy 5.100691 0.578751) (xy 4.948653 0.455033)
     (xy 4.757461 0.377625) (xy 4.624452 0.402239) (xy 4.587728 0.506092) (xy 4.180012 0.506092) (xy 4.174818 0.491451) (xy 4.179990 0.463827) (xy 4.177098 0.392983) (xy 4.079047 0.354420)
     (xy 3.855139 0.339736) (xy 3.722676 0.338667) (xy 3.455551 0.326698) (xy 3.272390 0.295601) (xy 3.217334 0.260003) (xy 3.293063 0.202234) (xy 3.489383 0.132935) (xy 3.703118 0.080490)
     (xy 3.976648 0.049007) (xy 4.384634 0.034447) (xy 4.893217 0.035187) (xy 5.468539 0.049605) (xy 6.076741 0.076079) (xy 6.683965 0.112986) (xy 7.256351 0.158705) (xy 7.760041 0.211613)
     (xy 8.161177 0.270087) (xy 8.315076 0.301463) (xy 8.775234 0.441560) (xy 9.137080 0.615491) (xy 9.376119 0.808698) (xy 9.465750 0.985240) (xy 9.414003 1.178326) (xy 9.226813 1.389710)
     (xy 8.933110 1.597013) (xy 8.561828 1.777858) (xy 8.339077 1.856693) (xy 8.074062 1.932155) (xy 7.790630 1.998171) (xy 7.472940 2.056110) (xy 7.105151 2.107340) (xy 6.671423 2.153231)
     (xy 6.155914 2.195150) (xy 5.542785 2.234467) (xy 4.816193 2.272551) (xy 3.960299 2.310769) (xy 2.959262 2.350492) (xy 2.370667 2.372395) (xy 1.453851 2.409669) (xy 0.682498 2.450258)
     (xy 0.032740 2.496751) (xy -0.519291 2.551738) (xy -0.997463 2.617808) (xy -1.425646 2.697551) (xy -1.827708 2.793556) (xy -2.032000 2.850079) (xy -2.444690 2.981485) (xy -2.990534 3.174632)
     (xy -3.648508 3.421246) (xy -4.397588 3.713051) (xy -5.216746 4.041771) (xy -6.084960 4.399133) (xy -6.981203 4.776860) (xy -7.566986 5.028583) (xy -8.063107 5.242147) (xy -8.506177 5.430389)
     (xy -8.872949 5.583636) (xy -9.140172 5.692214) (xy -9.284597 5.746450) (xy -9.302653 5.750779) (xy -9.245190 5.713577) (xy -9.055474 5.612560) (xy -8.753553 5.457919) (xy -8.359480 5.259846)
     (xy -7.893304 5.028530) (xy -7.535333 4.852540) (xy -6.893163 4.539644) (xy -6.180307 4.195102) (xy -5.450998 3.844946) (xy -4.759471 3.515205) (xy -4.159960 3.231910) (xy -4.106333 3.206751)
     (xy -3.512333 2.924016) (xy -2.966019 2.653036) (xy -2.450780 2.382969) (xy -1.950008 2.102977) (xy -1.447092 1.802220) (xy -0.925423 1.469858) (xy -0.368391 1.095050) (xy 0.240614 0.666957)
     (xy 0.918200 0.174740) (xy 1.680978 -0.392442) (xy 2.545557 -1.045429) (xy 3.358143 -1.664750) (xy 4.102579 -2.236428) (xy 4.734661 -2.728531) (xy 5.278868 -3.161233) (xy 5.759682 -3.554707)
     (xy 6.201583 -3.929127) (xy 6.629052 -4.304668) (xy 7.066570 -4.701502) (xy 7.260167 -4.880259) (xy 7.571325 -5.165356) (xy 7.833063 -5.398577) (xy 8.023372 -5.560824) (xy 8.120240 -5.632998)
     (xy 8.128000 -5.633282) )(layer F.SilkS) (width  0.000000)
  )
)
